,computional_FD,fit_error,theoretical_FD,std_deviation
0,2.0116175920970845,0.0256885961130116,2.0,0.025033400340285596
1,2.0508449972014637,0.034119359961120484,2.1,0.028122961755292372
2,2.1054650151453855,0.0490832516368261,2.2,0.029857364385762176
3,2.1713283548465676,0.06651901857221093,2.3000000000000003,0.02989467411930905
4,2.237220044689456,0.08600317146201504,2.4000000000000004,0.026469248711749046
5,2.3021044239632946,0.10949268447676726,2.5000000000000004,0.027037596723509423
6,2.3670094115296667,0.13225341768503113,2.6000000000000005,0.021260710179961742
7,2.4229234786838014,0.15441957078887145,2.7000000000000006,0.019728868732258584
8,2.4750918914573203,0.1779138670643797,2.8000000000000007,0.015495755295757727
9,2.514019233680265,0.196829113431934,2.900000000000001,0.015534851201253735
