,computional_FD,fit_error,theoretical_FD,std_deviation
0,2.1098168451832895,0.0011023539045711774,2.0,0.03123595507794914
1,2.157980141732528,0.001394388684473733,2.1,0.03322591571170824
2,2.206544206563879,0.0016205694825671387,2.2,0.0332589831897271
3,2.274417594767366,0.001991083035562771,2.3,0.034914732905201536
4,2.3592757813151097,0.0022623678038527838,2.4,0.02939395196804651
5,2.4327701417569925,0.0025613431551902354,2.5,0.03297032760804402
6,2.520546818834794,0.0023153389405348953,2.6,0.02169446968213804
7,2.587487412282126,0.002162724367462684,2.7,0.020027789324899316
8,2.6561007989797547,0.0018371320265448707,2.8,0.016089724762377237
9,2.7122124723570176,0.0015454753498042157,2.9,0.014392747204014065