,computional_FD,fit_error,theoretical_FD,std_deviation
0,2.2038977957323005,0.0045908116302291755,2.0,0.045860347320801624
1,2.2676759016266623,0.004345478108185781,2.1,0.050858382665133386
2,2.311051813288967,0.0038455195652336432,2.2,0.046451260206462675
3,2.3884070259652903,0.0032063391965099024,2.3,0.0415836972501977
4,2.473023312355256,0.0024583137648094095,2.4,0.03430708468671385
5,2.545098872035936,0.002360258872586678,2.5,0.0313364675642246
6,2.627970353528219,0.0018163642417635502,2.6,0.02319371061243575
7,2.688511022007542,0.0017102791918131854,2.7,0.021769978996734943
8,2.7559829328760737,0.001332952548210735,2.8,0.0166941497040787
9,2.8155135685399544,0.0011194806490871807,2.9,0.015697494870841634
