,computional_FD,fit_error,theoretical_FD,std_deviation
0,2.02989904332107,0.0007055915240903435,2.0,0.029994815661159014
1,2.058263602777946,0.0006259594601203812,2.1,0.03099939319028794
2,2.1129696286694664,0.0006369999155217489,2.2,0.03480820093435979
3,2.1720481794230504,0.0005495761367322727,2.3,0.03084035877825456
4,2.232106217305774,0.0004885512905558176,2.4,0.030609355226742935
5,2.2975526419542827,0.00046559045732977517,2.5,0.028180854046537765
6,2.361573323555748,0.0004362654072618894,2.6,0.023909322509694776
7,2.418980346522285,0.0004130833316835299,2.7,0.022195465935612547
8,2.475957596032843,0.0004376401957061855,2.8,0.019674705780998773
