,computional_FD,fit_error,theoretical_FD,std_deviation
0,2.0763575530277345,0.00042348848079505256,2.0,0.028744912468045537
1,2.120251497919856,0.000395266142998094,2.1,0.03145584013046915
2,2.1688083790552555,0.0003583849849176965,2.2,0.03370776418287913
3,2.2389237822825,0.00031559991056346324,2.3000000000000003,0.029010399703377352
4,2.296209613635073,0.00029893534038823806,2.4000000000000004,0.03381597743710512
5,2.376050390178636,0.00027283296273439316,2.5000000000000004,0.030209962115262192
6,2.4502098531568763,0.0002473287595068626,2.6000000000000005,0.028178448309656972
7,2.520768251810841,0.00022318848673132664,2.7000000000000006,0.021136579729949156
8,2.578574197362334,0.00019918195570547647,2.8000000000000007,0.01834123563438161
