slope,corelation,std_error,fit_error
2.052103433985899,0.9999710630183909,0.009013421013404183,0.0012150397312266092
2.137294830224876,0.9999844185822099,0.006888542897931242,0.0018364640144848867
2.1179928237363765,0.999980853035041,0.007567197389329882,0.0012038060172254509
2.1211652234392084,0.9999899785067929,0.005482748833269498,0.0007422815410034894
2.1295184560921996,0.9999789608484271,0.007975478397354492,0.001628561881425631
2.0723465646614403,0.9999359653280157,0.013540827601171892,0.0014098495110001902
2.082037800198332,0.999926534361382,0.014571660355232016,0.0013346710298876244
2.142549557122354,0.9999942417660792,0.004197896954352148,0.0007347255994059918
2.1401446432283944,0.9999780116300911,0.008194098426018391,0.0006749596444693775
2.0752245030896983,0.9999787940088939,0.007802893007098489,0.0008521255287738756
2.1548394027885376,0.9999353964170069,0.014142253734618174,0.0005114788318313625
2.1023661436849608,0.9999731160897548,0.008900567533159483,0.00098465602236797
2.0599545603173843,0.9999087477871966,0.01606805973685216,0.0012606998427950598
2.114624285777491,0.9999738443168104,0.008830374851118978,0.0013885387155663563
2.1083494154697604,0.9998656655859164,0.01995420180051087,0.0009089544950490104
2.109649541754365,0.9999786513926154,0.007958961704124462,0.0015030964730421144
2.121956407665129,0.9999920277305405,0.004891977034800012,0.000615416994772981
2.201367176132001,0.9999483623209279,0.012916565007450899,0.001121791960051046
2.124008573857727,0.9999667050866818,0.010007150362212286,0.0018467542388515006
2.1241373565267523,0.9999261775128474,0.014902370285470652,0.0016966198280210698
2.1097525617309385,0.9999669304935589,0.009906278231583156,0.0007493003593998413
2.1074963503205564,0.9999783600135919,0.008004915321727332,0.0009162569248881918
2.107633273508109,0.9999203030787578,0.015363711703571255,0.0009319062225928594
2.0855979654787693,0.9999636504368724,0.010267067158842163,0.0008928368969513034
2.127140677640094,0.9999788891528167,0.007980135958733555,0.0008114266959863921
2.170107697975832,0.9999570555736913,0.011611893632552025,0.0006154921732676899
2.121046928369883,0.9999814055367459,0.00746796936735619,0.0010471435486524255
2.0791781164313643,0.9999441837407521,0.012683660552537526,0.0011626980949083863
2.122224532601377,0.9999848291520104,0.006749250866714483,0.0007357748640256179
2.1133175785637737,0.9999542300867216,0.011674118285071797,0.001098316177041121
2.1520004489864477,0.9999165927500491,0.01604818041055474,0.0008154570381009151
2.0998435173393037,0.9999865293154625,0.006292750645867886,0.0008062490159764711
2.0798430882183934,0.9999570384023431,0.011131127243746214,0.0010910287063673509
2.12371762030914,0.9999674613762862,0.009891481187868967,0.0006973802430794421
2.1032388692353985,0.9999637436706126,0.01034062279565305,0.0007076190754898767
2.1277852352728837,0.9999911518672191,0.005167861419282457,0.0013434249955123691
2.177625173706568,0.9999610934834792,0.011090760982930095,0.0004810168017131408
2.0655872131243163,0.9999184345982017,0.015232720228650397,0.0023855670160000822
2.0940851479061204,0.9999674950280518,0.009748419115744325,0.0009967294324181284
2.0967979456009447,0.9999930237392614,0.004521937726942793,0.0006587549414752043
2.046472192708508,0.9999219312903448,0.014764683737814456,0.0011390676150958704
2.15211144021532,0.9999817460942936,0.007507631947821068,0.0006072238015621949
2.082443598928845,0.9999625871098295,0.010400409377279618,0.0009436737054273153
2.092037210870408,0.9999431791901375,0.01287644548538512,0.0012669862100452478
2.106387531575646,0.9999070425058549,0.016583077471434542,0.0006624585170032427
2.091192719807383,0.9999202614648117,0.01524784712767849,0.0014764327960484522
2.135932981258206,0.9995436610747501,0.03726785770210986,0.0010724846119674304
2.083555195202539,0.9999254802894773,0.014686531243649116,0.001852332439197551
2.078019390281452,0.9998711571137867,0.019260881468172602,0.0017867547327087394
2.1483293795390357,0.9999207335173871,0.015618015578206475,0.000880902136967238
2.1296601205830106,0.9999541124497564,0.011779505313645244,0.0008644995518563945
2.1031997433896272,0.9999760291388592,0.00840784151053063,0.000925132095256544
2.0787039555911853,0.9999444484724066,0.012650657874926422,0.0016983707952381156
2.1190840804558664,0.9999747793347488,0.008689385067912598,0.000807540097215735
2.108455615812571,0.9999205386848414,0.015346968140989601,0.001361231511401068
2.0981324910170223,0.999980446635801,0.007575379483177678,0.0025312991270307135
2.0945011860583067,0.9999643934667077,0.01020496278293871,0.001089113719431707
2.1415819598699395,0.9999779709589881,0.00820718156744483,0.0014494687889365593
2.0689823541380883,0.999811661261583,0.023186881273041807,0.0027142376302387683
2.078361536432221,0.9999199143048837,0.015187246029263853,0.0013026969065414787
2.106646650979713,0.9999700424783678,0.00941474944225316,0.0017425935104211359
2.1398778195259314,0.9999954566594906,0.0037241955003180843,0.0008921587631899852
2.089926072344218,0.9999168546236112,0.015560782403427101,0.0025989473912495925
2.116551689981513,0.9999789905128065,0.007921324761733604,0.0006582130890086456
2.123853218582047,0.9999275642661218,0.01475974643237386,0.00037375303801667883
2.091704343461628,0.999975397094154,0.008471413579823762,0.0009217184614178595
2.057939192093091,0.9999539387885288,0.011404325128740183,0.0010015435291929238
2.1502004779977226,0.9999406701382026,0.013523506637913216,0.0010389708948766135
2.1162160206185283,0.9999755885657908,0.008537269035078813,0.0007080720705930578
2.0998203511505644,0.9999763831935568,0.008332106045365141,0.0009508750584893714
2.0740096536226984,0.9999425691967258,0.012833830418387272,0.0011803522260244296
2.1581514474309693,0.9999621918827921,0.010835304704389447,0.0014961393446614954
2.129110135143751,0.9999354480859708,0.013967802528477092,0.0009592865125208197
2.0921197751248997,0.9996306994948592,0.032836070591399806,0.001360724144201936
2.0989095531594444,0.9998244970513286,0.022706357656710852,0.000703134496879145
2.167656181216413,0.9999106768613496,0.016728455769575133,0.0008489357521718105
2.0989853111933154,0.9999708819166654,0.009248145347941345,0.0010646999897018547
2.1165093721435126,0.9999912395253858,0.005114948173158183,0.0008759702179705202
2.137942269394387,0.9999919926766972,0.004939655191358906,0.0007309039166257101
2.1685887520847515,0.9999302132453589,0.01479247365436272,0.0014141798412156182
2.116697010105679,0.9999648787596879,0.010242581519025995,0.0011472921129469743
2.089196683287967,0.9999610885909392,0.01064105901057116,0.0008494110118084412
2.13199160668194,0.9999941858289725,0.004197451205127153,0.0006980269148383544
2.0833146349029645,0.9999413401499446,0.013028631982877221,0.0009923004347772043
2.052838444297966,0.9999232900375041,0.0146811479442219,0.0012899999537803394
2.0628775253669684,0.999939651971789,0.013085159309298643,0.0008508211974757265
2.1455507417826656,0.9999951221607126,0.003869086978166137,0.0007338812167138702
2.0498417933936826,0.9999417955118763,0.012769441715636251,0.0011648296205637842
2.067216614403313,0.9998664097552459,0.019510627912036282,0.0013660445130517142
2.0981925171394398,0.9999868817713421,0.006204996995583441,0.0019096860790305651
2.0636350127915373,0.9999722645511753,0.008873886945966775,0.0008579014312872174
2.141940075171763,0.9999861860935284,0.006500165915444859,0.001546992460245181
2.121111255820659,0.9998850787214004,0.01856758746743041,0.0004834844552826308
2.125249844392815,0.9999867503205145,0.006316425317131922,0.0009135602703997071
2.0974267610343884,0.9999408620509838,0.01317023631808483,0.0010866996379186409
2.0896699399466527,0.9999317223031957,0.014099176186059069,0.000775363789589896
2.124063698287845,0.99994444997641,0.01292653496721462,0.0005545691010668839
2.1773114945173937,0.9999320836641767,0.014651570595407323,0.000600436169327089
2.1078026451068888,0.9999725339734017,0.009019681044093564,0.0009567446668208465
2.108242606839056,0.9999449918794537,0.01276751208860176,0.001089395257494707
