slope,corelation,std_error,fit_error
2.7248793729059217,0.9999476765045199,0.0160941138755888,0.0012921346049365894
2.7271758375627986,0.9999457623140998,0.016399694339535188,0.0013828696339210293
2.7279999528968144,0.9999459315973251,0.01637902744008679,0.0012651448736033057
2.736085573608078,0.999958935970153,0.014316214799258905,0.0011698554717082406
2.7121113253567075,0.9999219201892395,0.019568461950257385,0.0015940034227190645
2.7218149236708515,0.9999616765923236,0.013758069659371559,0.0012713857479169533
2.7128901692342486,0.999931359276936,0.018352695783651677,0.0014596569335575955
2.7171302350826485,0.9999447890206494,0.016485249899500634,0.0013711984198330497
2.732589234725784,0.9999651221510597,0.013176950982557827,0.0012384542299594362
2.709850340149263,0.9999190739679829,0.019905365687235898,0.001512936345669141
2.7068082006658276,0.9998977495640057,0.022350011214586844,0.0016220216171096299
2.733519809901206,0.9999599292440868,0.014128739435160902,0.0011513838182674022
2.6923881054710463,0.9998803521263963,0.02404825124589222,0.0018518573341654507
2.718666541150921,0.9999407146377082,0.017092412410245273,0.0013701727929348961
2.6916129663806667,0.9998630716177027,0.025719251477421507,0.0019112867048875534
2.698863557667164,0.9998978880402098,0.02226931545750726,0.001645320673287074
2.706151492349018,0.9998783657648508,0.024371037135926754,0.001651937406711131
2.7283058067083528,0.9999552959892876,0.014894818772857955,0.0012528310107596515
2.718998172250802,0.999942781759207,0.016793807642615937,0.0013663932247646425
2.699254895935794,0.9998890047386323,0.023221306091594514,0.00185826051401486
2.7268969967716714,0.9999466044906241,0.01627019895549355,0.0012623355412581256
2.712018887650308,0.9999249744564778,0.01918121414320623,0.0014754533024457807
2.6954815262631944,0.999892860643391,0.022782435368014074,0.0017456290766011027
2.71433860376327,0.9999097554713274,0.02105514469960204,0.0014845709756132496
2.688416739921335,0.9998596453453936,0.026008187743052285,0.0020207226304171425
2.702631482724362,0.999901574268686,0.021894124749939237,0.0016281219506683298
2.7222264128801807,0.9999256981094664,0.019160319589049162,0.0013875067266572035
2.7033935544022394,0.9999094553683746,0.021005087324878696,0.001601909005089593
2.7164443644603797,0.9999517338943449,0.0154096238070447,0.0013976279366152398
2.713056868128626,0.9999096746135326,0.021054629531511607,0.001706135920714874
2.7101557477355693,0.9998910891324646,0.023095092483416412,0.0016350915416835049
2.7067135070917727,0.9999328432510161,0.018111873151171392,0.0015459078626817529
2.71228573207234,0.9999276408395216,0.018839099481674736,0.0014082674007772536
2.709871408351718,0.9999325126749798,0.018177583293979727,0.001628020391337346
2.6980477145627146,0.9998738625988007,0.024743835765244408,0.0017227875955236978
2.736058596842425,0.9999675296719189,0.012730154647347027,0.0013087506347808637
2.6940881958166134,0.9998236732356119,0.029213442551494186,0.001990296148560264
2.7093889089058982,0.9999005442412651,0.02206343274989036,0.001590796386218656
2.693878374784963,0.9998547994476276,0.026507195890077,0.0018171657721046974
2.7138565334512283,0.9999197776222943,0.019847926907224388,0.0014361518023270762
2.724539488258457,0.9999456201783334,0.0164052963474374,0.0013309674391484303
2.698353247457877,0.9998610700537155,0.025971459971327594,0.0018062307838892812
2.672854226045634,0.9998556849561174,0.02621998610977709,0.002320498353413106
2.708283265819528,0.9999205614089003,0.019710157709895863,0.0016500108322738626
2.709612604779968,0.9999165797798353,0.02020805025642611,0.0014843115826226698
2.723931986277293,0.9999499298208723,0.015738252615084863,0.001306150880953255
2.7089854021632247,0.9999027627336,0.021812682595310898,0.001730836073610544
2.6949763308249306,0.9998758296034941,0.024522164842674426,0.0017834422522292404
2.6990823650251996,0.9998977654555367,0.02228448711704944,0.0018591661694011886
2.7006147813533614,0.9998576642788455,0.026309968580045688,0.0017794955386153573
2.7330436967766247,0.9999558843560461,0.014822164440047855,0.0012046533173952613
2.7277967374202325,0.9999504550226078,0.015677699346650437,0.0013748071424822385
2.7233663228704166,0.9999275535142557,0.01892747552156699,0.0013593593950858441
2.700220150274828,0.9998854633093709,0.0235973464688307,0.001707554235231572
2.7129999451430766,0.9999465412142808,0.01619687063757885,0.001535220920069254
2.7304825611707892,0.9999439132776067,0.01669713957455552,0.0012697761528088997
2.735091952686896,0.999963219428118,0.013544017973704562,0.001184866207626217
2.7524995639671546,0.9999835521221047,0.009114690440046272,0.0009298819652411434
2.7109113060706487,0.9999004768106116,0.022083313640204688,0.0017432281961611356
2.7056992937174758,0.9999153087954219,0.02033202526927158,0.0015590937129152042
2.7142564853317586,0.9999224324883109,0.019519579203707286,0.0015306785032672952
2.7148715509111607,0.9999280845443048,0.018799149462894856,0.0015273277649515205
2.7200148363451087,0.9999400087440482,0.017202404740253224,0.0013372189936311318
2.7252223073010406,0.9999506343597188,0.015634527930895727,0.0012438044743327545
2.6867110697498817,0.999805589968002,0.030591304831196632,0.0021210629336950253
2.713287993683931,0.9999065042979685,0.021422815236089774,0.0015195749895363115
2.680792015177834,0.9998149788076122,0.02977751837102989,0.0020577281649619135
2.719912136010754,0.9999162128636802,0.020329430446003688,0.001709663337602105
2.7185738727831086,0.9999291698464792,0.018682185181500582,0.0014450501610125295
2.7295120011752934,0.9999511377540874,0.015579087160747193,0.0012918775593076183
2.723813502905922,0.9999502281581908,0.015690609254284303,0.0012924899363666931
2.700592895506751,0.999889992561838,0.023129186115619184,0.001958165197535619
2.715952552281074,0.9999129207390551,0.020694849919809903,0.001442452606069211
2.7091930475150607,0.9998792785309661,0.02430669452327691,0.001617051501593888
2.6982199529991866,0.9998670187093527,0.025407990008621963,0.0017413163251060876
2.7323640589275744,0.9999521738045731,0.01542912970740468,0.001274098933617535
2.7313715290700604,0.9999607285754345,0.013976108650593864,0.0012167159633320855
2.7023335627602196,0.9998492098696111,0.027097479963112143,0.001956259621836347
2.705935615763748,0.9999056177515475,0.021465832340537238,0.00154471569779207
2.704732640846855,0.9999002781144627,0.022054968242819432,0.001592479160934879
2.7128341398926494,0.9999356921424069,0.017763583450394752,0.0016087719713715875
2.724150843360953,0.9999386191498807,0.017426973294708048,0.0013529717041314822
2.7194245848453806,0.999933382525396,0.018123712822302254,0.0014616633198839993
2.6989415710519946,0.9998621586761363,0.02587512594328277,0.0017333086942814774
2.713916110560812,0.9999252760357501,0.019156011178529858,0.0014864097674328288
2.7213568750255814,0.9999453920386725,0.01642047205260821,0.0013226757845171935
2.7098133641315316,0.9999394716144919,0.017214444458909586,0.0013904106120633216
2.6846558715706355,0.999800345042365,0.03097762252391665,0.0020689334847747913
2.707505023151075,0.9998959365494001,0.022553121023228963,0.0015712169685276314
2.7012315743089053,0.9998984573564933,0.02222662371433732,0.001634514679970778
2.6856471794080234,0.9998238536898595,0.029107002529672018,0.00191262308528956
2.7112407157950065,0.9999301653352209,0.018500383122333413,0.0014858378694534858
2.7049305421043925,0.9998978733872484,0.02232097796832729,0.0016013183732165256
2.6978225902697246,0.9998514974626888,0.026846215311811254,0.002071272506631515
2.717137165898606,0.9999351628578276,0.017864834000431828,0.00139361837728646
2.695431517608356,0.9998878853049595,0.023305072761062022,0.0016777804452888505
2.727897729344842,0.9999562343823583,0.01473544451345574,0.001189266202506043
2.740598891392397,0.9999694164990218,0.012375233709728761,0.0010985449182894717
2.7309816673547727,0.9999592513121915,0.014234533615033105,0.001191984782655754
2.6983737532214187,0.9998958351938284,0.02248800401223137,0.0019227750723900454
