slope,corelation,std_error,fit_error
2.5378599730535063,0.9999112652574129,0.01952080745376362,0.001998785388358006
2.4946951711009935,0.9998579881038029,0.02427618732916391,0.002625229487783029
2.5437158541789113,0.9999643276120342,0.012405111669590036,0.0020034165529924366
2.490574074551991,0.9997357854137574,0.03306117632222716,0.0029668551585232887
2.48644841741081,0.9998850490841963,0.021768449000275625,0.0032045703065924263
2.552154695140486,0.9999058733439786,0.0202184724770261,0.0017742790604479061
2.507809403158042,0.9997970235799138,0.0291768103646117,0.002622319224446425
2.5137809352586467,0.9999207696098857,0.01827062921017654,0.002248831610419253
2.518751907803366,0.9998386317006183,0.02612771558845553,0.002265635724031347
2.511814406715465,0.9998969515797317,0.020820739657168248,0.002097454893736628
2.4831428452481896,0.9997870648062942,0.02959028605367652,0.0031120245045615355
2.491208575641213,0.9998906939568935,0.02126777968470177,0.0030321967325344966
2.573273291522466,0.999963705703291,0.012658180889364731,0.0014478619017651198
2.490352867495855,0.9997571297007488,0.0316943304657111,0.0028908232652934164
2.533605848622653,0.9999368213347724,0.016443687922870473,0.001877064933509295
2.521413405923968,0.9998759814224237,0.022928846103623654,0.0020272043493577076
2.5236439063982927,0.9998689619570653,0.023589776670181507,0.002072996320809847
2.5136263208425933,0.9998967869167991,0.020852401685498984,0.0028458992024219345
2.505428017875778,0.9998844354602414,0.02199308950045109,0.002985838929440332
2.5051421703404806,0.9998655319938599,0.023721384514580633,0.002651854579165368
2.5414033618312835,0.9999218352167373,0.018346743768095974,0.0017632087030022606
2.524182846704948,0.9998989728054478,0.020717017684478704,0.0024466906254745494
2.525455620342917,0.9998819666225391,0.02240448561262744,0.002273422376181938
2.509978855170836,0.9998861153921385,0.021872279438002344,0.0027332951733791406
2.5358156000294163,0.9999432181742092,0.015602536664928763,0.001964765147142246
2.5090285983382454,0.9998661916822319,0.023699824222952134,0.0021072222917170626
2.5047180109453993,0.9997514033760648,0.03225089766775168,0.0025664791538138713
2.556964804644323,0.999909386115262,0.01987494849505201,0.0016489190789397013
2.5080902957004865,0.9998547303633024,0.024684951873960553,0.002665284760075332
2.4854537174226965,0.9998146549586542,0.02763191052381571,0.003128738592888841
2.5206501153106613,0.9998847323585871,0.02209826554911536,0.0020650408390118936
2.560365627472176,0.9999587193500048,0.013432073774880534,0.0019270181972647587
2.5104484047382813,0.9998910506741696,0.02139702694073658,0.0021570592997733223
2.5290056700626344,0.9999325617311942,0.016958184149125328,0.001806998443302442
2.5040221752133425,0.9998697349987711,0.023337205381333315,0.0028110215484037143
2.5091844757378583,0.9998018487966086,0.02884362688030924,0.0024553049167217182
2.511441118808085,0.9998531136419163,0.024855124938467203,0.00232678380118038
2.5247755852180025,0.9998951817539834,0.021107156973920252,0.002040757723614255
2.486831938311461,0.9998210407724812,0.027166654023393005,0.0031045712905902042
2.5379036386204676,0.9998968200402197,0.02105042099531675,0.0018491632213266014
2.512852515181673,0.9998563666707591,0.02459210881978183,0.002234142616302634
2.494046111853624,0.9996970432066457,0.03545258392074404,0.0028871737773638294
2.535853524187594,0.9998585793807739,0.02462526821222874,0.002030186435835174
2.553197769620075,0.9999625906201731,0.012750912525531226,0.0015051325045577425
2.52733790523075,0.9999155726915434,0.018962109696344983,0.0020150234070253526
2.519292987151522,0.9998384434747781,0.02614856903673074,0.002367603381642274
2.5237192997987234,0.9998750060228513,0.02303990473339094,0.0020479484757809237
2.5129314201488,0.9998953891255328,0.02098734488106769,0.002678853284751904
2.588371523371259,0.9999793977576973,0.009592790052236823,0.001319357355823052
2.5319936933434053,0.999912507600239,0.019338850405126153,0.0018620468042248588
2.518346045873733,0.9999121719382023,0.01927147850887031,0.0020244727002379707
2.5326701131904006,0.9999382307471282,0.016253215378273914,0.001722635249115766
2.490292034621445,0.9998844951199494,0.02185457883641702,0.002884614135657438
2.52557805187728,0.9998865399105987,0.021967148438169236,0.0020640206397778537
2.5167980639681318,0.999820438551322,0.02754024408328167,0.002214660527819546
2.5480525362551587,0.9999711077694714,0.011183112536505984,0.0018437973527198647
2.5341825634143595,0.9999321483511965,0.017044904536465125,0.0019093904093937103
2.5188679516965613,0.9999167679003995,0.01876429742344227,0.0038121621052196433
2.549905520506551,0.9999535197105157,0.014194758619219863,0.0020257765947641376
2.5006131874733764,0.9997862027513903,0.02985874779696977,0.0025197731030336444
2.505276794034445,0.9998770760908441,0.022681319136210302,0.0027933465611248132
2.522056569901407,0.9998327441891889,0.026635097174594464,0.002208559358557473
2.5165370014073845,0.9998228996939746,0.027347966413323474,0.002406627546515736
2.5474003187217993,0.9999132811965585,0.019370304828694285,0.0017221402969931664
2.5356056436660013,0.9999360149128804,0.016561371721901884,0.0019079949268596022
2.5776249922653705,0.9999786717748648,0.009719824193960055,0.0012026838067517919
2.5210805642999397,0.9999055532858864,0.02000623133313007,0.001936515124024633
2.5148323968703274,0.999841885517658,0.02582264638800891,0.00229320100752071
2.5372234890677134,0.9999293414286948,0.01741480178473163,0.00176629367783705
2.551340045349578,0.9999459602035429,0.015314300720617562,0.0018185088947537782
2.5247931763074343,0.999871473539239,0.023373207757196018,0.0022377269965737656
2.5272623944354775,0.9999086084700417,0.019728199416477805,0.0019146801461391745
2.5142213099670254,0.9998741465451318,0.023031988799568023,0.0023607828037932265
2.5153631401040966,0.9998118046253838,0.02817869273984402,0.0026918962067115576
2.529338710912776,0.9999206499044284,0.01839758997582572,0.0020571535944715683
2.5180377799878175,0.999857905510128,0.024510463158917688,0.0025307789266768134
2.511694164949536,0.9999234231329797,0.017947124188155954,0.0020679526162379345
2.479971377237434,0.9998600225916026,0.023959381923853457,0.0032209842978351308
2.5175394653748815,0.9999140240614629,0.019061063408749333,0.0027796078300248066
2.509346214912545,0.9998951088647297,0.020985461088958796,0.0030494059722047614
2.5460765218701913,0.9999410737085869,0.015958775722935033,0.0017514499036829709
2.5533553322742564,0.9999687213100789,0.01166004141093356,0.0016996695304732912
2.494900908405937,0.9997960689420837,0.029094827738924224,0.002602042720905341
2.5362753756758774,0.9999246243588823,0.017980047625149827,0.001836898140832421
2.49971843101379,0.999876703450698,0.022665279922284773,0.0029806245930405306
2.5058704919054042,0.9998487113755413,0.02516896819030017,0.002392213147143413
2.5145092871168457,0.9998518154116585,0.02499524537102244,0.0022208433539227398
2.5319395183309537,0.9998875771529272,0.02192156766268182,0.002664410187274676
2.5021086124608174,0.9998920066507105,0.021232161621081953,0.0026617058313356157
2.4943717001168206,0.9998526655123622,0.024723829711936252,0.0025160216857289114
2.52214267383243,0.9998935488922471,0.021248769667250398,0.0023923122358588482
2.546367826549666,0.9999576619328557,0.013528660962240542,0.00156753716070857
2.5142838956363014,0.999910812527974,0.019388743398659945,0.0028516434083811003
2.479163278578462,0.9997718988876602,0.03057718562388559,0.0029892772116991077
2.492846270636185,0.9998723766602228,0.022996222026298002,0.003392036189566214
2.507628828766098,0.9998853003068039,0.021929872929127032,0.0025186664296218057
2.5097939531974314,0.9998786233966929,0.022578727733368702,0.0024705344553292694
2.538119286708138,0.9999138165984823,0.019240054076794827,0.0017882875562990612
2.55735702461652,0.999926776714677,0.017868750706513805,0.001623653741406443
2.50224174834263,0.9999011184497318,0.020317650209667592,0.0030855678076303758
