slope,corelation,std_error,fit_error
2.4799163055085462,0.9999349376512836,0.01633343227328627,0.0007870146884771262
2.392494829168668,0.9999316361034719,0.01615254839149418,0.00212478899025257
2.3857071280351945,0.9999610421972356,0.012158539654009114,0.002030801176662186
2.4016797359219098,0.9998990804990201,0.01970107321277262,0.002330569358723759
2.359146262228825,0.9996679565244229,0.03510871121819676,0.003245056433421323
2.3848707341699016,0.9999331730663636,0.01591903543260814,0.004915285476671268
2.4378463093599283,0.9999377405083352,0.01570665694660919,0.0013976779607818893
2.4156175987713002,0.9999278066577951,0.01675925254209885,0.001911351558359319
2.398558186599638,0.9999406145024321,0.015092603838320184,0.0022741216598124382
2.397434328375004,0.9999331011287279,0.01601150946675807,0.0018890261917570302
2.3961275935988304,0.9999285701998615,0.016535879375570963,0.0034170321225252018
2.4035933948856067,0.9999456092752403,0.014474231420797852,0.002434419662730762
2.3643973056362286,0.9998362670920573,0.024705642351136203,0.002792516556212167
2.3923646147701763,0.9999347677657431,0.01577735203150188,0.002458007011884512
2.340036338185575,0.9996675997026482,0.03484303398864465,0.008367984072772889
2.4042081790354044,0.999963460475027,0.011866422063727898,0.0034156340590946266
2.3568716583420573,0.9996247598720677,0.03728783708467108,0.005738380715814034
2.3435501741960354,0.999718850711258,0.03209140358090094,0.004848459121580885
2.409836250030237,0.9999102571983399,0.018641074745640276,0.0023818173595207166
2.403213850704679,0.9998973419614784,0.019882761803551797,0.002647623889505931
2.3957558361563525,0.9999420612464558,0.014890194534461484,0.002776328738606227
2.29370151424562,0.9997421843197077,0.030076682003156992,0.004907176548575297
2.328790321012599,0.9997907801089605,0.0275077076011195,0.0036383288057451058
2.3845449297394263,0.9998576418701939,0.023232577264357762,0.007645979883212932
2.3934152969900824,0.999916267847413,0.01788322478998585,0.001867644292514138
2.415361265460695,0.9999702045375009,0.010765178579361556,0.0023422077208305517
2.4391500992639767,0.999958585385848,0.012816905926822674,0.0028655623156573556
2.412064418091515,0.9999072130182266,0.018972170586473908,0.001813942758693803
2.378637228214879,0.9999369362274978,0.015423860819378046,0.002315221874967898
2.4428764737001907,0.9999373803041223,0.015784533523575155,0.0013278352345606971
2.4466741639504264,0.9999211340669993,0.017741932338660053,0.001689157463106016
2.441308405660555,0.9999807071055515,0.008755521024402739,0.0013736360858178421
2.3621045907272853,0.9998212628418768,0.02578808795995836,0.0029763371769189763
2.435844115099202,0.9999725129611113,0.010427418252080429,0.0015804181799884685
2.3765244088796673,0.9999394097866129,0.015104892085955262,0.0022548295549800258
2.3239602004221243,0.9998683337620022,0.021775250503384126,0.004184951838519471
2.366419729883474,0.9998632017087035,0.02260117645820085,0.002249259636052086
2.3555301565680966,0.9998220589800362,0.025658959546724917,0.005877807848086644
2.353011297098582,0.9998996674538646,0.01924562333672014,0.0027485584563374512
2.4768686719042785,0.9998211380205886,0.027050458584238775,0.0009364488944705356
2.3812885287876857,0.9998989456580875,0.019546850748942347,0.00317063798713216
2.336185876345467,0.9997390778465958,0.030817843280176567,0.00353010783552545
2.3928458985155814,0.999943857121419,0.014639785940748202,0.0018403553611975147
2.398737982094668,0.99996183025088,0.012100665839770068,0.0018864406131255279
2.369747195307937,0.9999152433397053,0.017814388309284782,0.0030987264274696474
2.3145281027238203,0.9996254646148226,0.03658350203787225,0.0042493268545639624
2.3310228156794923,0.9990751484938404,0.05792130056622234,0.006762998031599595
2.4275270376248006,0.9998599125616517,0.023461926841945036,0.0026774163287898987
2.313568669643855,0.9997890116939894,0.027443196121860264,0.004078589033048979
2.421721889226906,0.9999478956623833,0.014273568031238672,0.001753771588085109
2.3946604196378036,0.9999316519979873,0.016165289306520964,0.0032764085046520495
2.363326828249743,0.9999272595966859,0.01645847916221046,0.0027226445206231576
2.4402632138224307,0.9999073580304806,0.01917896251451656,0.0013602134295098939
2.432226947331467,0.999944877480986,0.01474487005154676,0.0014914745033127797
2.3747627025659175,0.9998145880958007,0.02640607156768528,0.002718291421295783
2.366153300354739,0.999881561669313,0.021027225318887247,0.0034979600368260947
2.337841777929157,0.999642813549429,0.036085551011897164,0.005184957470775747
2.3937558968998625,0.9999672689695197,0.0111821350305035,0.0020650253133355214
2.382779100730737,0.9999321859720494,0.016022121195176795,0.0021584005083378805
2.441658308319091,0.9999501938925767,0.01407008697070215,0.0030404473655710027
2.35356215820333,0.9997048677632474,0.0330205661413725,0.009665317239968205
2.2893092262263157,0.9996228131573741,0.03631282035320574,0.004419664829514358
2.385106440023986,0.999932644376284,0.01598346765608389,0.0049878095215031915
2.3958137648296653,0.9999240552825462,0.017048294911615348,0.0017970780053662698
2.441199233880157,0.9999903600911113,0.006188668214236257,0.0014201924778523996
2.451093981038462,0.9999722853385382,0.010536057943024101,0.0011453448545905302
2.377237069465073,0.9999095136737965,0.018464936442032037,0.002246669655734276
2.4391877531018546,0.9998208150012435,0.026662986678493466,0.0016657447403285873
2.3513937788313752,0.9995864463718549,0.03905533690179165,0.0035797645176989215
2.3805813224592574,0.9998018500485722,0.02736521890008238,0.0049750786156377794
2.3862973028304197,0.9999347858880521,0.01573515247342332,0.0035011403375529953
2.3901103394059406,0.9999751172479869,0.009734858240499397,0.0018876034086252483
2.427892031992647,0.9999845656401193,0.007788127967406743,0.0015205172343143018
2.3137884809581046,0.999738803118798,0.030538458330632803,0.0040281531023471425
2.375715332129602,0.9999185292790769,0.017509594504919224,0.0023350034084530205
2.3857739955106934,0.9999481238902481,0.014030859276384984,0.003270746752724444
2.4416079718164343,0.9999745156404015,0.01006411215480646,0.00219113600365136
2.3340939837328905,0.9997423188179305,0.030598349890658405,0.0037307186061602063
2.371570913017386,0.9998403089356681,0.02447275220816308,0.006213508685212395
2.3897449893509015,0.9999203430041116,0.017415816461711683,0.0022078633833559737
2.419656124878529,0.9999300406171335,0.016525468973587448,0.0030396776799906625
2.4039301818136742,0.9998836211014389,0.021176357080717523,0.002738883151104558
2.4630393619993693,0.9999077836875805,0.019313440100889322,0.0020571431046720145
2.384326573330554,0.9997303187189691,0.031976679598037135,0.0051006182145949975
2.443828893923589,0.9999842428991975,0.007920789191116925,0.001535382642934784
2.4396622369949035,0.9999637661722397,0.011990933225404659,0.009199956505456634
2.3612943692747206,0.999784040118741,0.028337490887681793,0.0028029010935813293
2.3068535890528836,0.999029192337821,0.05872964711606502,0.006395748935962715
2.4336535939536605,0.999948555300024,0.014252800551638318,0.0014815387428797646
2.3681414909132594,0.9999325615203379,0.01587953825412745,0.002362933282384895
2.3485607573404286,0.9995659966757287,0.039961713153229196,0.0037165058295499124
2.429915702579547,0.9999048987289217,0.019349498656058586,0.001870054751429717
2.312568800880835,0.9998323294876178,0.02445299153842878,0.0038638333299091145
2.436073384666458,0.9998857690218858,0.021260520613364087,0.0047327862799168416
2.415346644612442,0.9999092820667741,0.018784946515903827,0.003115586424920439
2.355041099057951,0.9998480295368226,0.023707292551964666,0.005108708784301849
2.3954865545245676,0.9999262827735889,0.016794095313007386,0.006042314049542613
2.400219073308761,0.9999753581176112,0.009728597140783998,0.0017505026291887034
2.314499300329102,0.9995513421566982,0.04004195119531212,0.004153512612263159
2.4229084019053437,0.9999077917601399,0.018997929344703186,0.003432881716834079
