slope,corelation,std_error,fit_error
2.281742171830209,0.9999517343913421,0.012943614054194079,0.004078850886579393
2.283709660965477,0.9999400143855781,0.014442366263427165,0.0023232149581271693
2.303866271765865,0.9999468911007986,0.013709214965768905,0.00159503210253975
2.3006888952057727,0.9999817946314626,0.008015265897081722,0.003454555849695712
2.2989665115267504,0.9998507182425759,0.022937126699479466,0.0055598327184490145
2.2555481091333056,0.9999286186240864,0.01556045077475461,0.002710787277578517
2.2323383594973523,0.9994955007882317,0.04095519639040859,0.007910189405954305
2.178138454530802,0.9997277402257225,0.02935082329399946,0.00988865667971671
2.3047230172227864,0.9999249921916957,0.016298617965873705,0.0017154363439485065
2.357133298151751,0.9999302817870981,0.01607068342995437,0.0017447930006440336
2.238633362689185,0.9999127417882392,0.017075322692229906,0.00410911879442719
2.2484076334672474,0.9999255995778312,0.015835849158293412,0.004897910303127114
2.24317327371436,0.9997737974781925,0.027551141810131633,0.0029010863482044308
2.3117447794992874,0.9999090587670013,0.018001317759115194,0.0010546053059545715
2.2594727652121467,0.999886570753261,0.019649927578682953,0.012262619426631009
2.2465654489288576,0.9999161382743245,0.016798970217362562,0.005876805583625103
2.2125491341959647,0.9997897901000927,0.0261964447593895,0.005956314999511882
2.232896021666716,0.9999386950575767,0.014275475527666656,0.0032591222102795153
2.2478754182581193,0.9998923288189341,0.01904633505529826,0.005638056648329168
2.2062278894208305,0.999958262749292,0.011638050968353549,0.002692568615070001
2.2636525238888985,0.9999303157762571,0.015429578582744364,0.002829107344265646
2.252167828774978,0.9999489119282393,0.013144120064941669,0.004751341249007364
2.246684168849173,0.9999351727775586,0.014770534764113075,0.004192088535314556
2.3264942720497115,0.9999035392144986,0.018657917835345934,0.002621533729807214
2.2043989236715436,0.9994227212927185,0.04326387601545556,0.012744005642421874
2.2429546521602957,0.9999605234705078,0.011506869955991355,0.001962239661369759
2.242836501725408,0.9996584973166167,0.033850127044324364,0.005260854217952415
2.1209462396582963,0.9991788326036259,0.049655513726281617,0.012955654560858188
2.22802713226768,0.9997884200637258,0.026465555326464243,0.004074951449861602
2.288235469029461,0.9999858277180954,0.007033631170862684,0.005663928187991639
2.2482214783827805,0.9998673879927779,0.021141124566336766,0.0048061818808524575
2.259856344292349,0.9999303324295886,0.015401862033109115,0.005146598650935696
2.3348460436635037,0.9997796816695529,0.02830151648448892,0.001357099728459313
2.2018373914208356,0.9997901106502013,0.026049727696025596,0.0035955554258916274
2.1814605519151247,0.999549689472228,0.03780981032058325,0.008053476707050181
2.293895291031737,0.9999725784146983,0.009808061302328431,0.001502309572821327
2.2938796245529995,0.9999172081745433,0.017042986177044663,0.0015695404386162502
2.310782167751495,0.9999029403117159,0.01858936009258321,0.0022323571493446798
2.308987499193941,0.9997861914347497,0.027571357680269897,0.003896397161592728
2.3123443096849043,0.9997362594801187,0.03066770095645519,0.0017603861446046675
2.248230738324117,0.9999406428722437,0.014143308845183434,0.002420265963887485
2.2620181597073166,0.9999496112846873,0.013110930454754954,0.0034445789216298894
2.2165523694662763,0.9997382006650054,0.029288823247945697,0.011375062774507215
2.3194688676461004,0.9998469031799093,0.023435589086008134,0.0015061737127154452
2.231125992530206,0.999723298806434,0.030309175636114523,0.005165694249590452
2.2530291766662294,0.9999099396493789,0.01745891855904822,0.003169307922970184
2.2146307120530837,0.9999005758907336,0.018031586086226545,0.0028721063438523695
2.263576408759074,0.9998800480941478,0.020243806589563845,0.002616630677130659
2.2714923387838457,0.99992959406345,0.015562996523247014,0.002124382968526376
2.2322054281067896,0.9999010368873685,0.018132489714997983,0.006595145315822922
2.3584169335865,0.9997820995568784,0.02842987795793556,0.0012062414585983382
2.269413932833325,0.999976851617699,0.008915299767321975,0.005499972241465684
2.232273601104636,0.9999024786640233,0.018000450791464537,0.0032889668849300914
2.3615483684721386,0.9996872555780771,0.034107342923544816,0.0019538222339803746
2.2484010882324466,0.9998188912093101,0.024709099587947952,0.009271380561374701
2.3310852994517375,0.9999189060322357,0.017140884413970985,0.0012503455604242072
2.361261318115033,0.9990034491041796,0.06090780536854154,0.0018378283221630492
2.3099291069167682,0.9994922138920259,0.04251663404285279,0.002627364641870797
2.2788420696620904,0.9998845343185255,0.01999551860459163,0.00305088489969032
2.2805962181495114,0.9994952275749897,0.04185188705455128,0.0006838378348862763
2.2890305995369933,0.9999838668507212,0.00750707578069443,0.005390355491705594
2.249646476343575,0.9999333845818933,0.014992626575697615,0.0032425826562456988
2.2327542067655703,0.9998137459896833,0.024883345886458408,0.005368735801246921
2.3206280810476674,0.9998260699414153,0.024992165818029138,0.0035470512743475853
2.2940406564264113,0.999188351422605,0.053395418278775676,0.009338401736256996
2.2594051031897684,0.9997949244764991,0.026422395904881407,0.00241198196021265
2.1547489076264514,0.9995027614551574,0.03924600375450091,0.0078424170694119
2.2805903199674993,0.9999603569915915,0.011724595332627364,0.0019738972264570793
2.1611588069821224,0.999310965328765,0.046343210024309495,0.0060672710256646995
2.240984807632787,0.9998887796097504,0.019298418459449542,0.0051413871496732945
2.301778649700985,0.9997521946859577,0.029590613032564658,0.0015761335785030928
2.2710783850081233,0.9999876222788674,0.006523953742400132,0.009855637526907253
2.292279227384271,0.9995502993040267,0.03970362721228082,0.004849187958131952
2.1857018432930713,0.9997914799264221,0.02577431615239641,0.006162257418628479
2.3207925596015677,0.9999055904178485,0.01841320907942552,0.0017700858043849714
2.3598071050182114,0.9997662190304671,0.029465350415180697,0.002501450912318163
2.3097130644140957,0.9997078542751182,0.032240913856578006,0.0016875620018725924
2.2948655874859027,0.9995035549014206,0.04176466353936087,0.003786788690931736
2.24880458264691,0.9998402718695351,0.02320859361041843,0.003139949007290328
2.236701835005613,0.9998834047013717,0.019721546330088928,0.009435742978395596
2.2709069785806584,0.9999492603443909,0.01320821106972465,0.006260153420704997
2.1912187515877757,0.9998535370621766,0.021654675840802006,0.006035040915507488
2.320110101078032,0.9997871842701136,0.02763975282383393,0.0017520409489384429
2.2369343737274243,0.9999262955362066,0.015681171956181388,0.0030459279248191908
2.3417841823194303,0.9998677459189889,0.021991196591813394,0.0005892856961599693
2.321396959896365,0.999975539800888,0.009374362494682244,0.003675725891111044
2.2250090743910986,0.9995723715106329,0.03758017470660367,0.003974449008962705
2.269108984623896,0.9999544796984936,0.012500492336209748,0.0027929481278058566
2.294104785489933,0.9999762935737153,0.00912028453911089,0.005613852630453768
2.3456574420916603,0.9999627609470068,0.011687736254247455,0.0011657202252048726
2.2979061606985396,0.9998952385444301,0.01920531996498012,0.0022465357730149247
2.2775636504546015,0.9999310136872995,0.015446455262381968,0.0020501084529442994
2.2927244601687153,0.9997663312720299,0.028620858275273723,0.0020950868419874176
2.174587080628425,0.9997191416562161,0.02976228942293748,0.007030858544324577
2.3294226320259686,0.99912367246731,0.05634060076803556,0.005708466326314102
2.1836094154690575,0.9987308048872275,0.06357805445237816,0.007861218895916976
2.363618718699932,0.9996380129196972,0.036727913593451574,0.011731604896454322
2.3138353800458935,0.9998720591788762,0.021371404820036886,0.004811882712250733
2.2861359994039483,0.9997485872422863,0.02960274548349415,0.002045622505505543
2.1764372067921354,0.9997006322526018,0.030753924528614664,0.006407245424181223
