slope,corelation,std_error,fit_error
2.8165188277888547,0.9999889603173849,0.007640977467818524,0.0008639534622229578
2.8240942877564823,0.9999910993640884,0.006879343260133857,0.0012163562797274823
2.838488788353162,0.999977729768398,0.01093732643851784,0.0006500055466607732
2.841420137196768,0.9999672777298474,0.013271566755749288,0.0006846805570852163
2.8157873037699734,0.9999875836096157,0.008101322864164083,0.000910127142810295
2.831062656055731,0.9999486964362353,0.016557483456370214,0.0007443203213535319
2.81290228473979,0.9999849348442139,0.00891457692377151,0.0014623985973510392
2.8162806344940745,0.9999874067457362,0.008160248555751893,0.001302953020900714
2.8347986472397206,0.9999845515351427,0.009097546496185285,0.0010432002846218937
2.816059029413118,0.99998450972382,0.009049628488747906,0.0008626414331935617
2.8170890296313162,0.9999753291252985,0.011424974846659684,0.0012505512833939339
2.842827804278518,0.9999443443158396,0.017317205735660306,0.0006554565050364308
2.79038554281684,0.9999608901584824,0.014248670739717268,0.0014801143450677303
2.8115565541260246,0.999982376773072,0.009637172912176254,0.0009523846453763724
2.7961610803453723,0.9999627672554765,0.013931286058053,0.0011421665174903505
2.811817440193995,0.999984188090031,0.009129327931814599,0.0008714296943272834
2.791004056180952,0.9999271944511267,0.019445575176487675,0.0020011078677106757
2.838804634315349,0.9999852087488886,0.008914503276725017,0.0009328820703552967
2.8299597563325376,0.9999760773850248,0.01130177735881227,0.0007086973188140049
2.8077808708294265,0.99997930660769,0.010428939963773757,0.0009653616214803139
2.83842955191876,0.9999904840046314,0.007149286492046823,0.0011792832812523354
2.8208060846225242,0.9999792509793278,0.01049139316164128,0.0008206392590493936
2.791506645406865,0.9999724791600325,0.011957292228572466,0.0011128673110726358
2.8142236657660273,0.9999871816087895,0.008226856414443772,0.0008746718918659393
2.782944278350452,0.9999196901613918,0.0203642967787876,0.0013682118672617566
2.8110676271455284,0.9999828807946267,0.009496707052004592,0.0008937499232400949
2.8321776031265595,0.9999807582471886,0.010143864460202113,0.0007484475765952945
2.814482623013495,0.9999828248623543,0.009523764539175188,0.0012661561844224396
2.803747797969679,0.9999825934322153,0.00955114764395328,0.0015964605193460482
2.817710654495049,0.9999877783199055,0.008043039497079848,0.00096403441946917
2.8148165148479274,0.9999773498068842,0.010938248690491916,0.0012589949072338068
2.8106833278080683,0.9999908486691381,0.0069424282098370736,0.0008811686998066094
2.8126423716333138,0.9999895515121092,0.0074233341594020326,0.0008794632683139828
2.8171982956504817,0.9999664842013132,0.013317033463024073,0.0009220669963150392
2.8084623053451154,0.9999805194845577,0.01012114243921127,0.0009502285379577576
2.845552108572534,0.9999444225857472,0.017321607177749852,0.0007416582191825166
2.7878233628353843,0.9999460342799622,0.01672230691639487,0.00163255181153154
2.8112010818088478,0.9999814650985144,0.009882059399816484,0.0013012345609740086
2.791863298376255,0.9999607604502826,0.014279838935965575,0.0018178952227319632
2.8186151208987336,0.9999896062912256,0.007419571175914672,0.001352548162325261
2.832842119732116,0.9999451445118683,0.01713186532283412,0.0013334891680169977
2.8008967950616386,0.999962351722844,0.014032540156258174,0.001090785456755353
2.775728103075845,0.9999433085094346,0.01706509448081664,0.0014826723372780546
2.808663129231074,0.9999859361600635,0.008600239822685353,0.0011467896452028738
2.819668250203221,0.999980812028196,0.010084936555734779,0.0012874373856430477
2.8283835407756936,0.9999813165483159,0.009982224066452477,0.0007803993706309355
2.8105105703736086,0.999974059596721,0.011687897780283146,0.0011800693424292637
2.8047763016337033,0.9999800668503462,0.010224617170484698,0.0009882115665246695
2.7963327195322516,0.9999510703698659,0.01597147842376149,0.0011655598929264882
2.792980683859994,0.9999567890194009,0.014991097842669682,0.0016813702971867754
2.8439702275503724,0.9999727412725359,0.012123864774115126,0.0006279258546867082
2.796057930678224,0.9999646568424743,0.013572652220998984,0.001696874449058194
2.8331517210760384,0.9999867375044543,0.008424442073082287,0.0006935787699910305
2.8164723726336174,0.9999823203063342,0.009669477174768841,0.0008816610433926479
2.806843084650557,0.9999788256514753,0.010545918976211465,0.0009699890319757647
2.8390043689864233,0.9999724448298232,0.012168329340041136,0.0006715727286451479
2.8395533483970743,0.9999550862261313,0.015538489787784474,0.0012018716007089288
2.8449391025883792,0.9999687041750467,0.012995133364749362,0.000753824982323967
2.8110291623891155,0.9999702341911285,0.012522419874282143,0.001181746577973457
2.7960410025166142,0.9999663170862209,0.013249933681228634,0.0011118848362092564
2.8121881080041344,0.9999819423686623,0.009757420260068319,0.0014289306530688428
2.8137654891718893,0.9999841829519684,0.009137137025911386,0.0011683390061261103
2.8314363861669345,0.9999778891675669,0.010871035850369476,0.0011869509800651035
2.818080916156035,0.9999804621655745,0.010170736567412554,0.0009135739209278025
2.789891788351248,0.9999347415648989,0.018402690134555186,0.0015490825692307292
2.8193022219406374,0.9999888002048596,0.007703794538632874,0.0008407535345494129
2.790244839401248,0.9999498127240043,0.016140234626921615,0.0012024886367054787
2.814381833407201,0.9999793702307024,0.010437375173166365,0.0010028291094720128
2.8301180384359084,0.9999831269440926,0.009492077788062261,0.0024956799815267112
2.826056139937492,0.9999914901083333,0.0067313154431582955,0.000771840104726506
2.8285471143196173,0.9999672130017113,0.013224501072023434,0.0013976755406410381
2.8006641898706266,0.9999763054252349,0.011131343539875774,0.0010993817655268988
2.828163500735386,0.9999934272057089,0.005920195448278243,0.0007241967076584103
2.8146940934230273,0.9999804256394021,0.01016800474903219,0.0013896744536716055
2.812317012262571,0.9999840785633228,0.009162520459628065,0.000909715488992293
2.842074804293606,0.9999700464990315,0.012700576263930716,0.0006951244336604532
2.8382032801431945,0.9999525057912845,0.01597105725549784,0.0013520612439700647
2.8138837004737716,0.9999758497217038,0.011290923125384496,0.0010246130927110718
2.8060596794887345,0.9999804816092069,0.010122310056272937,0.001593035161684769
2.804106016997188,0.999982774870962,0.009502451297864579,0.0015286689247776483
2.815736798861263,0.9999886083608779,0.0077596699054900175,0.0008947394861982908
2.8284757640912317,0.9999831191603546,0.009488757615922534,0.0013435683592075303
2.8214254063807807,0.9999900331057088,0.007272874872863289,0.0008253033868137383
2.8102142069344143,0.9999819470253315,0.009749314090823443,0.0012369732365499718
2.811079336411179,0.99997511997923,0.011448825778563682,0.001016313988571838
2.825511874195216,0.9999871287178937,0.008276878961077148,0.0007903068139215278
2.80789607131382,0.9999809920817362,0.009995600012528125,0.002519923384065544
2.783275138173718,0.9998841118940328,0.02446626598931918,0.001403771712804952
2.813253031097265,0.9999879778673975,0.007964487569111292,0.0008721043697547923
2.8102739138093873,0.9999780584725011,0.010748394516900484,0.0009120196287317315
2.795753392277418,0.9999735909310227,0.011731090321301787,0.001054582610715599
2.8144231924812386,0.9999855318111381,0.008740888265225642,0.0012108738313200095
2.8099913235344056,0.9999846972806438,0.00897529311480112,0.0009423127578032535
2.806825432629817,0.9999823395904411,0.009631100426427997,0.0012019345948643685
2.8249740155871974,0.9999897231503997,0.007394386987106006,0.0007573575053503662
2.8042344720301506,0.9999785739522099,0.010598556218787749,0.0014538270459801582
2.8315947908526824,0.9999759211305783,0.011345179304529612,0.0006943711828359053
2.8263603098779098,0.9999860739091803,0.008611940960353549,0.0009676878575626323
2.8416158155984097,0.9999402035232516,0.01794225428036542,0.0012212616167509333
2.8056651944824194,0.9999850720421147,0.008851059862372095,0.0011633807567349426
