slope,corelation,std_error,fit_error
2.758333140172706,0.9999666530332326,0.013005891246092006,0.0011098159002603798
2.763866225201737,0.9999694100403378,0.01248161565783436,0.0010523334892796293
2.760074990445106,0.9999796445719252,0.0101676831163011,0.001059135721571366
2.7780433620486544,0.9999794141100948,0.010291647885322866,0.0012740539523809203
2.762674361824125,0.9999778291194876,0.010621424347714417,0.0010396317460765483
2.757606377571859,0.9999629976437182,0.013696619413010605,0.0011546164976503112
2.7509511798031,0.9999594146920912,0.014309843892964769,0.0012353235347424818
2.7553674977474207,0.999968052813117,0.012716295716422405,0.001128457109433821
2.8016172212071107,0.9999633565289375,0.013847564840220884,0.0006659354259275754
2.735009460840811,0.9999185838800415,0.020150922109894432,0.00189305328636149
2.710943912702775,0.9998378297346476,0.028191185796090434,0.0021113533952804545
2.7891205727251487,0.9999757250878224,0.011220401567716252,0.001403285488376448
2.7321270999143215,0.9999284867708098,0.01886564936503981,0.0015182007161026437
2.765755796233077,0.9999760551178015,0.01105051080468265,0.0014669868573397987
2.764709392813825,0.9999892053953111,0.007416700569308768,0.0010287910060368176
2.7534624471969784,0.9998924027772508,0.02332217812263011,0.0012893499144410428
2.7398308657144845,0.9999501030260921,0.015802706760468927,0.001441386871646915
2.7250557386176864,0.999900535366679,0.02219200302047284,0.0015841799122477483
2.7481386984311054,0.9999480124388531,0.016179298003571516,0.0016970404421254043
2.7507339550924326,0.9999592869454157,0.014331216735861824,0.0013024409931089076
2.738916894060715,0.9999409098981618,0.017191344450966137,0.001361455568731945
2.761328705385443,0.9999770032529584,0.010812177649983993,0.0010774514815667722
2.764852251797727,0.999981590212428,0.009686272529807687,0.0010464991306591092
2.786499789740408,0.9999661169318456,0.013243896752907328,0.0009078821244134236
2.774622659145261,0.9999666782690012,0.013077746958893065,0.0010982100239449524
2.7385908111890997,0.9999495130609948,0.015888667710616956,0.0013361997726981409
2.745376066346095,0.9999502955345798,0.01580411232215282,0.0012668922199878842
2.774434802963094,0.9999908359388517,0.006857658723191997,0.0009281459637518968
2.772254698369741,0.9999847287956422,0.008845637083707168,0.0009628299160746296
2.7566053923507536,0.9999728334224708,0.011731547009743408,0.0012096861518327666
2.7610724310162995,0.9999816817921442,0.009648940494123797,0.0013141884324529719
2.758777273276363,0.9999725111653787,0.011810223820058852,0.002206962509367077
2.761314827252708,0.9999813363030903,0.00974036454423812,0.0014767346197696943
2.755597003149827,0.9999650094272441,0.013309354638768036,0.0015927492537253002
2.773011827872394,0.9999807820806735,0.009925800344427667,0.001848463532452106
2.749797688860268,0.999953342235263,0.015336712462983008,0.0013197158932311125
2.778658797115413,0.9999846805358075,0.008880069597375912,0.0008727706979586717
2.7678383595186427,0.9999816122077444,0.009690939403689494,0.00126634231027413
2.7539130950501276,0.999974820585602,0.011283286505986024,0.0011563146291434464
2.7449925100800807,0.9999509060141517,0.015704556349915088,0.0013510636566749967
2.7613197670386107,0.9999763602030481,0.010962273757213063,0.0015894473954530407
2.7505086925281703,0.9999670064412466,0.01290008940323005,0.0019023938668617552
2.741001165861401,0.9999329152485077,0.01833147243694861,0.0012965984522227887
2.7679298865566584,0.9999854028661453,0.008634714952844659,0.001032833977618647
2.7777926598587044,0.9999590703937146,0.01451063145520234,0.0009100506130690049
2.7756225408053776,0.9999819501089443,0.009628484774156749,0.001343985417574085
2.7449823956489077,0.9999291271387268,0.01886935273016399,0.0014056904822678567
2.7480305328667334,0.9999671679647654,0.01285687794837587,0.0012002770992698985
2.765624528891242,0.9999678509344485,0.012803898944232658,0.0010799944378013287
2.738146375889165,0.999911143519779,0.02107582230685447,0.001851385933436591
2.738977047826539,0.999954133063846,0.01514633538146299,0.001624648206237905
2.7730814789726828,0.9999771370052069,0.010826572948971346,0.0009004606280458039
2.7657922060431868,0.9999843784593492,0.00892567231872674,0.0010090411572479658
2.736505299655045,0.9999201921783177,0.019961785698088742,0.0014557798687677987
2.7515084497580586,0.9999726006023842,0.011759927746686067,0.0011430093534048349
2.7863459161467405,0.9999736832600262,0.0116711598951951,0.0007647795065263594
2.7501587481487033,0.999936717517848,0.017863826817067142,0.001323232169024312
2.7332699244783036,0.999906768512676,0.0215500642086455,0.0018703533124032183
2.7652340530932245,0.9999860392942999,0.008436154022971497,0.000990992881584558
2.7727544071053534,0.9999835661594569,0.009177843798244113,0.0015824762368786556
2.746865761862528,0.9999456889582501,0.01652926582200329,0.0013938725628557453
2.7673067679576846,0.9999741159358025,0.011495724334891742,0.001025863367494343
2.73292072741668,0.9999121111201336,0.020920737892775088,0.0015307002711095349
2.7499086397319625,0.9999639302777483,0.013485150071892191,0.0012944298176017432
2.74125462191201,0.9999471040551076,0.0162791665712478,0.001648206639944994
2.776053238288046,0.9999922100169484,0.006326346207458368,0.002919651579339715
2.7492658561078533,0.9999582174885847,0.014510487017659151,0.001283706772773789
2.7671441393539373,0.9999806056534206,0.00995015957456989,0.00101780480482024
2.805189227229963,0.999950106936118,0.016179044582345512,0.0007229416422563118
2.753202361733426,0.9999448551135152,0.016694103044098157,0.0012715149389837459
2.7418937415297227,0.9999413718422343,0.017142620532169,0.0014383630322831887
2.7662676803933084,0.9999728330251623,0.01177275381560667,0.001084010146019811
2.731099451574946,0.999923425695647,0.019514541799510954,0.0018468132241130583
2.7313316566245542,0.9999495528903987,0.01584029936284101,0.0014335581665174178
2.730669087796402,0.9998415448689978,0.028069082356735865,0.0018687630949099875
2.762627026220893,0.9999816777689472,0.009655433394770712,0.0011422402095124377
2.7409286216784414,0.9999344519413486,0.018119798524712957,0.0017806774912761615
2.750670424998536,0.9999540718519697,0.015221146130437646,0.0013818077149462206
2.777724453629221,0.9999882534193913,0.007773258141352899,0.0008961690531564832
2.7601904217495514,0.999986067443204,0.008412273115393547,0.0013134970662421297
2.749587661994638,0.9999701483054233,0.012266372784487535,0.0012033045486263252
2.7474448132368927,0.9999701949836584,0.012247226185274811,0.0012271836836878652
2.725450227476017,0.9999231744546826,0.01950610134916957,0.0015047081518729244
2.7532399758531727,0.9999646993123271,0.013356772178415062,0.0013755196154385699
2.776615662774025,0.9999838408917759,0.00911347691561547,0.0009851903359252051
2.7554264904053127,0.999948438108171,0.016155649289392695,0.0011910459015534159
2.755150037587583,0.9999688367784391,0.012558302764520076,0.0012029755246393485
2.7720458309119107,0.9999852863976231,0.008681985917123327,0.0009583468743315394
2.7440462872195934,0.9999578033163866,0.014554547500497981,0.0014521543581028887
2.76649887384956,0.9999831672271682,0.009267619235175833,0.0018529981559912121
2.7557843131453663,0.9999647599021965,0.013357636636956724,0.0011669533147695193
2.7440386851021503,0.9998625459682263,0.026270486585103118,0.001511464743659254
2.7540225142152543,0.9999835755605975,0.009113233211679308,0.0010870117958153428
2.773617734492768,0.9999890521987473,0.007493211556582088,0.0013955938609430325
2.7633778184283893,0.9999797577714349,0.010151504074172509,0.0011944528573568439
2.7533266571125643,0.9999682252724034,0.012672531456116675,0.0013622171922468593
2.7467581612124836,0.9999727530353764,0.011706922222345295,0.0014538367208614307
2.723971850296181,0.9998672579401644,0.02562739732387008,0.001614098364924524
2.7421834749016414,0.9999639481546889,0.01344393402000657,0.0016679288876366258
2.7467280515844736,0.9999659540583415,0.013086207378547494,0.0012603171917355553
