slope,corelation,std_error,fit_error
1.9939495416661812,0.9997764326050844,0.008434050958367153,0.00026479466128432466
2.0358920755302896,0.9996698220636038,0.010466014604484366,0.000394359345853897
2.0612922098475606,0.9995669554116483,0.012136457812990806,0.0005197759976191941
2.098998945052924,0.9988458537664447,0.020186629674704106,0.001396274053282817
2.048381326615043,0.9997519335206616,0.009126844583343367,0.0002969518925866928
2.084790516450896,0.9988932123976068,0.01963361614683991,0.0013355059215083643
2.034838472616245,0.9997910983818376,0.008319819181338343,0.00024941319984681496
2.108329903681429,0.9994441151395108,0.014065562578944568,0.0006729994035985244
2.0567080428276663,0.9997751808564486,0.008723836595482329,0.00026953310003718586
2.032814202958891,0.9997402818604452,0.009267837917643374,0.0003099878828204988
2.0868620461877896,0.9993223156156862,0.015373519270157742,0.0008175049740108075
2.0734570715611804,0.9997223828319745,0.009773579319625336,0.00033388562525629446
2.001628959082605,0.9995478438739405,0.012042595369732281,0.000536546169310449
2.050836624939078,0.9997538240746211,0.009102884742961755,0.0002948237229131074
2.06334551627183,0.9993543019068947,0.014836863480117224,0.0007755616945503661
2.031595014740536,0.9996566520460444,0.010650284809521288,0.0004097602410066559
2.0486223919588173,0.9993360388204301,0.01493807386442007,0.0007953374785937689
2.1024777633884613,0.999706852284455,0.010183924300742157,0.00035440570265899335
2.022649695312357,0.9996622914449251,0.010515906562762694,0.0004023310384537434
2.039159186309694,0.9997035885762809,0.009932078797373201,0.00035423166473415
2.016383769470492,0.9998054613863298,0.007955811181841086,0.0002314319574908007
1.9974022740226411,0.9995766710729177,0.01162752889787684,0.0005018922380952512
2.0692376891690745,0.9990926423058756,0.017641696181539126,0.0010914554487061415
2.0419023162437315,0.9997585139895553,0.008976449908312065,0.0002887185938379298
2.044828898702759,0.9997020021271661,0.009986323502501929,0.00035651117086070737
2.115811206403901,0.9992631288937686,0.016253907647779287,0.000893516883081582
2.0417603115372063,0.9992478720164373,0.01584676859227127,0.0008999029685051064
2.0117698638939383,0.9994295473564615,0.013596244328232442,0.0006784043016968054
2.0561130915577635,0.9996772789252295,0.010449867701679915,0.00038692062671368097
2.026742419390656,0.9997629988112434,0.008826652314535135,0.0002825339768096471
2.0525904479060304,0.9996930626855345,0.01017354089726226,0.0003677465898262245
2.074934527044532,0.9992719012169213,0.015844619024421372,0.0008765002157039763
2.017210556056302,0.9997549421772942,0.008933267581958046,0.0002916011744644196
2.0481133450470823,0.9997668418447343,0.008847085836559453,0.00027908534801922616
2.1007169023583865,0.9995530860792085,0.012565219271409212,0.0005402613851019273
2.0848882099986277,0.9993206797754373,0.015377523367921917,0.0008191905407043765
2.0662454311049747,0.9990366829292777,0.018152041545212768,0.001158230450306967
2.025661678874632,0.9997502993595917,0.009055304909223823,0.000297616733751154
2.0411756963677905,0.9996386328693195,0.01097785361849343,0.00043206563653048205
2.016025980876823,0.9994959450113753,0.012806908488836722,0.0005998832175316653
2.005027471236299,0.9996623001792557,0.010424152432436698,0.00040093025579924775
2.081466035388928,0.9990708011331974,0.017958558820617913,0.001120249511941809
2.0313724419947836,0.9996040173470958,0.011436723986440512,0.0004725929681313729
2.036803645053876,0.9996265197887559,0.011136523342880008,0.00044618550021994493
2.067572000894284,0.998937259362974,0.019079441207254494,0.0012782729379639717
2.0286923216156727,0.999736062593564,0.009323900590372374,0.00031477632326660035
2.0525207694614496,0.9985851647293863,0.021859826716246648,0.0016979372781377301
2.030809595722794,0.9995101738206615,0.012717296267408085,0.0005846114132492396
2.062771736095744,0.9996092707310006,0.011536164379990003,0.0004690840159076964
2.0388022240433723,0.9998090792271799,0.007969092682424976,0.00022811161626613754
2.0825106482117604,0.9994545138050263,0.013762642825635404,0.0006573873867104929
2.0219512385137595,0.9998041416864466,0.008004799882663716,0.00023325561632812152
2.021149223706531,0.9997971224786979,0.008143787389503079,0.0002415799334848852
2.06195828408931,0.9997068104804189,0.009988369582670483,0.0003518798111395998
2.0508754050368063,0.9996817592427258,0.010350607658107844,0.0003811735548843104
2.0376574424919824,0.9996286970393756,0.011108651491106687,0.0004436551529243527
2.0314706701753344,0.9995094241052581,0.012731175027294832,0.0005855812270731231
2.103555736773961,0.9993492748706838,0.01518482676625842,0.0007872758673794343
2.0037760545403374,0.9995468085661577,0.012069316467282633,0.0005380057125999834
2.036400620475969,0.9995728191942469,0.011908395662231104,0.0005103418649310955
2.017672596998688,0.9994567837245564,0.013306353868441884,0.0006467359899653735
2.048226298487539,0.9998362404210753,0.0074144618171985074,0.0001960004823326309
2.002201543421825,0.9992847615271299,0.015153441763738007,0.000849162205841913
2.0461514751986676,0.9997553570061667,0.00905375759835026,0.00029272939022304516
2.084598187268712,0.9979970127565438,0.026427715267881072,0.002420079365085291
2.01831404583125,0.9998201835892725,0.0076560890190245775,0.00021399379397740547
2.0172603835349596,0.9993375185091475,0.014692973491553695,0.0007888069907183139
2.104499335509906,0.9979586006394842,0.030114697111663025,0.0021001377390604216
2.0231742592835538,0.9988716159994451,0.019238646931065802,0.0013460405601324699
2.03898971342642,0.9997072380701731,0.009869898895173673,0.0003498570818928001
2.0131471401656955,0.9995200344888414,0.012479060960179856,0.0005708707028212864
2.0667608444411476,0.9998669943616318,0.006742385355233993,0.00015973336204143428
2.053778745168941,0.9997499799639895,0.009186868580765416,0.0002995939737049089
2.0230025862766157,0.9996823348380353,0.010873976225652355,0.0003445948160242347
2.035575785565715,0.9997043973051464,0.009901084445411636,0.00035302357769220326
2.0885683503048735,0.9997402548747294,0.009522522469737645,0.0003132350840831951
2.0145081860703513,0.9998348512663501,0.007323276832434223,0.000196387539175351
2.045161006992116,0.9995820637157324,0.011829426760400186,0.0005001214046267791
2.0246046863789653,0.9995887273239035,0.01161673686334677,0.0004902120366394244
2.0578508388087897,0.9995635039380256,0.012164415970174312,0.0005235875460319378
2.076188928912867,0.999649040608043,0.011004102753446526,0.00042234917496122317
2.1392687386461504,0.9995026633052175,0.013498876690238927,0.0006052552526877977
2.044155824407707,0.9997429411643561,0.009271692127417628,0.0003074755825870759
2.0298305429876975,0.9997988207482564,0.008144452725939978,0.00023995986115712755
2.038379885747325,0.9995634410803691,0.012050186936191615,0.0005217497625184158
2.017700803744501,0.9997792746501114,0.009039791953079426,0.00023915511008619765
2.0656374756848987,0.9997111115197109,0.00993249425771613,0.0003469506897298778
2.006703773736573,0.9997505839444852,0.008965442221156007,0.00029617566563514756
2.018328889992029,0.9997128623143144,0.009675547968910228,0.00034176945147687136
2.045795091931123,0.9996938051987718,0.010127582369162912,0.0003663888883081174
2.061254585950041,0.9989849630542151,0.01858867216250529,0.0012193879226186323
2.070617381640837,0.9997590311519461,0.009092928983312041,0.00028964333430547763
2.0994565898470197,0.9990693765233257,0.01812767819643477,0.0011255714438542597
2.049625838732537,0.9996534706028152,0.010794499663047467,0.00041497673296324186
2.031631714519974,0.9996622687783718,0.010562959398018797,0.00040305653165706033
2.0713503961184103,0.9998042578117722,0.008546939615557381,0.00021718917325165357
2.0017288772455655,0.9997600364180695,0.008772049788960647,0.000284665206471029
2.0785899009635864,0.9994632208451241,0.013626569086830837,0.0006464283503883053
2.0232952987018415,0.9995624370294175,0.01197476796133764,0.0005214366462580861
2.0655021609383994,0.9996788924827638,0.010471297403810854,0.00038565431568917215
