slope,corelation,std_error,fit_error
2.6443561393916317,0.9998790543069588,0.00822620521927644,0.00015682405572809332
2.6126615315888664,0.9998497157371258,0.009060117959977961,0.00019428111150754984
2.6217942513869312,0.9998660007328085,0.008584963673245979,0.00017337840271144648
2.6272819792312734,0.9998474727161465,0.009178572326865144,0.00019746149496825953
2.598543349566512,0.9998269557918318,0.009669630155682259,0.00022340081112469655
2.627866844916264,0.9997613187361328,0.011485112875339622,0.0003090536024840214
2.626708938569459,0.999835649205438,0.009525688754025374,0.0002127602126547702
2.623690656007057,0.9998336835236823,0.009571487526287866,0.00021524279320656094
2.634731418264684,0.9998392069960506,0.009450772235111177,0.00020831371033307658
2.6160169465378758,0.9997825586455873,0.01091258031232423,0.0002812193928524233
2.622177902617617,0.9998194695851254,0.009966464990382512,0.000233608914554876
2.640360000269282,0.9997793269860517,0.011095698281532517,0.0002860697329743076
2.584920476117597,0.9997894094004861,0.010611585384847839,0.0002715185465818329
2.627279568354329,0.9998024236891311,0.010446795182546667,0.0002557990976443653
2.5980203201017202,0.9997578048343774,0.011437975744345042,0.0003126911926278969
2.607361672195703,0.999778586065935,0.01097541304668055,0.00028611629959394074
2.612875830605728,0.9998148508119956,0.01005738289431243,0.00023937054309716542
2.619494158389244,0.9998635109846862,0.00865676720850699,0.00017656109045921541
2.611328585090482,0.9998626369635087,0.008657374471922585,0.00017755048934607612
2.6192189757237974,0.9998002899892289,0.010470846109587895,0.00025836086009943955
2.6260883579816414,0.9998781319624137,0.008200473595464657,0.0001577446940326823
2.6155383819933773,0.9998611373887721,0.00871854450768677,0.00017956305509791857
2.6070077322545715,0.999824896476554,0.00975869615274938,0.0002262492968767197
2.622884224965942,0.9998153770552088,0.010081545012721824,0.00023892250956911924
2.5882481699532636,0.999784916230289,0.010738034500415394,0.0002774063460551032
2.6150304451201114,0.9998322044014729,0.009582232078420058,0.00021697492965257537
2.6363754023394925,0.9998361245616556,0.009546904108208973,0.000212341443080721
2.6155824341062486,0.9998059804419018,0.010306218947159187,0.00025090826858030924
2.628762678465487,0.9998651056151354,0.00863648953627478,0.00017465425242890848
2.629224774928876,0.999807192936678,0.010327542425162898,0.00024966936866755937
2.6221277909036758,0.9998457971557793,0.009210755851549225,0.00019953181525327792
2.6090042788656267,0.9998103531826074,0.010163758635205418,0.0002450939656857897
2.62395985877398,0.999822516450531,0.00988869653133288,0.00022970477783457676
2.6380987158285936,0.9998442656496312,0.00931277208301403,0.00020182332571440107
2.6160746058136475,0.9997989563422451,0.01049314801474128,0.00026000712839371805
2.633174734619121,0.9998611899937421,0.008775669859887186,0.00017980115817270174
2.6013221319251856,0.9997862540606531,0.010758647938487428,0.00027603980263382226
2.59978552147472,0.9998365632585146,0.009401791193232879,0.0002110204943678534
2.6113242492809117,0.9997917411040821,0.010660447078460396,0.00026921643070590575
2.6191666406003957,0.9997732688035909,0.011156748029906906,0.00029332802988212383
2.6156754691249873,0.9998307560875297,0.009625881542403101,0.00021886197580333027
2.6114235121685083,0.9998184851918146,0.009952620935344311,0.00023463719475980634
2.5930513788681933,0.9998452331769161,0.009125264567662727,0.00019968992437135533
2.6080054100610166,0.9998390069098794,0.009360726221581123,0.00020803337166954664
2.6052585606826915,0.999834490023894,0.00948116770133175,0.0002138136662456501
2.6196040726325034,0.9998500559031055,0.009073904017392815,0.00019397246145250044
2.6164984079068283,0.9998564114703826,0.008868948154386833,0.00018569282560460223
2.597888402336716,0.9998474301851938,0.00907714961379706,0.00019694942053136787
2.605017371818651,0.9998608122162144,0.008693637297063933,0.00017979802901053397
2.609794803375214,0.9998134919416494,0.010082330095424103,0.00024105509376118713
2.6414244973868115,0.9998003540712774,0.01055792227149947,0.0002588292453210624
2.646926625398041,0.9997715842296183,0.01131681844024499,0.00029629469856499383
2.6343670710809146,0.9998203071172291,0.009989534624738151,0.0002327977449102187
2.603908743756435,0.9997913728616085,0.010639570986322169,0.0002694960161826255
2.6082286810097064,0.9998130135577605,0.01008919767191227,0.0002416363999300951
2.6233180875871267,0.9998568642658224,0.008878030002439046,0.00018522971664240468
2.639072686781188,0.9997977817590232,0.010616280482331254,0.0002621065215500515
2.656420979317912,0.9997314089951544,0.012316154445527616,0.00034874072955364444
2.5986346548605868,0.9997344813941699,0.011979100187900986,0.0003428363244856745
2.6125661698252123,0.999788084489372,0.01075877186730911,0.00027397814780480146
2.6111236848863943,0.9998463473693978,0.009155719733964791,0.00019860669621556202
2.61870460203917,0.9998507086468127,0.00905101873248723,0.00019311098659767996
2.6294363857675087,0.9997858059675012,0.010886320638124699,0.00027737828570673176
2.633985131310089,0.9997921387624694,0.01074268347612845,0.0002692922730028381
2.601173005880318,0.9997843499718831,0.010805857647306355,0.00027849550092608156
2.604854743307081,0.9998475291189519,0.009098538270786908,0.0001969574470392548
2.5987759817093865,0.9997798506146797,0.010907978991998071,0.0002842404469190131
2.630061995077221,0.9998244092590306,0.009858684861185617,0.00022738805947387743
2.626080738074662,0.999814856728959,0.010108049160747699,0.0002396700590902675
2.6140096544395086,0.9998566071270241,0.008854472099477699,0.0001853947273979435
2.6364119967708346,0.999811645253421,0.010235472952579245,0.00024407029927142593
2.6198224810096904,0.999823729853943,0.009839287734149531,0.00022804251988089798
2.6155961221387156,0.999851516405661,0.009015779522902462,0.0001920077878824274
2.626806101588626,0.9998193959518794,0.009986092460969263,0.00023380874210638544
2.626240392109116,0.9998717319412374,0.008413573902992154,0.0001660328420207007
2.6307563337715796,0.9998866895952536,0.007921317549108632,0.00014673178765096432
2.6384474564721674,0.9997841085681635,0.010966839203064868,0.00027981820726323065
2.5856582204022414,0.9997631584258803,0.011256988849440203,0.00030539914843311425
2.6232810099202295,0.9998286872139892,0.009712711827533993,0.00022170177582901297
2.6148198338467283,0.9998189841684461,0.009951854336703125,0.00023406972216829023
2.591678852339039,0.9998106880714023,0.01008734415307864,0.0002442413583807968
2.63670642256665,0.9998244867080917,0.009881410711049438,0.00022743233376150087
2.6370954853252915,0.9998666769578463,0.008613246683743919,0.00017275715167242814
2.610864586545841,0.999807581337792,0.010245086235304445,0.00024872263550660415
2.6312128384601454,0.9998265307668031,0.00980321913428654,0.00022466483291807944
2.6362873134628466,0.9998374514524827,0.009507848002284647,0.00021061993586521182
2.6086651874090836,0.9998192223121282,0.00992189528251907,0.00023362087470701226
2.598380638007577,0.9997852363969798,0.010772042726361364,0.0002772736035840255
2.619842692957505,0.9998387217533009,0.009411538907933368,0.0002086430603767838
2.6208295033987015,0.9998323725019107,0.00959866863446942,0.0002168798154709507
2.599310524079592,0.9997910943871928,0.01062787080006693,0.0002697330839582877
2.6275839451246505,0.9998609242968775,0.008765415930746876,0.0001800487102229553
2.6238935669619767,0.9998354970144367,0.009519884681998436,0.00021289941425944043
2.5996905868951705,0.9998504949574266,0.008991730397685384,0.0001930268025284147
2.6081671084414277,0.9998416874544043,0.009283027645039495,0.00020457203217521847
2.6109590455062563,0.9998100512365864,0.010179469972605795,0.0002455313780597051
2.632591622297142,0.9997927728915134,0.0107206045948465,0.0002684346687797646
2.651214097686281,0.9998082194242048,0.010386149675240089,0.0002488593037370637
2.6257956990557116,0.9998693169305377,0.008490986665620195,0.00016915223933997419
2.6157285249011037,0.9998395670861677,0.009372094497336586,0.0002074661444569913
