slope,corelation,std_error,fit_error
2.3695127213780096,0.9997214511874711,0.011187819158494558,0.00035050211635412527
2.3501919265031606,0.9997247246880848,0.01103117139799153,0.00034551893376502267
2.31975324786933,0.999756293123066,0.010244719425957687,0.00030464690002149727
2.313635726625551,0.9997837002029023,0.009625836788736453,0.0002701512616057214
2.344071710082006,0.9998216188756519,0.008856220970168884,0.00022368784592289204
2.345382441365696,0.9998287548369958,0.0086820764022082,0.00021477408635276637
2.3238771928043183,0.9998060095692406,0.009156120819191345,0.00024261536073272113
2.3529291392376606,0.9998403814085484,0.00840906238928609,0.00020038607196262544
2.3674664604692226,0.9997657803328286,0.010249833460912933,0.0002946254602406672
2.3375766986481636,0.9997736176561528,0.009949606068693904,0.00028365821576811453
2.270031108774576,0.9996280128226745,0.012386881345235232,0.00046188819615811555
2.286745604477744,0.9996811776714735,0.011551571685002843,0.00039678224816600124
2.2765186076811847,0.9994197604319845,0.015517041750557316,0.0007213630111508004
2.3431246789768445,0.9998267369738354,0.008724685494149769,0.0002172410982203517
2.357330590898698,0.9997152669828682,0.011253229071001186,0.00035772671286362257
2.3340366670938186,0.9997207258923579,0.011034660719366011,0.0003497953657308666
2.363976622914383,0.9997269010277504,0.011051905737451673,0.0003433982499811052
2.364253924365008,0.9998256112512912,0.008831920490484285,0.00021925404527602284
2.3622189719756603,0.9997234493604622,0.011113288099765056,0.00034766166651116086
2.3465754376633363,0.9997674182408963,0.010123789499308635,0.0002917743437283844
2.233274842261801,0.9995620826719792,0.013222875458735264,0.0005408885954979475
2.278649877285234,0.9995734157018442,0.01331570017613662,0.0005303744571199136
2.396627094274206,0.999708956712425,0.01156695555845706,0.0003674809295452862
2.3704036584081254,0.9998081545064539,0.009287644813222506,0.0002413980662053282
2.3298142231899983,0.9997756768470407,0.009871346856703853,0.000280787242872086
2.3530615744199377,0.9997510743883324,0.01050253575832254,0.0003125498625700738
2.3373238037880415,0.9997616139219865,0.01020897118320756,0.00029869433523425096
2.3127621577906443,0.999821083068255,0.00875104606835953,0.00022342219911692833
2.349902500947909,0.9997962368803376,0.009489077755205931,0.0002557214565754338
2.3218937032180578,0.999669383483085,0.011944206683427317,0.00041346199924744407
2.2847310214746437,0.9997311521026594,0.01059792830473237,0.00033446801626917696
2.3243884380881417,0.999699962505683,0.011390406162225137,0.00037532929791161523
2.31388116310894,0.9997335256968564,0.010685639574659267,0.00033285372380446117
2.2628440773704437,0.999562707633004,0.01338838039321669,0.0005424684955125207
2.304722359428153,0.9997687982964181,0.009913669604308412,0.00028841786715832395
2.3132110008835864,0.9996140332782438,0.012857629845247812,0.0004821544851186555
2.257493270931693,0.9997135167896624,0.010809718251273609,0.0003550314873136222
2.311771337624317,0.9997959943759047,0.009340656371205742,0.00025472684886171935
2.339459579215353,0.9997646412583658,0.0101531868332235,0.0002949830836355943
2.317029943006186,0.999709231447467,0.011177510394770218,0.00036336829727744803
2.3449299465903413,0.9997445819459793,0.010601904057059497,0.00032036437922322195
2.287518567989802,0.9995584645283468,0.01359991754985906,0.0005496626041130976
2.3255850869044545,0.9996365416797239,0.012543621647681217,0.00045478137904520735
2.3226604293168274,0.9997178450933232,0.011037391233408389,0.00035286772516646554
2.2731029315436615,0.9996250091765401,0.012453647952676263,0.00046582433308660766
2.3384995516576597,0.9996971238479234,0.011513662492485366,0.0003795952413931421
2.3141445652050714,0.9996829336015716,0.011657727070150416,0.00039609269425464576
2.3434582158897794,0.9997734419365992,0.009978511776366347,0.0002840987947706518
2.371909625572371,0.9998180209689562,0.00905134431431362,0.00022902368915251163
2.3317386801404285,0.9996706268233413,0.011972264116272212,0.0004124501326891171
2.337689904770749,0.9997902523104976,0.009577426222271389,0.0002628122884226707
2.3183766730770214,0.9997956642344269,0.009374923896077865,0.0002553682357674466
2.3353242572123656,0.9997531812835636,0.010379146314061212,0.00030918226820288484
2.276366006650369,0.9993982823176908,0.01580081662454242,0.0007480728369853778
2.2520423003782337,0.9995196282736054,0.013965830507803883,0.0005950128638795673
2.3741600897145108,0.9998149666399954,0.009135667547206806,0.00023293529608328298
2.342095709057631,0.9997415036498666,0.010652733195318669,0.000324106128121235
2.3870986753758596,0.9998018714765505,0.009505028181010088,0.0002498324471537806
2.37656856857398,0.9998100497541662,0.009265676859931269,0.00023919985815251977
2.3111457735775063,0.999735154240272,0.010640330646048517,0.00033069542796340055
2.319969752049346,0.9997761908185451,0.009818365028732134,0.0002797735246890572
2.3572055981254443,0.9998149333330733,0.009071243931975429,0.00023247153120752368
2.3643723521648696,0.9997996218204755,0.009467849680133459,0.00025194347571300504
2.3265281293591866,0.9997918007335236,0.009496437666830884,0.00026048397515967577
2.311923913015816,0.9996604266406031,0.012053022413421453,0.0004240954093917376
2.356771432577604,0.9997873705680775,0.0097217268509124,0.00026709053897612983
2.2998015989223695,0.9996730730208395,0.01176433148309616,0.00040761448686726264
2.3755746143335785,0.9997963364798484,0.009590398150194395,0.00025644165165177556
2.3267778684866096,0.9996060364753717,0.013066409852863893,0.0004930527944388549
2.371773207707322,0.999811957825153,0.00920040702781457,0.0002366523022936801
2.3533100525799058,0.9997914967835864,0.00961276764790566,0.0002617882666782934
2.2845389993366005,0.9996715773995812,0.01171297138005707,0.0004086091341694583
2.331721108422356,0.9997777948023779,0.00983266155270446,0.0002782060560406978
2.336010550898429,0.9997819794355908,0.009757522157837,0.0002731207647116857
2.334891145296274,0.9997223221729866,0.011007094443113558,0.00034783464284836475
2.3548285855550843,0.999773081963188,0.010034892470623741,0.00028497324424217927
2.2939817633711357,0.9997001582540213,0.011237732379311997,0.00037352752220186846
2.296396639371658,0.9996528399578165,0.012105141281283396,0.00043265017328036925
2.331338848184576,0.9997332085732273,0.010772667164152814,0.0003340343758639682
2.3248227234725825,0.9997269788441782,0.010867306817026839,0.000341539526303035
2.3266282575206954,0.9997870835838305,0.009603862323317896,0.0002663911949600075
2.2509993310734964,0.9994894445758925,0.014391569348890122,0.0006323320472756076
2.3575158336308735,0.9997735402111132,0.010036191355564975,0.00028449659658610633
2.3389869045277503,0.999649074096764,0.012396378390224354,0.00043987613109431755
2.3103107465511132,0.9997354002444737,0.010631543243810363,0.0003303504725932054
2.3028467768128777,0.9995858703615329,0.013259071601807058,0.0005166239586872541
2.382044291892015,0.9998012234437653,0.009500405891997318,0.0002504909658813598
2.323847459833458,0.9997672820240272,0.010028671077192056,0.0002910659588818356
2.279376685469239,0.9996084323829415,0.012761215721231041,0.00048686258715642376
2.3324225752043826,0.999782242645342,0.009736650538736808,0.0002726609088593669
2.3539537207263286,0.9998212591498155,0.008902521867556914,0.0002244285836893922
2.4247223614106077,0.9991628974600584,0.019854965463417605,0.0010614465079874541
2.3120579569207806,0.9998018592154216,0.009206513517757942,0.00024741134547881754
2.3826406183422817,0.9998185047669426,0.009080196963880186,0.00022872489498276618
2.2746492331342245,0.9996170432531553,0.01259386564714623,0.00047583038538278894
2.3751982650878003,0.9997804797721793,0.009955283789247042,0.0002764009164911896
2.305366974940064,0.9997886918552469,0.009480080287585528,0.0002636166767022109
2.3237997745185455,0.9997460073008233,0.010477002761393886,0.00031768286947400333
2.3318151380393686,0.9997170470162503,0.011096561609839637,0.0003543004229215038
2.321799991762225,0.9995841102746024,0.01339659386115135,0.0005201628535051053
