slope,corelation,std_error,fit_error
2.4100236873879646,0.9997903847718139,0.00987065571526495,0.0002650705829526046
2.3732050881046494,0.999565161920257,0.0140018596676808,0.0005475489533585836
2.395999007368704,0.9997590225534918,0.010522000758399012,0.0003042196243027727
2.3956501114857978,0.9997865351718519,0.00990150212672535,0.0002694638192200279
2.348054242543206,0.999669417700477,0.01207815546354183,0.00041485752030621925
2.425589408164114,0.9997929195317351,0.009874140641782976,0.0002623572355041049
2.4101837766133425,0.9997870555108982,0.009949419075604272,0.00026928722532374415
2.4271818202309574,0.999814721200271,0.009345886964212447,0.00023477302601875738
2.431570944860663,0.9998165380668512,0.009316755217608236,0.00023259191778629386
2.42894556116188,0.9998329837393191,0.008879664533134057,0.00021167073910125685
2.3888647064345645,0.999717984081851,0.011349199556526749,0.0003557344823902023
2.3591155356762554,0.9996419044712057,0.012630202593474632,0.0004500496725217426
2.4562986905013475,0.9998364934544567,0.00888478666580226,0.00020788886338715435
2.3803020052743564,0.9996697075016304,0.012238664086292324,0.00041621337583838897
2.4131082160202793,0.9997905952731665,0.009878323577837533,0.0002649037156896772
2.4149049814466133,0.9998024808437763,0.00960094529682565,0.00024991811568846197
2.4453097516836433,0.9998132036131149,0.009454182014565278,0.00023720501449766348
2.4179790457013,0.9997856386483777,0.010014761255623818,0.000271336077116374
2.3874788676941034,0.9997283174630819,0.01113278695974466,0.00034263532906180665
2.3941058894638005,0.9997344077632455,0.011037800978512965,0.00033522802962209457
2.445277280838776,0.9997924737311182,0.009964998762939563,0.0002635362288288063
2.394146108526733,0.9997183001817277,0.011367911874801342,0.00035556923615649065
2.4138693662016832,0.9997609983739548,0.010556915448357955,0.00030238611644844976
2.3816709292829987,0.9997094601221295,0.01148482216845774,0.000366160967844584
2.4039026648205506,0.9997669320524486,0.010381953363155243,0.0002945176936510907
2.4273636253028616,0.9997670658499216,0.01048026579510866,0.00029518625133932513
2.4132830570856014,0.9998047165567361,0.009540026575187936,0.00024703984983771637
2.4505933682260146,0.999847052001057,0.008573101585902278,0.00019433241554695345
2.3926432789090115,0.9997390945321029,0.010933256408092494,0.0003292503028416631
2.3770485961489802,0.9997424667217751,0.010791545064187044,0.00032435816466649606
2.4166284732418886,0.9997312264064104,0.011208196582865976,0.00034018267785322
2.4276544230384194,0.9998125236795693,0.009402993601747938,0.00023757178331915423
2.3975036088085466,0.9997394299789896,0.010948418076808212,0.0003290249945075877
2.408145389163529,0.9998192718235991,0.009157976047506292,0.0002284789584979225
2.3967798171232344,0.999781708520008,0.010017575775391826,0.0002755972015018594
2.4205416754639586,0.9997536176598676,0.010748370029310986,0.00031197928387818804
2.4259153609040984,0.9998196804746963,0.00921511492152247,0.00022845263921122876
2.4306915053992597,0.9998323208705381,0.008903668129559872,0.00021255528745559542
2.394164049761231,0.9997501535408767,0.01070574489022182,0.0003153486823637632
2.4420002166129544,0.9998256837729533,0.009120452471757289,0.00022126684298601502
2.4012479519830445,0.9997634665435411,0.010447330759376261,0.0002988009410998308
2.400596577423304,0.9997349219104084,0.011057003495470398,0.0003348474367730263
2.432182326850476,0.9997125249486382,0.011666346047648624,0.0003645425058982808
2.4294417791329006,0.9998066668234312,0.009555813440715622,0.0002450480862309804
2.4363627420390075,0.999793489122667,0.009904343221561534,0.00026197120999907515
2.3971269990610398,0.9997450363216182,0.010828249507041561,0.00032192809642290555
2.4204918183338897,0.9998127404022233,0.009369828817827405,0.0002370932195214858
2.420839397125894,0.9998315036705655,0.008889167350258206,0.0002133395861460391
2.4625676255839686,0.9996898929849195,0.01226845801854004,0.00039465471290213786
2.4316689830744123,0.9997928464014193,0.009900637785517015,0.00026264046551863527
2.4136709540324235,0.9997969967119419,0.009728384431552849,0.00025682077241058525
2.4165055839875222,0.9997981005327774,0.009713285490502023,0.00025551166738320245
2.3816573838144417,0.9996170536818627,0.013186149333148154,0.00048268485987486417
2.4252505392353094,0.9998028240142848,0.009633693952632033,0.00024979505832791387
2.4170922082183357,0.9997680650092439,0.010413504397183384,0.0002935568553104657
2.41591325555149,0.9998113054139577,0.009387879761300203,0.0002387785218371387
2.4424107660531025,0.9997547640866643,0.010820208368124891,0.00031133630713289827
2.3873803526960966,0.9997165327657794,0.011371307102191171,0.00035749964366901484
2.4352305998316743,0.999751057600223,0.010869651476695576,0.00031577585893518444
2.407122384875867,0.9997448191254056,0.010878032599541544,0.0003225987490914857
2.388715956751,0.9997024673932161,0.01165664894177592,0.0003753089802045054
2.4328319338027433,0.9997344782184208,0.011214855375594471,0.0003367188240845187
2.4145968187492284,0.9997525760545262,0.01074462058777388,0.0003130736637488223
2.444429154101136,0.9997609601628469,0.010691421745847538,0.00030353926816792387
2.4064828761024204,0.9997775158228955,0.010154295817064824,0.0002812279006062548
2.4496798015252708,0.9998415865934722,0.00872171487119048,0.00020125686264544897
2.433705599409253,0.9997677142584337,0.010493007457149208,0.0002945867435169226
2.423100204887055,0.9998162499745129,0.009291587679618294,0.00023272146367404287
2.441829290675061,0.9997952688125215,0.009883687109039582,0.00025988045219734385
2.4310522406628947,0.9997877733734775,0.010018630406808898,0.0002690546209898675
2.414375339421307,0.9998246892981131,0.009042970258593838,0.00022179644509943858
2.436126630888487,0.9998386493721584,0.00875352029301127,0.00020466318594752336
2.4188574973916586,0.9997768355228144,0.0102221090238087,0.000282512666329788
2.410849881994357,0.9998274541286968,0.008958259846844301,0.00021820406503508151
2.4040627530887657,0.9997097785780228,0.011586441503298983,0.0003667786779146913
2.4224528038063613,0.9997604644085988,0.010606287050481165,0.00030337629881573003
2.4218093066078783,0.9998472964163567,0.008465630230563083,0.00019336178248159202
2.39198165301875,0.9997963737643789,0.009655750543348567,0.00025692341174610547
2.3865760019676303,0.9997537338689778,0.01059504564484157,0.0003105342390780758
2.3909700944908723,0.9997514211662509,0.010664295970910053,0.00031362357869514434
2.4287129955935645,0.9997775504608983,0.01024729906414571,0.00028194061667520537
2.4321959895360954,0.9998361752040762,0.008806163521245303,0.0002077053979895353
2.371925626840164,0.9997272135212653,0.011082719642319296,0.0003433538752029268
2.4230128619196774,0.9997758001183953,0.01026340433373486,0.0002839659130523662
2.3953218298666616,0.9997331401115674,0.011069740786652212,0.00033687948267464656
2.410171084617003,0.9997939402154724,0.009787158283393202,0.00026057780998787854
2.430911533786532,0.9998303855862816,0.00895572558746459,0.00021501477237158582
2.4531298754292576,0.9997955649705349,0.009922241388207704,0.00025984745385016986
2.373194364027601,0.9996886380983347,0.011847111416532505,0.0003919943348815961
2.4020360788010158,0.9997657638287012,0.010399867498743085,0.000295926571616578
2.4334146497619393,0.9997864194857599,0.010060313211781071,0.00027084765808870083
2.4298815571230326,0.9997495773812074,0.010877984970792755,0.00031745228381620906
2.405630769938877,0.9998160458715836,0.009229722785989446,0.00023248685284765335
2.400354339384338,0.9997043341480041,0.01167662292534398,0.00037349198471846795
2.3526718619976523,0.999466597266734,0.01537473945080498,0.0006699900598265381
2.4019026336088873,0.9997548557696034,0.01063876191760047,0.00030970745391018135
2.396052134879194,0.9996363455238922,0.012927192046244181,0.0004591795808663574
2.441179888692119,0.9998143661095441,0.009408792300922071,0.00023561408103902186
2.4610763592352582,0.9997550251207559,0.010897093144903695,0.0003116809732760941
2.4077561007774637,0.9998153783755596,0.009254626817186196,0.0002333913697888388
