slope,corelation,std_error,fit_error
2.1844317291474744,0.999796534466153,0.025445122938943184,0.07995433390203457
2.1536645545112107,0.9998763031420753,0.019559243727459416,0.05587773194330188
2.116861303238895,0.9999439983752495,0.01293496713287525,0.042727432707252766
2.1560437722961217,0.9998932435941558,0.018190460398457675,0.061789123142502234
2.201341097626053,0.9997926213481307,0.02588757030194545,0.08967704277854749
2.19200771611032,0.9998215230912388,0.02391363556191564,0.0510566958684629
2.1548686601946914,0.9998989925013436,0.017684178332131893,0.06157134603145006
2.1566331049885594,0.9999183415280953,0.015913212468489805,0.0631987339404286
2.2165594736421497,0.9997212227520492,0.030224090474233162,0.07846377341422774
2.2310884441069123,0.9998128444659196,0.02492490209729259,0.08630953377086725
2.1561646834019865,0.9999171283529784,0.016027518181874274,0.058767378073633976
2.1330366610241263,0.9999151906025074,0.01603992394904566,0.055334098590141975
2.1557238254031454,0.9998175533086001,0.02377797801315051,0.06546073366752712
2.1623072411246023,0.9998115060194388,0.02424275202847022,0.06300845558577965
2.1570950635144466,0.9998815890701016,0.019167175652623308,0.04527627730021263
2.113725644205856,0.9999463354250893,0.012643412690552266,0.04774857650693714
2.2094822459627235,0.9998185018024495,0.024307492973819622,0.07211096209744304
2.1521255426524317,0.9998964831268861,0.017879742693316356,0.060398138319241845
2.1608826524347284,0.9998982349744517,0.01779991692563982,0.07377492703426043
2.175659024512686,0.9998771953572273,0.019687591924282277,0.06631752722103816
2.160554415221534,0.9998836242232321,0.019032190859836307,0.07227387436451801
2.1330937483532355,0.9999462194383454,0.012773046642943623,0.05750037180961076
2.159539808816846,0.9999160233369462,0.016159288905956325,0.06362750611504013
2.165549132925036,0.9998939614747545,0.018209113072299724,0.06951874206509527
2.222967932575446,0.9997388107945584,0.02933933514700323,0.08218736711304138
2.1608534189325863,0.9998647297837873,0.02052224339103703,0.059550540518913335
2.1716843032367303,0.9998398412237189,0.022442880945827335,0.046850592393829806
2.176744436268547,0.9999218941306881,0.015708296517606978,0.06596481153948971
2.1455280172813707,0.9999010824526483,0.01742438473016022,0.06386729818103977
2.167375006573114,0.999795559989343,0.02530684337204468,0.07409286884277662
2.1472744925563276,0.9999447265227092,0.013035219046178055,0.05752894714499039
2.1621360965076053,0.9998714654173618,0.020016551725365456,0.059057893680736176
2.1920806662465018,0.9998110430814635,0.02460672723457691,0.07541314809008585
2.1994497996152638,0.9997119466801324,0.030485878029474483,0.09082949205205551
2.1730794672007017,0.9999325820180401,0.014569337817099945,0.07450548434015632
2.135920393241446,0.9998990028020451,0.017527783251033838,0.04806129318742035
2.170976544248546,0.9998938268886367,0.018266332502625885,0.07107802533464289
2.1693886104209876,0.9998827440847985,0.01918215084522676,0.0621470883038281
2.1528232645133327,0.9999156759842189,0.01614231643056346,0.046758625992239074
2.158249607785958,0.9998736137892049,0.019812854831906885,0.05312974028448494
2.18058257621781,0.999859239940748,0.021125766767159482,0.06760059074214195
2.2095648671367343,0.9998127653379373,0.02468966770243098,0.0944760899651081
2.167409044613485,0.9998382920165397,0.022506795202263667,0.06769209644955364
2.2066348327595593,0.9998531771912342,0.02183380520117524,0.08201957810890481
2.181608994880658,0.999900707882395,0.017750926098093648,0.06381384728655563
2.173916515497976,0.9998794821532457,0.019487771206176764,0.05884974437133345
2.211066093725105,0.9998265741891702,0.02377767880701997,0.09329899064698352
2.16913916747261,0.9998661667047929,0.020491203582163685,0.061521808301893646
2.1675625100181612,0.9999148207876475,0.016335053353713196,0.061789898188824244
2.142658531940592,0.9998780286649022,0.019323062352260903,0.0537446719877437
2.140863325750221,0.9999342109209929,0.014178870827512891,0.06108537215799346
2.1817378570068326,0.9998539677392687,0.021529250554508148,0.06966169297844049
2.197378424838692,0.999801496261279,0.025281814255537542,0.07272329591741081
2.1376498376417614,0.9999055640042592,0.01696252419158138,0.042846324998610255
2.1112995286607146,0.9998953231920216,0.01763857735720809,0.04143265169373837
2.2238459767116714,0.9998086411322602,0.02512150813327255,0.08822596796678427
2.2244604284295613,0.999682412121129,0.032375350462752694,0.0771745360754259
2.2093075496723187,0.9997620548343474,0.02783085216497007,0.08062060583029741
2.1939837681594043,0.9997964666400208,0.025560649472433795,0.07652746096179815
2.1697298746358764,0.9999009114961576,0.0176361568144301,0.05728807196654727
2.1525368629999218,0.9999271686647712,0.014999881489788956,0.06162065399612548
2.153833576107776,0.9997632064157889,0.02706628299051072,0.0581125903645482
2.188950288826792,0.9998944861139648,0.018360286280665977,0.06785706847326066
2.184322443053624,0.9997992840868318,0.02527128969620539,0.07186644329619285
2.209471077512521,0.9997163902221111,0.03038754984108102,0.07715639980504012
2.176642127732244,0.9998590783036877,0.021099697887278897,0.07069455943870055
2.1271814110305116,0.9999520422002316,0.012028297080115618,0.06599527379336938
2.1334917571695664,0.9999492845194481,0.012406010140725428,0.04490317722342184
2.1473121373124884,0.9999168992912442,0.015983761189887282,0.05794573747577964
2.1352286912587837,0.9999380039841038,0.01372779709894781,0.04263653745160408
2.2209356838156715,0.9997790541522636,0.02695909136205232,0.09620511796379021
2.1380747623679097,0.9999345571723357,0.014123085965643805,0.056376231487019327
2.168224002866891,0.9999163289871603,0.01619471412747238,0.059255857064611096
2.1880244273610554,0.9998644812675146,0.020799377964658222,0.07879525537861594
2.1762796805326605,0.9999309054079634,0.014771126333039354,0.06258894233872596
2.1587211628896115,0.9999130587830178,0.016435847277370734,0.05376979982822829
2.1674888264645826,0.9999043714267035,0.017307575150368383,0.060867835548135
2.129003413288839,0.9999297941834578,0.014565994581121847,0.047563526356724374
2.1361260378145004,0.9999631026575537,0.010594752267068987,0.053502552776487265
2.190815549220239,0.9998556513733704,0.02149381638766258,0.07680728551595281
2.1656500341684457,0.9998941402666488,0.01819460065098905,0.07063710084258785
2.153830321802349,0.9995278699825096,0.03822526358186799,0.061302821803917946
2.168357645707275,0.9997865405029256,0.025870961158767004,0.06663639683536529
2.248134567181263,0.9996441163759235,0.03463750638573717,0.09110683622817473
2.1757848167326648,0.9999125647794738,0.016612767921405775,0.0716045976446514
2.2049925376046486,0.9997951787126096,0.02577007976447031,0.09067246878644286
2.205632734206939,0.9996948735025016,0.03146494194289794,0.07466591667371374
2.1900510600177245,0.9998598509013217,0.0211713922502834,0.07582595624814768
2.1211672899706073,0.9999045101137696,0.016925405586241008,0.05723197960599424
2.206719568489384,0.9996924279484805,0.03160640872718937,0.07908370618514017
2.1870595454662736,0.9999049818177694,0.017408016429419686,0.0899575108593756
2.1084719694850618,0.9999014006057614,0.017095879315864655,0.037605667185864645
2.232290792215763,0.9997704876866198,0.027617407020787032,0.0979703753982595
2.1957302454228214,0.9998985951691108,0.01805492583641767,0.07637167068773668
2.2016467343553563,0.999874652128302,0.02012803224470328,0.09016124504621116
2.164271655826988,0.9999241864533086,0.015387364602820062,0.06586400247801168
2.1299300182354752,0.9999273110031214,0.014827834154416235,0.046464611763662504
2.2152059797298107,0.9997862004809424,0.02645096343519259,0.06530952830179775
2.134549503793126,0.9999050206322616,0.01698658893833061,0.061422675970291676
2.175323236228598,0.99992319213874,0.015567039396410066,0.07232611325403811
