slope,corelation,std_error,fit_error
2.505107596845613,0.9998586318965966,0.024322181251446817,0.19717662867811955
2.516458370291138,0.9998662402839609,0.02376568636929073,0.20090845272283642
2.5161314211268473,0.9998706823325632,0.023364621367721786,0.20212221927206056
2.5192469204662773,0.9998168045894767,0.027844670206388075,0.19336494306113436
2.5026204939607695,0.9998875366289091,0.021671628628997675,0.18874026472508443
2.4999526999226953,0.9998723200350371,0.02306689457580337,0.19362316515760616
2.506161118974665,0.9998622416868906,0.024019675774395538,0.20044847862023002
2.4759781320322696,0.9999193679098783,0.018154379040131233,0.17218742260363298
2.5090633124604818,0.9998570328498677,0.024498003482424053,0.19240203613594603
2.513816684654527,0.9998411493959192,0.025872247430365012,0.1986837435109523
2.5300911958778234,0.9998516068235781,0.025167834555786008,0.20486974207624117
2.497231214266468,0.9998289928768995,0.026667108737221244,0.1720673981470601
2.5226851079879427,0.9998023025898155,0.02896558510017113,0.1995157904703401
2.513570400032198,0.9998617477530348,0.0241338471829868,0.19935955902204286
2.517496000427357,0.9998231963693701,0.02733545730513523,0.18694239482236077
2.5286915757336272,0.9998357327341552,0.0264654484184002,0.20006469645908362
2.5315419111763178,0.9997631489581791,0.031816638968191806,0.204898907458076
2.492606683607511,0.9999090441287413,0.019411232999492014,0.1843167055954161
2.5022357760696954,0.9999011782060682,0.020311460686954972,0.197833126355306
2.5207923551540206,0.9998236283986595,0.027337778877950428,0.19822020005834637
2.5199894182655473,0.9998623060869093,0.024146562427048848,0.20154636897839798
2.5262545047374076,0.999814570697687,0.028091896410236357,0.20194669809562021
2.496902398816106,0.999878887063179,0.022438336489958927,0.18041228308075827
2.5215181182312496,0.9997829533515734,0.030336376883212394,0.18904536683245438
2.5225901180730537,0.9998032329801665,0.028896238492294155,0.19783245113280654
2.528915642137438,0.9998129877287787,0.02824130011053622,0.20165784479585688
2.526011033324948,0.9998584063737219,0.024544692165742805,0.20052815682738787
2.4935764026261347,0.9998860861896474,0.021732132587254753,0.1865317051046018
2.539507939134423,0.9997996145881358,0.029356364637285335,0.2069067680921792
2.501256415257272,0.9998695231631172,0.02333037922409097,0.19474097285675862
2.492039750917457,0.9998955055211721,0.020801279343297653,0.1858521663765935
2.4921028510192444,0.9998805248179666,0.022243242734651333,0.17481726976895204
2.551672307323995,0.9997089501794046,0.03555148580076557,0.22006157446073252
2.501561133255363,0.9998648279734128,0.023749416039719154,0.19639163989025168
2.506438284082681,0.9998796558212049,0.022452418631630295,0.19237977407983503
2.5215765195273416,0.9998345996158226,0.02648187057857723,0.20555816692334578
2.513522163191968,0.9998458852598667,0.025480584233991067,0.18283067831150088
2.4980753972233853,0.9998873459842011,0.02165060056192901,0.1896377311160431
2.5192686721284914,0.9997981329357541,0.029229901388868003,0.20236225035863373
2.4978762800497614,0.9998665025955863,0.023567048283983528,0.19292766464604577
2.5059628527728446,0.9998646027106106,0.023811024923102095,0.1911943047075788
2.494885589724338,0.9998734402319184,0.02291891565830736,0.19178696714505836
2.5257112026798394,0.9997979234868916,0.02931985437961995,0.19805511397894474
2.516657921547206,0.9998266220344649,0.027060261432030674,0.18345157011137211
2.538438272210678,0.9998309214159296,0.026953822028415342,0.20626012067601943
2.5192628563620154,0.9998641069586031,0.023981190003969553,0.20019204156848627
2.519978730174046,0.9998291693020591,0.026896133509973406,0.2002662999262313
2.493306223663349,0.9998890929764297,0.021441029963692338,0.19273676180785637
2.5302318704768543,0.9998086657769456,0.028580732113376545,0.2017984725854059
2.4968685094243814,0.9998691475315717,0.02332295782765923,0.18636564179599527
2.528813377188829,0.9997652657588225,0.03163995388406261,0.19541761994285292
2.491459084899536,0.9998865105594259,0.02167318938356567,0.18271324933404332
2.4941891091594086,0.999885298669196,0.021812494787652625,0.19032126525086038
2.5131807599237885,0.9998640810554149,0.02392557415875406,0.19811208163459965
2.5156874847114836,0.9998812881847167,0.02238188718123828,0.19315018895237496
2.5177053514027055,0.9998580514637566,0.024494634989906797,0.19760782193628135
2.501214066328674,0.9998549645210674,0.024597422712827784,0.182255980712815
2.5138727408103505,0.9998272434747985,0.02698181531665488,0.2023056515294602
2.510028484634222,0.9998600167839262,0.02425027138823887,0.1969325557569135
2.544954768618855,0.999739695341014,0.03353205800023753,0.1979538564409
2.5201071288808627,0.999823726880644,0.027322714243758765,0.20518895243379304
2.5030416094579415,0.9998841330045726,0.02200088014777169,0.1951717149876682
2.5405886152884523,0.9997717641145918,0.03134404440098138,0.21569115469506564
2.528695854364931,0.9998432675742914,0.025851244205483386,0.20480478273951438
2.4987855759537716,0.9998896366743426,0.02143540533350226,0.19626894801175623
2.522188935489655,0.9998061481098363,0.028676764866718107,0.2029254613704669
2.533090933381461,0.9998318868261344,0.026820124404173216,0.19655354475395156
2.504717453797144,0.9998950504872546,0.02095258022625129,0.1948549732306973
2.5240518113913635,0.9998107163245895,0.028357691692660225,0.20514561954363608
2.499569311066096,0.999874107493413,0.022901319385206412,0.20025194637080238
2.5450335284647503,0.9997653457400025,0.03183746953076658,0.21787617901840012
2.53840659474232,0.9997775497690211,0.03091750605083889,0.21405626904794908
2.51348946371248,0.999845916551331,0.0254776652610001,0.20543427507503598
2.5278054742050258,0.9998045550842355,0.02885850818707483,0.20152990688182154
2.4972637371489315,0.9998522509064331,0.024787305703331427,0.18853964897597955
2.5170499331502,0.9998551658969241,0.024735961608837367,0.19949572262496368
2.5081581018616323,0.9998748251548109,0.022914405054303193,0.19773709820101004
2.5025944352947995,0.9998771142117453,0.02265352052424379,0.19334590827138196
2.505873387854703,0.9998867861462633,0.02177209195479079,0.19369247621279334
2.517495453604341,0.9998391233426092,0.026074860177779463,0.1855818275675313
2.520987306819765,0.9998354417842794,0.026408176839095,0.19928162228345528
2.509960562033008,0.9998748635119066,0.022927357977714134,0.20254972055689477
2.503436106595777,0.9998856278256049,0.02186192131953601,0.1963550644940176
2.5232286472584007,0.9998277295954715,0.027044093681945578,0.19611095386313449
2.5147522571550294,0.9998717962613424,0.023251002558940307,0.20504124085295497
2.5319289468363424,0.9998324474607974,0.026763072590275355,0.20460558047236788
2.5317269305921353,0.9998239288127948,0.02743296402948095,0.20141367930727233
2.516019752987372,0.999879495040812,0.022553301751392058,0.2002623923651055
2.567024151302689,0.9997174545882662,0.035238750506037315,0.22436587665637245
2.49600866737504,0.9998878752109991,0.0215818069149622,0.1923135364489507
2.49807312396665,0.9998833445522711,0.022031802488708827,0.19677083171751347
2.5121528968334355,0.9998854712339108,0.021953058592100002,0.19062604578502398
2.52326935432386,0.9998078270086971,0.028564508816089285,0.20250629223706298
2.495786183605578,0.9998904512902286,0.021330501424801637,0.19295555545345439
2.5205940485001803,0.9998536451030843,0.0249005294228614,0.2048528049395481
2.496671117455397,0.9999019300772766,0.020189035396091272,0.19156710187267678
2.516726073485885,0.9998434513923113,0.02571377973851513,0.1972195217505913
2.483489597313253,0.9998904851668198,0.02122212470425554,0.1883933879969461
2.508424718483217,0.9998845612368522,0.022007407139545042,0.1957420104233812
2.519112008887731,0.9998262763863082,0.02711364260829816,0.20524074122777583
