slope,corelation,std_error,fit_error
2.623625225083288,0.9995555015856509,0.04517894614808876,0.17569009891736734
2.620364059646083,0.9997368646449984,0.034712934467995685,0.18536538120654847
2.613492680760079,0.9998175385708183,0.028828406189575162,0.19687687152199027
2.5968691417504823,0.9998510411830874,0.025881298791914153,0.19629722904037591
2.588219504974268,0.9998800850660624,0.023143613823190638,0.17318168420266936
2.562848375159453,0.9998547218933185,0.025224623527482726,0.18054470123076985
2.5707838992869685,0.9999202463310732,0.018746545745458917,0.17994722160459928
2.56592730401203,0.999886762897067,0.022296155242482716,0.18410085608091173
2.561209120975147,0.9999331375139183,0.017100643364936285,0.16681826948243678
2.5619278502820078,0.9999210292589337,0.018590030216214026,0.17735979900234006
2.597368846494081,0.9998266784615158,0.02792355610515946,0.19140256097447447
2.626347212700764,0.9997250870509011,0.03556261342782364,0.18722194837824283
2.62433396906117,0.9997827549989512,0.03158778246571128,0.20388730008571251
2.5894894102027193,0.99983100544513,0.027489061696819684,0.19007404751709228
2.603219980114894,0.999818023644987,0.028676886673930826,0.17460388429868856
2.583855116551621,0.9998899533515679,0.022133331332377413,0.18659192753142784
2.5906050043242863,0.9998376129311448,0.02695778403888303,0.19276798737547152
2.5744374050562664,0.9998775826850873,0.02325937329237923,0.18602335133276862
2.5451930836743313,0.999944339425278,0.015504832484372783,0.17284675691757317
2.5711925150863637,0.9999017074765585,0.020815230562721637,0.17755635789909388
2.575543741995028,0.9999306790471715,0.01750967731620512,0.18054891847156584
2.626271000502344,0.9997746644459378,0.03219453638517103,0.20801905922596473
2.620881142687776,0.9997019069358947,0.03695513083312285,0.1977669451727598
2.612500667662625,0.9997390088433739,0.03446741393327204,0.20057139351853812
2.5992409233543095,0.9998293480363398,0.027727591171637454,0.20010238237845152
2.603356390407274,0.999824363773672,0.028174243192503688,0.19517193746831946
2.5921883188692014,0.999757329010223,0.032976829941732566,0.1603581994791539
2.5782942590291826,0.9999005086550188,0.020999642983481174,0.1818986083919736
2.595965164586376,0.9998749050535708,0.02370903416912377,0.19492726125831736
2.596701768157168,0.9997895293147748,0.030763859180988652,0.1876522685334169
2.614620129431607,0.9998309427530145,0.027760989253064357,0.19199614747336824
2.568514209607004,0.9999530391305674,0.014372082586285886,0.1748590933522429
2.616376836844979,0.9997465551027366,0.034015668188205804,0.1970594391928188
2.599965644578573,0.9995719840987507,0.04393305258411429,0.16915100595261542
2.5777820510740117,0.9998663296241812,0.024336700250932344,0.1931373761636272
2.59398470713664,0.9998592843470918,0.025126894985285315,0.1779043476476883
2.57620435754291,0.9998373935176728,0.02682604061062529,0.18278311508075623
2.6629191350229537,0.999572563252597,0.044966339680941096,0.19682713283891198
2.575361008168157,0.9999057135592807,0.020419627722951163,0.17687524498909335
2.611256156257062,0.9997928916818901,0.03068810602344577,0.19501893886696067
2.6287646458527125,0.9994918559706985,0.048402194385048045,0.16844158047966853
2.5899198195991264,0.999847807499358,0.026090769782160367,0.19153916059052237
2.595094932841876,0.9997872327562823,0.030912157340923948,0.1849272221856401
2.5625565831643438,0.9999325272189576,0.017187555669039862,0.17930359174615013
2.5981166879844717,0.9998762653034609,0.02359929763090501,0.20126512468110333
2.5973006175397835,0.9998515365225289,0.025842514315022463,0.19155686379792308
2.574808188043475,0.9999258202142427,0.018107821398700423,0.18972419702808205
2.5815988267670433,0.9998690327893245,0.024124986363868974,0.1841746924351957
2.5990787240646585,0.9998601239060692,0.025101005387190452,0.20570276433037377
2.6113526828041143,0.9998350104591457,0.027390619422413838,0.1955774495191945
2.591705673731508,0.9998372879557497,0.026996216626023316,0.19450236759641445
2.5824839438517477,0.9998836461973124,0.022746793902889684,0.19082181459071762
2.598954173317026,0.9998476879203086,0.02619206753709366,0.1742435719998081
2.6071882968327267,0.9997814552008224,0.031475178378703735,0.17279229573060675
2.5742151738719024,0.9998739657740849,0.02359850662752099,0.18971137192805734
2.6118322477749816,0.9997471525726237,0.03391652035060621,0.1802548739880365
2.6011196767879037,0.999856060935782,0.025483022063427275,0.1836774965221859
2.6142393450028893,0.999716822877758,0.03592700802720956,0.19249972785496847
2.576978852031176,0.9998100772774885,0.029001172548591272,0.19445211748274
2.5889198612252637,0.9998638081695715,0.02467134748737368,0.18637962058826887
2.6074606389839707,0.9998428080611326,0.026695525385079324,0.2037430347883246
2.5862647433606893,0.9998733975557691,0.02376236350461022,0.19266654913610975
2.6136903669560962,0.9998346563837289,0.027444548139493454,0.19918861196899976
2.60606975136522,0.9997200747476711,0.035608414560249844,0.1954264285873255
2.5879628367725247,0.9998355893678635,0.02709760530642474,0.19298678690699725
2.5831058576898136,0.9999143028497575,0.019525747981884674,0.1852583562117385
2.598537920195333,0.9997560909439601,0.03314185780010142,0.19484257200650537
2.6107523737319682,0.9998067344616743,0.02963877297025377,0.19124984146828186
2.5773054643985494,0.9999030452854131,0.02072222157275399,0.18140270211837534
2.6070868562803744,0.9998292019020749,0.02782319654191969,0.1953231719388592
2.572606927886302,0.9999263833906139,0.018023523215544415,0.17737255919409559
2.6055388848263252,0.99979308137233,0.03060688487321519,0.17425028471015477
2.592667756110334,0.999856597943977,0.025352782989209368,0.1690691755290394
2.582596722845113,0.9999143742101086,0.019513768703451357,0.17664128389705994
2.5636605951219495,0.9999124150830577,0.019591066982326242,0.18020878446821587
2.591709783078142,0.9998146176590148,0.028816107060958156,0.1755375170941498
2.5628991232725165,0.9999228627527202,0.018379897182973042,0.18805183766621494
2.615108641577779,0.9997881475208633,0.031083498602020962,0.18850783873954
2.5743977616941285,0.9998825556502995,0.022781606181996223,0.16883999778933947
2.6202275355964506,0.9997677615568038,0.032608895399331504,0.20455691297972498
2.5923337147375562,0.999841333939899,0.026664840062680113,0.1824766486212998
2.556661629831737,0.9999082198731207,0.020000085270179227,0.17579647011032487
2.5892352822733606,0.9998569497418491,0.02528813539337242,0.17289709477404855
2.564479624761466,0.9999067542352719,0.020220810286209784,0.1663664135534757
2.5835181418134843,0.9998465523046683,0.026133408472105435,0.19075537088139075
2.627377308321933,0.9996260434889833,0.041496283000202805,0.20070676902043724
2.5837824466780392,0.9998807451273116,0.02304025211508648,0.17455045876682637
2.599365422268129,0.9998668274695871,0.024494716331070896,0.18225041749432486
2.6231429961431982,0.9997555513489936,0.03349267169408465,0.1684280287444236
2.566820582879677,0.9999245679436606,0.018203396467291605,0.1745287470144068
2.5901711072596094,0.9998401546212523,0.02674144908449019,0.18424719033741918
2.5792809321801142,0.9998875381662637,0.02233532271815611,0.15450974323497196
2.5860583810026143,0.9998405431956481,0.02666650914114724,0.1897784629872366
2.5903491311252265,0.9998510398237003,0.02581643592901855,0.17860706542418295
2.583204117800661,0.9998408388461941,0.026612365597774433,0.18705734401177251
2.577513565405645,0.9998814972656701,0.022911742371547476,0.17161218556559957
2.587209579860434,0.9999041045206348,0.02068789414057145,0.20583409653787887
2.584082446636915,0.9998539709337151,0.025499282438433475,0.19649077853168273
2.566145074579617,0.999914092106193,0.019421380405456306,0.18827357656659355
2.6092713334276523,0.9998224994498831,0.02838777057828095,0.18543342222722206
