slope,corelation,std_error,fit_error
2.208129822079492,0.9999154727477421,0.016576959753319433,0.02800397139350463
2.2562196955274283,0.9997852353031268,0.02700145488385274,0.061205738311787154
2.128551948425977,0.999948938096127,0.012419489898283722,0.04912781825566148
2.179659133342176,0.9999446034525058,0.013246536665483423,0.051556955136003856
2.230609773826835,0.9997707074526391,0.027583389765137245,0.06385091209385532
2.188449610144658,0.9999676604182816,0.010161753478560303,0.040509160386439494
2.1925414309617826,0.9995803864526894,0.03668289815218691,0.05119802258516409
2.1824239661137765,0.9999691490265415,0.009897784131143728,0.01860832686124499
2.226473852271632,0.9995382379088856,0.039077930283066026,0.04830311860120901
2.3033394382678893,0.9989463112702404,0.061095876704482834,0.05179907454587222
2.18587749447393,0.9998195321169713,0.023979434630929566,0.04580101173928195
2.1513654407759937,0.999964171369059,0.010514662457957416,0.05664646525798465
2.1768723297846813,0.9999594823855718,0.01131416377496348,0.03425755201927428
2.149797636746255,0.999967839745205,0.009954562266816867,0.021719288497248142
2.2500696161285,0.9993095046278003,0.04830095427807572,0.04634854403733228
2.1575180594542256,0.9999461197584791,0.012931268445450663,0.06031599563117791
2.250587956331112,0.9996831118790647,0.03271949384643138,0.05412271530363918
2.196846083746137,0.9997325383099783,0.029340798202244868,0.05594671253032958
2.15180609218659,0.9999529258422506,0.012054913983463247,0.03731777641401002
2.2511612686605504,0.9996829507885022,0.032736150295358944,0.04608637513289716
2.1751031683640356,0.999864195172188,0.020698366569627143,0.047515145674246244
2.2420955843087076,0.9998358447425314,0.023457912719048166,0.072181900747518
2.1630742497894655,0.9999661047582579,0.010282677290725385,0.037742505386797534
2.175730808293023,0.9995349206657365,0.03832433079174726,0.05002967063456553
2.237384939085247,0.9996223806196429,0.03550955616070011,0.04755490376994053
2.2450522950549714,0.9992927367092068,0.04877551418416353,0.07618741542527055
2.1908531406759297,0.9999266541481685,0.015320724626352969,0.06654523438246226
2.1866974715760295,0.999913888815051,0.016569175790328412,0.06649605482186953
2.1422996534676546,0.9999763972889479,0.008498127073883062,0.038466513519141717
2.123132029841664,0.9999550338229388,0.011624894028717359,0.06025882684603452
2.2112005281178932,0.9998482936656937,0.022239948409809925,0.055354886499084606
2.183238784895251,0.9997163021470608,0.030031432910592043,0.033807441308538716
2.2160240310180757,0.999766594796797,0.027647771920182147,0.03926984177400905
2.224776049315948,0.9998370687689334,0.023189741931992913,0.059957092220943885
2.2565641103400216,0.9994732511174891,0.04230342051128958,0.10068639737521076
2.2427339468708167,0.999858310712025,0.02179951297623214,0.058933716319733154
2.2633978963679544,0.999211143704912,0.05193633404076018,0.049480929763034455
2.157936246197087,0.9999657766945618,0.010307779136134535,0.03389433305578474
2.2587474467752586,0.9994644142491383,0.04269834659498202,0.07313170790788102
2.157852235659794,0.9999939527027025,0.0043327008280262804,0.017439101046605527
2.2136858468062544,0.9997455575434696,0.02883686460443653,0.09462343771877338
2.2408628504066854,0.9995673297073595,0.03807055002072834,0.08997681544949664
2.119099368816933,0.9999604541171309,0.010881010055859215,0.03415703869557659
2.2355161973772355,0.9997548176167536,0.02858621757607217,0.02744370998649468
2.276060454870164,0.999246874291228,0.05102903044598823,0.044488553179077794
2.239023632472841,0.9996171901343938,0.03577909290308277,0.060194383199460647
2.2110254942765653,0.999784284250869,0.026519132880600916,0.03359720265937602
2.1467985741079327,0.9998921977033194,0.018200980777617455,0.03213377968559235
2.2131677162392576,0.9998771675777923,0.020029274424093635,0.04384183761976327
2.2146665570295223,0.9997986393063343,0.025663486826855417,0.03632963594353062
2.231822348869074,0.999842511588252,0.022871233945281268,0.06143156455414807
2.1347308034496835,0.9998975870317727,0.017640395753468062,0.03667489596142278
2.203901193838749,0.9995173413911881,0.03954793168367348,0.0568981457139802
2.1923665558535674,0.9999500614432278,0.012650328371332377,0.05655054262240332
2.1721736968678713,0.999941223103968,0.013597885823028745,0.06843409362750481
2.2143213361185876,0.9997935898491102,0.025979320099616718,0.0449749687553067
2.2396702868807723,0.999591470241493,0.03697289061154604,0.03433949894497323
2.222316560350841,0.9999330508730847,0.014847541898536168,0.05198312109165549
2.166778719621571,0.9999369819761719,0.014045003416899465,0.026483216783631885
2.1827898901117733,0.9999677851995471,0.010115899827493693,0.04387335691969332
2.2525571611841384,0.9996931221507703,0.03222648480922336,0.07751431928712084
2.2204119018536748,0.999626314376641,0.035056039992134434,0.029050819882133313
2.221964102713742,0.99984453011627,0.022623781101716218,0.03938261874059528
2.261478277338,0.9996999556276882,0.031991697269317526,0.04290530076943173
2.160255357226313,0.9999305120188511,0.014704049057495174,0.03366824994939976
2.180522751545996,0.9997751711014898,0.02670018683653143,0.039741459734189175
2.140282319924021,0.9999709565958425,0.009417999299754586,0.04685671499140819
2.208493878864004,0.9998275685871401,0.023681812260006395,0.03267231775570027
2.169269163919721,0.9999613405818771,0.011013061444435635,0.043034892884749536
2.2186843798862808,0.9999653998871,0.010656140168138638,0.03637581698501745
2.228873743476787,0.9996936739391974,0.03185896085873541,0.07075964666241344
2.161743668629139,0.999854444804529,0.021297068926152175,0.041186454522718664
2.1719734041414345,0.9999334375834804,0.014469219177158085,0.057306237906478145
2.2230104939973305,0.9997963371338496,0.025907061382343825,0.03615911994399066
2.2246741756830666,0.9997743460916977,0.027290765879964964,0.03533047825138221
2.2380185930518683,0.9997891157739579,0.026540482050037097,0.060428793788413405
2.2510467456674874,0.9997863302285772,0.026870765092470907,0.07388674072195309
2.1445798771694013,0.9999689769846889,0.009753235387413042,0.034281230514756456
2.1537048439386086,0.9999387967904226,0.013757755596625221,0.0293513087889227
2.207508265690806,0.999452611782336,0.04218740227577913,0.027676947976272865
2.2001844598357683,0.9999199863164833,0.016070213949255382,0.04847083243397939
2.245109506205059,0.9996917092562668,0.032193824835171796,0.05871858798676618
2.267437622479253,0.9991721602078163,0.05330066688589879,0.05670265742559616
2.193610096498998,0.9998297028810234,0.023376147130896096,0.039394351018720276
2.2026597407146786,0.999863318956609,0.021028120189308188,0.04532322661790702
2.2279742190898344,0.9998788050887466,0.020028397518888564,0.0584963276574148
2.2358957583263224,0.9999544446092586,0.012322267976118366,0.05370693266652227
2.188026343991087,0.9998581508484157,0.02127974872560331,0.046860184294382136
2.263595520671201,0.9994584850523398,0.043026385037919085,0.03726426345285021
2.264876743371514,0.9996941945580216,0.03234604397036563,0.07994904674466667
2.1573576789811186,0.9999137457393449,0.01636043700773504,0.03889617191893818
2.25334961547489,0.9997624163782635,0.028364073082677858,0.06264244330055972
2.230541627520901,0.9998872703720069,0.01933839651966104,0.049532076130288205
2.2071668727313454,0.9998495184808384,0.022109562168690974,0.032909588304288195
2.199597017741114,0.9997823307577982,0.02650128506797109,0.05553989801137139
2.2301642008037525,0.9997404465657868,0.02934196232463672,0.07188171617178377
2.16579104865041,0.9999489281376774,0.012638001653389883,0.026239580726741273
2.1849846019745742,0.9997990897356294,0.02529118987756705,0.03611131462298913
2.2006716497777403,0.9999287381043767,0.01516915946903946,0.05392204536084671
2.1978125025037785,0.9998862936636767,0.01913702315401056,0.03467496950807055
