slope,corelation,std_error,fit_error
2.4994137614383587,0.9999222200638542,0.01799913581345194,0.11725251575672095
2.5426529556222315,0.9998706047953915,0.023617977197317654,0.18151567345313707
2.574023406790301,0.9998313535278625,0.027296717788759355,0.17748335874217602
2.528392027496482,0.9999065712693932,0.01995581366801664,0.14218697790211193
2.5483727143723405,0.9998783055300365,0.02295579722591604,0.16547692852792265
2.550086136975688,0.9998886261486999,0.02197541669309832,0.15909769716917974
2.5492722948310402,0.9999001440348986,0.02080128337450097,0.1610533883780055
2.4934434678782793,0.999970928565529,0.010977326883657141,0.15715760720976976
2.529265392205583,0.9999406384131163,0.01591185670910568,0.17091379990965277
2.4958930885014237,0.9999291706238452,0.017151816779621732,0.14949269245002836
2.5538748669499443,0.9998370958828726,0.026617856611449678,0.1528885159196301
2.540065627457452,0.9998664362800721,0.023971050622669514,0.17483005133083318
2.568383234078894,0.9996545156016767,0.03898889895047146,0.152528869288624
2.5337292940258305,0.9998656389403753,0.023982533556335454,0.1679031336381481
2.541774482543348,0.9998687636568769,0.023777226548025034,0.17086081691866659
2.5473135075405944,0.9998350875925127,0.026712661170010383,0.1738717097496077
2.491747866341252,0.9999700873639243,0.011127447463369172,0.16631155792550922
2.571279879521499,0.9996226317327731,0.040795227046166824,0.15730361634686593
2.5470870955086586,0.9998443323508335,0.025950639122357268,0.17802054941364012
2.517005284948181,0.9999498475397339,0.014554622822568372,0.1457793409463211
2.558536130747223,0.9997868511271201,0.030504006209845336,0.15545173078677546
2.5621283584349515,0.999765876177128,0.032015060489429925,0.17887717091239166
2.535651932006493,0.9998911191134383,0.021605051186991756,0.1588165597413586
2.558637559367141,0.9998653057033589,0.02424831811069265,0.16620588927353525
2.572018647679735,0.9998175365710215,0.02837107801720157,0.16911954385942995
2.5657180553223036,0.9997678460309872,0.03192471177181162,0.17202158861415526
2.50745320215891,0.9999007148246531,0.020401483643742703,0.14742338360540438
2.5704782884325326,0.9998178006146711,0.028333558126226576,0.15826279345189262
2.545101860004937,0.9999045320543534,0.020305768239308793,0.16611183830953322
2.5807181609796173,0.9997580110995123,0.03278472186548382,0.17280343988420221
2.505358738676341,0.9999539514414466,0.01388184882487575,0.14202406251867078
2.51796140056171,0.9998757534738374,0.022918492026315667,0.14139281982209234
2.5189407135991133,0.9999117230751796,0.01932522991432605,0.1622636160196576
2.563482044949778,0.9997964749409031,0.029864819576998613,0.15096891829320125
2.5482334408564316,0.999868717978066,0.023841796358927657,0.17226039205370564
2.5719751204471883,0.9998429793450392,0.026317866254137498,0.1771197048796422
2.5264404563848637,0.999929364374299,0.017337973880692137,0.16055924871318417
2.543313949928946,0.9998883293761622,0.02194624336233908,0.1524781316249534
2.543191814629978,0.9998930368116479,0.02147758763865624,0.1569954020499857
2.549989875835147,0.999868032466018,0.023920451084318183,0.1561611260123564
2.545881925786079,0.9998439473598115,0.02597042297226501,0.1698518404957081
2.5414620148295213,0.9998351900633374,0.026643015469916397,0.1745367137857338
2.547079238689418,0.9998519529143498,0.0253072516636595,0.1622499049512011
2.5789671775018954,0.9997434292759475,0.03373551296664887,0.17252938470525742
2.5174262638794636,0.999894186370797,0.021145424208639133,0.15435246199269564
2.5318906644986843,0.999886544981542,0.02202156250723767,0.1517285342197876
2.5363251344233846,0.9999109238739242,0.019546498569708862,0.16040982718208757
2.5731719828537916,0.9996737293604123,0.03795932447277023,0.15953205587131328
2.5074831073387034,0.9999508943107793,0.014347435699333323,0.15458025738311698
2.5204809440041274,0.999897497581439,0.020837145982167186,0.14627349944658308
2.5476337516832754,0.9998534890908727,0.025181063704054,0.17531375441485048
2.532602683693763,0.9998981499763258,0.02087061164947764,0.1390631400079568
2.5838248112367013,0.9997265122038069,0.03489598852537281,0.16448278496010219
2.547441913548941,0.9998117800119734,0.028539926161356647,0.1665600463613228
2.533667628413948,0.999904135376191,0.0202565008311245,0.18170291900528665
2.5861751137540834,0.999721292011662,0.03525963423407865,0.1680233134296353
2.5053707329296744,0.999942841259511,0.015466295867423364,0.1294975773096247
2.5401360263788697,0.9998164393125003,0.028103536764854973,0.148230754504843
2.54056311063203,0.9998838851911884,0.022354552864549848,0.16423171827227306
2.4722765705649152,0.9999364763939175,0.016089394015660185,0.15346905670433955
2.5307797121295623,0.9999012950971459,0.02053100598404148,0.15939228239342004
2.5717157094642507,0.9996870452201377,0.03715524054552476,0.16170745985610188
2.5166261698188133,0.9999120572107537,0.01927089313555757,0.15573206959086222
2.521693230371554,0.9999311466334513,0.017085655317977493,0.15156525765561876
2.553513821539976,0.9998257561194989,0.02752504966559944,0.1484102680576437
2.507245556145288,0.9999532055429382,0.01400437364243835,0.16581952078017678
2.5259759864083033,0.9999418685629946,0.015725629982972177,0.1747745585601023
2.5154005049891097,0.9999339699061441,0.016689909422765343,0.16359657978342354
2.583305358688261,0.9996835758175938,0.037529089980130846,0.15912986826801326
2.5106728499799056,0.999953578930875,0.013967451970747983,0.16239692464743152
2.5594543567080454,0.9997460814713806,0.03330670532967369,0.1637019271336136
2.526641010291822,0.9999074274144554,0.019850400009139218,0.15690075215313784
2.5286183094979986,0.9998733404314254,0.02323795517788258,0.17085926160216386
2.5078811397709972,0.9999490618221337,0.014615026756016074,0.15873237514308178
2.535266618759876,0.9998969810674116,0.02101213047864053,0.16735583784102323
2.538185017095966,0.9998854799974124,0.02217969783479297,0.1623008971854647
2.546433077438869,0.9998445750767869,0.025923736470463574,0.17613894982288178
2.5613431020454955,0.9998403600435294,0.026426821517143588,0.1567889416129909
2.5533328256385466,0.9997944867542596,0.029891565180667067,0.16058379524001393
2.524472414953152,0.9999218510519248,0.018222670574348437,0.1529640630632434
2.5375296025023615,0.9998740663335248,0.023252916600177462,0.16761012080573107
2.525378449212892,0.9999306561560098,0.0171714664007731,0.17518264053344818
2.531862453321503,0.9999187101516056,0.018639708432035176,0.1544977797750406
2.521400675081767,0.999935794486421,0.0164969368231627,0.14191606416346284
2.4889182891241823,0.9999440758388762,0.015197878383929914,0.1454500676352682
2.545049564870725,0.9998175006916602,0.028076351875473988,0.1450433988321209
2.54974225516754,0.9997806568712859,0.03083785219312835,0.15733297281973307
2.552876622136077,0.999772270664954,0.03146066308516479,0.16854926578423246
2.580241116090081,0.9996941619091179,0.03685191701650733,0.16863630708415142
2.5205543053987354,0.9999360802208336,0.01645465886294962,0.16883515221583206
2.5978657976380357,0.9994533332793165,0.049614716986040745,0.1809333212320037
2.570153788682901,0.9998336017220527,0.027073356345140312,0.18396500164364005
2.548773860128703,0.9998229974825333,0.027690643978550786,0.1676495541918564
2.517022036120412,0.9999480782201724,0.014809250739745098,0.15130652360250707
2.535690621230424,0.9999071279234262,0.01995370121918404,0.15291945455080133
2.5747905501631765,0.9996810239207454,0.03755599315929314,0.15328196592569235
2.5392773046622663,0.9998569228759495,0.024802542907747326,0.15220083044982857
2.5570608175230847,0.9997830047791607,0.030760344939331587,0.18600961060339394
2.557867206965173,0.9998012743001248,0.029445851582852105,0.16995236245228698
2.5469651829302706,0.9998441162351233,0.025967407962059236,0.17976216830833855
