slope,corelation,std_error,fit_error
2.2197069269344567,0.9999538181940806,0.01231687422161938,0.000491354160451365
2.24704213060908,0.9999521889192861,0.01268660562066255,0.0005459502716693839
2.2669824964982674,0.9999854042160168,0.0070716540279026786,0.001512949978144998
2.3005270035940084,0.9999985090799196,0.0022935561324024835,0.0002579211690728238
2.318852611729611,0.9999961716044302,0.00370456453990391,6.773326404486011e-05
2.2364263972565532,0.9999871789587939,0.006538449959457739,0.0008585495614642529
2.2734188792853516,0.9999931120267611,0.004871714193344479,0.00035707800232048575
2.2677581544070486,0.9999935299593793,0.004709846127720507,0.00015952194349659246
2.2169339380714512,0.9999300931067596,0.015135260296049903,0.0020158785423797397
2.229387260416174,0.9999468737030761,0.013268198586775413,0.0005582343889046302
2.24642534900519,0.9999182057864777,0.01658953814549318,0.0004772254456367437
2.2358423904487377,0.9999933052140507,0.004723523550540791,0.00019075344471139837
2.273271292897099,0.9999896168151141,0.005981007042625166,0.00019661089741590965
2.261946415935001,0.9999695853039674,0.010185640179664508,0.0001836145549367167
2.256139406060976,0.9999971458470505,0.003112145208992263,0.0009054827120254162
2.246141177850807,0.9999920066412261,0.005185118390114923,0.0007162821702951167
2.232497767798847,0.9999589479978529,0.011679545612794716,0.0006215783691793375
2.210664514248179,0.9999800945170753,0.008053229084931644,0.0003461167781170716
2.275617606363018,0.9999714600974738,0.009926341095971958,0.00012447167860819098
2.2700241676391104,0.999991859195266,0.005288361951678247,0.00022851418674905364
2.281244131452945,0.9999779700647228,0.008742586165825001,0.00022269451233091248
2.2605149826383655,0.9999926739915487,0.004995717299066983,0.0002081564934818142
2.1933421766570453,0.9999134735916085,0.016659550672430797,0.0005800250343278118
2.2861290727233756,0.9999965920969275,0.0034458775778847574,0.00013651245683765704
2.2748471978060087,0.9999936911504407,0.004665344744557368,0.00014535784378659491
2.277332798313587,0.9999908616526378,0.005621052985382847,0.00021358929855645224
2.2911218757239142,0.9999931932133491,0.004880629592526234,0.0011178565321227714
2.2539381347129313,0.9999944678053474,0.004328594369709489,0.0001617388230192868
2.267536347057877,0.9999909313029105,0.005575502688303195,0.0001484453686912545
2.1911074215125703,0.9999032183503025,0.017601353944675425,0.0008128568824346101
2.2640097951852174,0.9999952828860664,0.004014878355905942,0.00027445966452393974
2.2686005553907824,0.9999971166804754,0.003145283018054563,0.00012391493734703078
2.2075424004963566,0.9999551691279227,0.012068870314575158,0.0006726093570014181
2.2827154104711647,0.9999968494202031,0.0033082811415397965,0.0001296021642579756
2.257456899995577,0.9999662212859297,0.010712883859338749,0.00014069964123269692
2.2558150030025983,0.9999627263380814,0.011245299409677657,0.00031559721773229057
2.252655281665032,0.9999972237529992,0.0030646371632363674,0.0003780222909553858
2.224918941892259,0.9999469707085162,0.013229509712668432,0.0004625999382972475
2.24582847573387,0.9999849782946276,0.0071071497681230965,0.00011925110435364214
2.2836666354991273,0.9999966482989552,0.003413664269500892,0.00017006804124963682
2.2574408286485124,0.9999645644342724,0.010972408645804574,0.00025597908739610986
2.169655175787423,0.9999292394551591,0.014902657501547251,0.0003219022082196673
2.21717019596865,0.9999462527582189,0.013272385902652058,0.0006482371698232516
2.293269066573712,0.9999009543783747,0.018636282604614352,0.0004538360530936256
2.301963186640706,0.9999766124808618,0.009089760498560327,0.000525281720273229
2.3136874983721385,0.9999983949300362,0.0023933520018043974,7.727016342201883e-05
2.279452587598836,0.9999962600984822,0.003599284988154,0.00014113272883916657
2.2599258457287066,0.9999868111291638,0.006701263003035263,0.00019236528795239484
2.233798497728987,0.9999647688614397,0.010826128558966943,0.0008128658790113259
2.254321596459664,0.9999923740783063,0.005082985803306901,0.0004755314062064806
2.2849089048456017,0.9999964489780283,0.0035156132860876396,0.00022366648017029263
2.276945072994036,0.9999812480902995,0.00805073968263242,0.00019273205082705994
2.2510494056922994,0.9999665982202407,0.010622704030030187,0.0002582161744693704
2.2365641979492388,0.9999820220306856,0.007743047301678205,0.0001817204918021864
2.218052976425259,0.9999536625374175,0.012328422313583243,0.001049294586543825
2.2768821476702326,0.9999876655948995,0.006529171014736016,0.00020103147882217235
2.2750783752573085,0.9999859569632292,0.006961227442603299,0.0003689482399566684
2.245501943557351,0.9999276481235583,0.015596109395105856,0.0006169672372820957
2.270191111958924,0.999985361393566,0.00709204405959107,0.00053642473960055
2.258684192429827,0.9999138041288639,0.017123052636522,0.0002136046136128398
2.2474116941802924,0.9999190750542347,0.01650838449805614,0.0007343604134863935
2.224400362075543,0.9999011799213948,0.01805602364065819,0.000714823261592937
2.2574297385618642,0.9999687728663355,0.010300180731106398,0.0002751897020112358
2.2376190020163853,0.9999651803658232,0.010781121877065784,0.00030924781321076084
2.2790740948057366,0.9999862241284704,0.006906799427292545,0.00017526425307796517
2.263872928494052,0.9999902475603737,0.005772530396588292,0.00017369335561947047
2.2611582452171,0.9999800487935415,0.008246628063477505,0.00018428984765643552
2.262543109779464,0.9999853787003347,0.0070639722565683655,0.0008671435962870624
2.2565329889389223,0.9999565120121622,0.012150520417792467,0.00038044231043064873
2.2930087059384476,0.999988832329271,0.006256695394280482,0.0005508755280302308
2.250263817617701,0.9999919530285534,0.005212027024152979,0.0005613212228171299
2.2319434124939974,0.9999750695925907,0.009099349752143156,0.00048652382569751046
2.2698404114901725,0.9999672699421622,0.010603121591056135,0.0005907386797931359
2.2589153403443976,0.9999708192272797,0.009963506860235687,0.0005652616089317524
2.2243960852988924,0.9999738902786465,0.00928060130308839,0.0004155430132262301
2.221999033635481,0.9999487506317574,0.012988505654437493,0.0010017769614700613
2.2311298157597896,0.9999467853364824,0.01328960902280641,0.0004317510762873007
2.2091791232211535,0.9998693712015502,0.02061803719653306,0.0009541317879860101
2.287734935577471,0.9999709103115596,0.010074861508469122,0.0001584745190890149
2.22396359299881,0.99998190353173,0.007724757437810258,0.0014282073140192424
2.2170767549199804,0.9999674281013122,0.01033159197469583,0.000326734353920026
2.244385182422946,0.9999910093068068,0.005494792294687681,0.0003984874470608445
2.2350597683827127,0.9999767888367974,0.008792239804203163,0.0007036264186218211
2.2863092284115067,0.999996548595714,0.0034680742026891986,0.0001336425232773378
2.254191508730057,0.9999943650583504,0.004369097405193316,0.0002233127664892111
2.2668567867629608,0.9999669436222852,0.010641843124608306,0.00018611680785813974
2.2980570786304595,0.9999804407607306,0.00829846052681608,0.0001603845821525959
2.2320097311206646,0.9999556897772185,0.012131565687899649,0.0006141276188577511
2.1925665657924367,0.999952310878457,0.01236324150411242,0.0007983752616186115
2.2747670215688727,0.9999943061542953,0.004431961668973033,0.00023236030155254862
2.231173569215912,0.9999782706537502,0.008492159353208744,0.000658677521129958
2.2148839075410285,0.9999736498249057,0.00928337029323536,0.00035673338339158267
2.2373085237644523,0.9999777263530092,0.008621506678674992,0.0002756755993647216
2.270684646527849,0.9999904441950055,0.005731231428275299,0.00020465872409544653
2.2492487373941206,0.9999805977217898,0.008089553274950827,0.0002505813606072707
2.2249404314964027,0.9999857999847724,0.006845761881916624,0.0004571677823068514
2.2710274965531,0.9999892630497533,0.00607604148719653,0.00021740647804436322
2.233867805135136,0.9999832826453218,0.007457633957033967,0.0002675312628660328
2.252795631445757,0.9999518232814255,0.012767635226336413,0.00035861997718208933
2.255736760278049,0.9999873574888787,0.006548827901368383,0.0010642489748990405
