slope,corelation,std_error,fit_error
2.601231687656564,0.9999713295642253,0.011372603345496272,0.00019571640518748886
2.592235566192096,0.999956106823766,0.014023022701499946,0.00018967495438582533
2.6105984162594957,0.9999913194267623,0.006280171026138895,0.00010501399264736608
2.601790697900299,0.999991436928625,0.006216476529251514,0.0001478345593524858
2.5779781231040584,0.9999409503851766,0.01617563605633192,0.0003043051951085442
2.611375134603022,0.9999845485338522,0.008381341090043211,0.00013529014697855957
2.598033808404556,0.9999595242668571,0.013496144354838447,0.00021239119403726575
2.5809962986708497,0.9999500447341059,0.014895279662380764,0.0003131560713659455
2.605236588627589,0.9999848654385517,0.00827544562723634,0.00029861774223487127
2.592395035544175,0.999942239016431,0.016087614692724513,0.00025277895833497165
2.6021211217689073,0.999970739274058,0.011493014580482911,0.00019967339704882663
2.57735589546575,0.9999704125032584,0.011447021853174314,0.00023835212959709583
2.59855346136946,0.9999592161032357,0.013550136512000741,0.0001636113434648296
2.6112649136412354,0.9999859501974226,0.007991807070147844,0.00011462454196172137
2.598572748488414,0.9999616465337571,0.013140262856856506,0.00018836756694444006
2.5980175318486043,0.9999808902902697,0.009273201943718591,0.0001685495453683888
2.604798463016692,0.9999843685597912,0.008408781853042387,0.00021296159894822466
2.6054216973727855,0.9999759487369358,0.010432999206782069,0.0003889337849923508
2.6130086087188875,0.9999922163193106,0.0059523745629974124,8.363267813081264e-05
2.5835304632627616,0.9999788484538076,0.009701656793418804,0.0005305590904380019
2.613437309249195,0.9999902920917698,0.0066486343716216124,0.00011608940855186984
2.5920972703088725,0.99997723486164,0.010098299044172174,0.0002514286487793743
2.5817129620309744,0.9999721207423694,0.011130431707132828,0.0004845748524507199
2.5972199392192716,0.9999795992278617,0.00957840169664072,0.00030957414094456886
2.6220338134848626,0.999984324008033,0.008476474905887616,0.0001492482652355408
2.610416927526929,0.9999842930264329,0.008447255301401441,0.00020168793127286482
2.587644225483849,0.9999263805448577,0.01812922401608769,0.00028409477879533674
2.5955916111582313,0.9999795780725863,0.009577358591145241,0.0002927936662675117
2.5964496774564285,0.9999648096433541,0.012576435763965577,0.00018107873004573254
2.5862130680413125,0.9999787209418067,0.009740961000369227,0.00032625251524406564
2.6125633854553927,0.9999859309046879,0.008001269064975046,0.0001341566350798363
2.5906465354203343,0.9999556707790871,0.014083870449025936,0.00041334371544851314
2.5989297436430725,0.9999309806628824,0.017630181520336213,0.00030449224712215337
2.5876819914745974,0.9999530735824198,0.014474023042889674,0.0002227469637801481
2.616963947451409,0.9999937854627798,0.005326703594317049,0.00012015135416432957
2.616130244499705,0.9999926303309921,0.00579882662159021,0.0001370019271483741
2.6085495307541815,0.9999639148868432,0.012794674671192238,0.00015268322601757028
2.604118939807296,0.9999751796766457,0.010593195535747153,0.00022712622193284015
2.6157397999137832,0.9999919131172736,0.006073543097797028,0.00012296883816802632
2.61223880582443,0.999981456722923,0.009184732898251955,0.00011632874973702525
2.604961364940792,0.9999606749435503,0.013338381770866325,0.00016459976510771555
2.618324241325141,0.9999836281456286,0.008650317862280264,0.00010415741668707556
2.588656796601777,0.9999515595624563,0.014711218747385712,0.0002842224798512593
2.604166576248476,0.9999557551867971,0.014143885301185878,0.00025352366942056474
2.6108237163125394,0.9999913977377658,0.006252318024552309,9.260828570537387e-05
2.6273468786580407,0.9999955226239595,0.0045392596878824,0.0004138054836233731
2.5644554975730793,0.999891230333902,0.0218393076302527,0.0004884744005591594
2.6226917756762975,0.9999965515622337,0.0039766186449990675,0.0002489975107312953
2.6049603876567202,0.9999806844290712,0.00934793234112403,0.0001533195389485257
2.597041835884532,0.9999851583496113,0.008169194740245692,0.00035164538969487325
2.5925669119482455,0.9999656412667067,0.012408352089344429,0.00036209276181315114
2.6134806623876927,0.9999910578483588,0.006381129954946879,0.00011567380462244501
2.5949622683928837,0.9999866326442095,0.007746624869458253,0.00013648197240464943
2.585765794316833,0.9999727810812191,0.01101508511483869,0.00033281904149535293
2.6130255721144007,0.9999645576522487,0.012701962205708576,0.0001649180719420985
2.5669025735028024,0.9998687731504747,0.02401142051633799,0.00048522718912515143
2.6334483191605824,0.9999786962295487,0.009924630494422444,0.00028933206742049025
2.59491559414887,0.9999501276486858,0.014963175629304042,0.0002119466483974696
2.584063349412032,0.9999255785187671,0.01820249512258653,0.00029585438294478967
2.5792424104905343,0.999967404331266,0.01202367134640344,0.0008201176709748594
2.605004459151935,0.9999504643345639,0.014970557632437367,0.000216273355580087
2.605125831711417,0.9999846741561972,0.008327224345406725,0.00017261507344089997
2.6036134380424363,0.9999910100631236,0.006374000955664651,0.00012939084613958703
2.5628108175347672,0.9999123312158095,0.019593948751414705,0.0005388428814704271
2.61710485203923,0.9999823955464671,0.008965871321004387,0.0001323359485659257
2.578961674003317,0.9999204998352882,0.01877626339213336,0.00041218855659978744
2.5585227376602897,0.9999076642327052,0.02007514588317041,0.0007161749241596166
2.599265140788019,0.9999638719465584,0.012756719381199365,0.00021850512901240232
2.5984786287552457,0.9999860722276245,0.007918061791127933,0.00014901349785534636
2.5881276216552553,0.9999368767553206,0.016790177091455853,0.0002480916277518695
2.5799163368986866,0.99994110391139,0.016166738150642943,0.0003608382976731444
2.5858213043566423,0.9999580639205504,0.013672894182251266,0.0011658384938935955
2.58983897213009,0.9999565435416663,0.013940182254391155,0.0004111960354326362
2.5869271318635625,0.9999647154769711,0.012547066070361252,0.00022953878287151943
2.5737753019483516,0.9999184298651291,0.01898091568815165,0.0006855048127103287
2.60563951301712,0.9999653050477677,0.012531791192234892,0.0004249355697269592
2.577966034735185,0.9999535486756729,0.014346492720342153,0.0003473992856197548
2.606006426898556,0.99998942845668,0.006918349425734846,0.00016745773551940879
2.60129143838129,0.9999446900762191,0.01579657479636636,0.0001978233129084988
2.584514488485505,0.9999356149070716,0.016933509563507438,0.0004708023283876677
2.5973147498578237,0.9999646981951511,0.012600532707166419,0.00022963553583835365
2.605006808810066,0.9999628043162584,0.012972438550075056,0.00016299888112029237
2.6055240244124644,0.9999724320409354,0.011170194612043773,0.00015695582511306136
2.5989412795546305,0.9999876489170829,0.007457742419363774,0.00025129131363255244
2.5938090228933337,0.9999724185374512,0.011122694193562795,0.00018072051974061333
2.6093713422152534,0.9999884397251785,0.007243994361879032,0.00011127382019883035
2.573073812558385,0.9999456826530964,0.015484371509144446,0.00036756882543916177
2.6115515215643965,0.9999892958789178,0.006976409450866412,0.00043901273836094445
2.5863639489929793,0.9999645901154048,0.012566600192693895,0.0002048226687904044
2.616028006511211,0.9999947860237435,0.004877339450792413,0.0003261944036294805
2.6035196775200817,0.9999744538086457,0.010744510544818594,0.00012937414411410357
2.5813897016750826,0.9999271085877265,0.017995746602538384,0.00037848402734201424
2.6100849884923583,0.9999802317106251,0.009475453468960525,0.00011134457472551231
2.582367268189887,0.9999631210676584,0.0128048224537346,0.00020596829056807343
2.583320438050851,0.9999699945933399,0.011554261235558328,0.00024200806161099708
2.5950394776906585,0.999959525463661,0.013480390232365384,0.0001956701865460663
2.580503213759907,0.9999571715429842,0.013789195830529349,0.0003334381443596303
2.60327531631146,0.9999468020107559,0.015503844643403236,0.00023733873546355111
2.583310023510651,0.9999387516664333,0.016508134118743505,0.00029882464175754863
2.6087988090775256,0.9999821625743217,0.008996360631197704,0.0001986492962885665
