slope,corelation,std_error,fit_error
2.2765971750201683,0.9999188290134429,0.01674817212673637,0.001546528755764142
2.2443082997038935,0.9998117764884203,0.02514404451219146,0.001858824501989964
2.3293050212301685,0.9998324282077947,0.024622705888278154,0.00752911521415979
2.358409884090745,0.9998573202073429,0.023003894607635793,0.0003867963621929195
2.295690367523704,0.9999905768743034,0.005753978620774986,0.0007960598542573227
2.3002007585059294,0.9997836212150629,0.027631085049595838,0.0018884249769559292
2.277841306664137,0.9998776001349122,0.020578237502826297,0.0024745471125346983
2.3372208074209544,0.9999666222193373,0.011025383757165297,0.00030291273850225226
2.290582516117444,0.9999549953759931,0.012547105223245585,0.01057764844782357
2.2363900617532906,0.9999217832549732,0.016150176448067058,0.00127740401412569
2.2933173443154624,0.999970234541834,0.010216085228626558,0.0006819932755956435
2.301894812330666,0.9999524834357943,0.0129562057876555,0.0023888468940681563
2.3185384301613463,0.9995056504572527,0.04210627320800577,0.003808094038198194
2.244489269867046,0.9997641738857939,0.028147814195026676,0.0018605032950061073
2.305276460910988,0.9999699966726259,0.01031031346703193,0.0020017874559041505
2.3212157365547017,0.9999646816386826,0.011263715005493167,0.006546704179461836
2.2781745476739554,0.99988682591648,0.01979027024403726,0.0018025055995245203
2.222287045097871,0.9998876236663842,0.019236610878264174,0.002740219633107385
2.329763273188388,0.9999884086366264,0.006476452744312057,0.00045799727957537666
2.3065838367693865,0.9998598940925143,0.022294486699617425,0.002469192782586457
2.2993894694532657,0.9999743856779846,0.009502036280907742,0.0011724394909877805
2.2201781517085593,0.9998754664251805,0.020231402418937956,0.002747082763150714
2.25210677704399,0.9997974034807283,0.0261773292518383,0.0035900121149980944
2.2847019243594135,0.9999206490874982,0.016618266836176905,0.003683960032075072
2.297389738516776,0.9999104985023847,0.01774734339559325,0.0006512467579606211
2.270042458641287,0.9999469664057186,0.013498364655769406,0.004237433731424703
2.300416470789013,0.9999796643991546,0.008470244897489553,0.0013979882001965826
2.2914709623843916,0.9999760978535619,0.009147343029477648,0.0007578194418157522
2.2924631159692823,0.9999878242419075,0.006531436348123022,0.0026770989706671774
2.3429250977893,0.9999007456104342,0.019059871465640085,0.0004176732664936985
2.2875313997645867,0.9999848232200693,0.007276393820998414,0.0006431092803709111
2.2435904846382053,0.9999148915793714,0.016900982362629265,0.0012052678426031833
2.267804457479232,0.9998753714157204,0.020673280770940057,0.0018438935214089044
2.337874562450703,0.9998078613942813,0.026463390418277187,0.0004204483602091295
2.2439632279041986,0.9999203629776974,0.016351347693368757,0.002267500928069919
2.2965679087286013,0.9999912827349609,0.005536389381089973,0.0011483022425943887
2.29949782470516,0.9999650545059551,0.011099268274390315,0.00559339266178055
2.3011296904626497,0.999921110158966,0.016689053395561326,0.0028611511595433123
2.3069385632958346,0.9999644228355077,0.0112353771047311,0.0017105647386066178
2.3307657482641755,0.9999928633410161,0.00508396784252208,0.0012600569326427513
2.314950681124702,0.9998590869868405,0.022439726862601206,0.0023789133178023377
2.2555067097862382,0.999882790583311,0.019939668156265935,0.0014198324964088283
2.252635933717404,0.9999422898758912,0.013973016769702189,0.0014680407903712785
2.284826226625516,0.9999439569339401,0.013966472938859774,0.0025075970942490702
2.286056332276077,0.9999790687577035,0.008539759080520196,0.0028241190132013744
2.2800218752416463,0.9999926761553237,0.0050380831669473635,0.0012975362173428902
2.2673955866988265,0.9999586881549182,0.011899601558898527,0.001241416213630523
2.3003440227572605,0.9999843189471427,0.00743772091505589,0.0007847630606235644
2.2642969659717203,0.9997985551183329,0.026244088659267875,0.001711330619036769
2.219188492372859,0.9998724536006655,0.020465587259227265,0.011136113698363457
2.312372588596311,0.9999673741082292,0.01078459910389402,0.0006184228573427351
2.269874974973402,0.9999538404269728,0.01259221801866769,0.001349999675441233
2.2835846676137006,0.9999896100490742,0.006010098936288028,0.0013135221615430063
2.2667772641516075,0.9999542419026818,0.012520224090049204,0.0034985016418713683
2.330673870038451,0.9997714437990706,0.02877443715868311,0.001222534576633348
2.247614586566573,0.9999621060876542,0.011297264023824543,0.0019969856004370995
2.2901513913602245,0.9999800800032282,0.008345832865856178,0.003220223725629877
2.3108730617508977,0.9999829473490102,0.007791695405909218,0.0011772754081381931
2.2299483360806844,0.9998448197469332,0.02268391178611648,0.006647814446210053
2.3058211500045624,0.9999593538323178,0.012003365507044611,0.003845085044242618
2.2421348294813135,0.9999180483182191,0.016573785941655934,0.0015560699829677536
2.3436057342748415,0.9994583732438778,0.04455182022298068,0.0010603811955115317
2.2434533039828755,0.9998929897705926,0.018950423069496906,0.001485477148659013
2.2352366485959467,0.9997478779204082,0.028984476029719302,0.0020509009282225327
2.228004821265592,0.999836476414851,0.023265584350836758,0.00193309857463503
2.2643104484823207,0.9999396014862304,0.014368887377594338,0.002805130543863154
2.276817228629805,0.9999867582583502,0.006764869262711375,0.0011421380146124894
2.260388777318209,0.9999297036201611,0.015474865777764978,0.0017031423507605917
2.3185883894268913,0.9999619561736316,0.01167703319003818,0.0026517082248777905
2.286472793169163,0.9998486845608616,0.022967372850627256,0.0013597757604249601
2.3224259864534176,0.9998690014619398,0.021705617698380236,0.0007882217032627948
2.3215911973739907,0.9999742937384284,0.00961098619075887,0.0019668388532084473
2.366410623792832,0.9994544818839369,0.045146782936979005,0.0014254047783145327
2.3305572382450537,0.9998048176273897,0.02658875625509509,0.001658232662895801
2.271457259666723,0.9999683764122764,0.010429771895673377,0.0008711979591049108
2.2778150169638987,0.999912353265443,0.017412825276075714,0.004551107163378828
2.307744947338167,0.9999886292910152,0.0063538894631083274,0.0012910214249496042
2.342930744650096,0.9999042925462758,0.01871620866793383,0.008615967834914856
2.3210431357959984,0.999767276884808,0.028915663102243024,0.00047929755893005215
2.3190552662732977,0.9999879386172453,0.006576093016364986,0.001521144728849292
2.2694591456347997,0.9998521520176996,0.022533704866444605,0.002241311324050015
2.2443237081507306,0.9999568522937868,0.012037402394064553,0.0013041729306651469
2.26802497275042,0.9999436041033559,0.013907348112432955,0.001407291328828109
2.257619665944331,0.9999720385290511,0.009747522917413216,0.0010205987483875884
2.2449136788942416,0.9996659752221442,0.033508283306220986,0.0017771672992756193
2.2859363360563036,0.9999025703121701,0.018424507754579923,0.0010612901343631123
2.2277004645209058,0.9997167796201806,0.030617214890004525,0.003312041317232219
2.267137375931525,0.9999501650667211,0.013068188207859587,0.0017079195237150555
2.2591583655007805,0.9997366803203535,0.02993839314344694,0.004220105782275654
2.2663948311369224,0.9999477325242109,0.013378971543335139,0.0009192289708903813
2.2861637354333957,0.999829498468847,0.024377063298550213,0.0011256753367824327
2.212801148229707,0.9995683884314538,0.03754774996676014,0.002740282214713008
2.2515641926052794,0.999981827941828,0.007836942891955695,0.0038948380930955225
2.286603696273042,0.9999713244201179,0.009997944384327304,0.001989000601705953
2.2910536632226406,0.999985344741999,0.007161288004337808,0.0006744162510000738
2.287249682375387,0.9999771431864118,0.008928597277595974,0.0008853982682996079
2.295976170989476,0.999986541609239,0.006877374871088995,0.001065519107697115
2.2968249691409217,0.9999567265173014,0.012336935417550796,0.0024840034137367122
2.2153466548277736,0.9998724999633319,0.020426443240548875,0.001800720621485305
2.295143019416033,0.9999872558304391,0.006689968076997921,0.000730279116891633
