slope,corelation,std_error,fit_error
2.5729076266377784,0.9999858945648923,0.007889989094002509,0.0003981571516395026
2.582227782277418,0.9999839582189597,0.008444626332519984,0.000278871647317037
2.5420197138237244,0.9998720619332728,0.023478743530574567,0.0009009989941086219
2.5265839060471147,0.9998236976293656,0.027395208062369544,0.0012129705507110439
2.554080828576876,0.999970640727292,0.011299811980437635,0.00041258405335807996
2.592763777431818,0.9999904823117108,0.006531097390392204,0.0004939504616070604
2.6088739182167613,0.999993982421463,0.005225409194041044,0.0005260663876168295
2.560917092231898,0.9999731879819331,0.010827379878488178,0.00048666215777325655
2.5820650239693905,0.9999840825114874,0.008411317037419222,0.0002802106837277237
2.5918212056362875,0.9999499255521294,0.014975585285390726,0.0034002900395911665
2.5570139404819123,0.999954136838293,0.01413951134095914,0.0008319806038771465
2.59255778353878,0.9999545845438764,0.014265908974224752,0.0008775644631622981
2.5648136146635276,0.9999035691267959,0.020565991020781563,0.000830939588852068
2.589546859185423,0.999972592125402,0.01106941708151344,0.0003540123461542364
2.6138816477635842,0.9999908763397296,0.006446556814822729,0.0004904293731229209
2.5947788185565552,0.999983470327061,0.008613749326270747,0.00029539782166061724
2.5690140175219205,0.9999603491898537,0.013208691361871024,0.00044522758066673423
2.6284531449568562,0.9999374507681762,0.016974069445895357,0.0005053388133804316
2.5845111585128175,0.9999899076106524,0.006703985520388367,0.0003110010158200535
2.5592910068985755,0.9999237910938976,0.018243229808287548,0.0024081734934752073
2.5565753571719525,0.9999615637414491,0.012941840459013584,0.0004706368436370505
2.567422452231877,0.9999794760559642,0.009497051680316027,0.00037452400060438486
2.553863555553695,0.9999660492110635,0.012150329489099072,0.0005125121646770065
2.613516683527708,0.999980644953591,0.009388215720470858,0.00026955898275684214
2.586873449004993,0.9999613756714428,0.013127215241219691,0.00043892855802292886
2.616659528456184,0.9999976732354631,0.0032589564998698256,0.0013511723969451474
2.609303687447037,0.9999948659074249,0.00482739146720787,0.00027864363379056015
2.572710560903928,0.9999488665042469,0.015021548270386511,0.00041653430759204453
2.556421468388924,0.999969448434412,0.011537547792813442,0.0005243531258748056
2.570627611276924,0.999942328745768,0.01594013598800234,0.0007801710959814041
2.6086733575952024,0.9999839479374106,0.008533844478841512,0.00016644057337601665
2.5807401738579023,0.9999754669630992,0.01043715900997143,0.0007752007594392661
2.582522038522013,0.9999873263905131,0.0075067628391589595,0.0006024786205231348
2.5947705731550803,0.9999938506811948,0.005253743214035887,0.0006094652014151851
2.584564789690453,0.9999935470313547,0.005360726782254922,0.0008455292273965373
2.606273490786573,0.99999523145201,0.00464696058904245,0.0013408752038118897
2.572067959661226,0.9999754512467445,0.010405417887464956,0.0024628910547602576
2.612270871304502,0.9999866776406958,0.007785159036492746,0.0012035317926128973
2.5740656410333242,0.9999800191335602,0.009394802501701362,0.0006908443692738489
2.5870245369613265,0.9999853956022817,0.008072378203304455,0.0006908265101901567
2.6068511589655303,0.9999834502031285,0.008659091530353425,0.00014896037322986703
2.5731941387923847,0.9999801971857712,0.009349681805032777,0.0003938009873406368
2.6003077553502756,0.9999747371657008,0.01067157171426837,0.00021537515924678082
2.560607536148479,0.9999781184560878,0.009780104561480308,0.00138665991589589
2.5825696389627955,0.9999965309634151,0.003927461907457581,0.00027182728870782375
2.5827981370063084,0.9999911622736336,0.006269284650679806,0.0013529269563188017
2.591640759510315,0.9999301586080941,0.017685134408488304,0.0009088257923151653
2.5561400076796192,0.9999641097693748,0.012503708006012791,0.0005472851024626353
2.5611572033789094,0.9999853448920811,0.008005526337219173,0.00044460827575812676
2.5971731398591746,0.9999974298289597,0.003399672821036827,0.0010118136131505179
2.6102490843444794,0.9999989762681638,0.002156402172230902,0.0003683754850841003
2.5647821324027937,0.9999209108746895,0.01862468766448181,0.0005529033325938096
2.588036279723265,0.9999520772715246,0.014628881054165349,0.0003793573991210571
2.599358034389577,0.999988628358435,0.007157078138907797,0.0002647867084930817
2.5614108305072256,0.99992638929462,0.017944364371484868,0.000574894223153288
2.571539650227435,0.9999834313967084,0.008546650450216332,0.00180444630772646
2.5717236342743424,0.9999740068844997,0.010705730375802011,0.0003413068359681358
2.580609460177006,0.9999577285523271,0.013699792371282693,0.0003954277983589384
2.5733321787506767,0.9999310451683374,0.01744837688569258,0.0006113114890542129
2.606495274651296,0.9999975589141133,0.003325091780840702,0.0005413728773022022
2.583451277936568,0.9999873845465076,0.007492214257102637,0.0002742608087361357
2.5693205503235883,0.999958594735997,0.01349938324143265,0.0012290016794312935
2.6378298558643913,0.999960351594915,0.013562099473670314,0.00010044952057790062
2.631082738398954,0.9999744753704737,0.010853677511101596,0.00026440344053811176
2.5424623164212576,0.9999004518460336,0.020713711701910692,0.0007342885910389506
2.637829679683751,0.9999604778399275,0.013540488441813913,0.00039931070306814005
2.5749614937117222,0.9999790265271469,0.00962868801547554,0.00039161360722522265
2.613085467375403,0.9999590931855472,0.013646432773080225,0.0005283640152391293
2.565813247147774,0.9999841556211893,0.008339157626546306,0.0007122083439426156
2.5707639886991274,0.9999504479225033,0.014776230335509585,0.0004511809703370946
2.608328107857277,0.9999777809900019,0.01003890123105681,0.00018793098822039275
2.607004283176971,0.9999897686738042,0.006808719036657114,0.0009046572667905157
2.5848898864893615,0.9999863909394028,0.007786009415105365,0.0007185524030269311
2.5953088441652152,0.9999877742051025,0.007409449668209744,0.00025527623839959946
2.6236317041642936,0.9999417862238003,0.016345156712783956,0.0004367081861422987
2.5603629737452014,0.9999668665876154,0.012033716725019999,0.001248667093645616
2.6087186706196275,0.9999980178125158,0.002998849199785878,0.0006759402005273526
2.573342265831743,0.9999814956090723,0.009038478896743488,0.00034234470540779876
2.5499430273445487,0.9999557776189417,0.013845872034340092,0.0021377876578149374
2.567670934975982,0.999992568404093,0.00571527588941681,0.00039838048425207403
2.5944764437838903,0.9999898720910348,0.006741666980871189,0.00022206171506488552
2.5930620557645905,0.9999700644591132,0.0115843210795255,0.0002816840044012095
2.5512679263773137,0.9998656660546663,0.02414610492826902,0.0007613696083784139
2.6088209362498933,0.9999976628056043,0.0032564680455791683,0.00017407740174311972
2.5783572492705455,0.9999330003923604,0.017232782865381692,0.0003917466092460999
2.518451171176468,0.9999313915877166,0.01703330559212963,0.0012400167589395879
2.5629001992145666,0.9999697430305219,0.011510882860852518,0.000603679732123877
2.6056286659761354,0.9999858760307155,0.007995578227318527,0.0007944401616568733
2.625754402806579,0.9999873013139758,0.0076399761317236725,0.00022931981827456488
2.5747922532557985,0.9999819885299426,0.008922303894574855,0.0004759885880283207
2.570763527194569,0.9998978814387581,0.021213000782878518,0.0010347650390848194
2.596712651988991,0.9999977368861522,0.0031895704755562425,0.00021118701427272333
2.57037786236684,0.9999864542070019,0.007724279356611947,0.0006851197701127667
2.5612566438850335,0.9999826212310319,0.00871811581403696,0.00038369579825341343
2.544773270324593,0.9999551553891726,0.013914679314982501,0.0013383664883177295
2.590609283717638,0.9999898525928912,0.006738095087886444,0.0003492150148967811
2.5966227056422997,0.9999876449972134,0.007452271505885821,0.00044103836728718806
2.589971489815956,0.999972018039508,0.011186585282703759,0.0002691913947939757
2.5776237242381863,0.9999889219491841,0.00700501671045928,0.0005908464946853176
2.606492829426431,0.9999001354553599,0.02126909925091932,0.00036951818396491995
