slope,corelation,std_error,fit_error
2.664328554453713,0.9999888755406237,0.007255798783756784,0.000572202316063279
2.658480388477165,0.9999902772366299,0.006768397499545091,0.00017635635682616634
2.6481982225357266,0.9999957499594895,0.004457617291036964,0.00016931536607589758
2.660688858534997,0.999981571900436,0.009325985566952417,0.0007753168804381609
2.6309743668697703,0.9999811182164293,0.009334663033539591,0.0007996887873500775
2.66362275787553,0.9999975238492462,0.0034222870573747195,0.00018851367926573867
2.60335544607062,0.9997675162666584,0.03241603250403591,0.0011823213438911686
2.6612602173190036,0.9999984695579446,0.002688132406140541,0.0001828541536971053
2.6540065009498472,0.9999963829404529,0.00412131073415263,0.001261611981336555
2.6151873980646974,0.9998616851087159,0.02511520404263873,0.0005728893801806031
2.6566548988115644,0.9999964298808864,0.004098566909307851,0.0004395181777773866
2.6534887093736925,0.999993726802247,0.0054264792533849845,0.00017801858693758263
2.6554025047745236,0.9999767733924203,0.010449251633888395,0.0006572757177625387
2.6507343228326428,0.999991258105061,0.0063992077662180956,0.0002698262116785079
2.649451170934922,0.9999726997092764,0.011303236610410772,0.00039787853500905534
2.6286620683635116,0.9999586180936357,0.01380727118822471,0.0014326401062289325
2.6771709019721692,0.9999847393613449,0.008539290572072002,0.0012297642261558798
2.6632837734675707,0.999998396468215,0.0027536651123116268,0.0002325582510575681
2.6939106786435634,0.9999192081625471,0.01977186433313381,0.00035135203071934724
2.629649849334925,0.9999754109704482,0.010647091788058727,0.0011394502208253079
2.6466829347440473,0.9999927855455235,0.005804440800673721,0.0007651021645274506
2.6385678523367413,0.9999929172510905,0.005733579876937109,0.0007699083304455837
2.6245045036427013,0.9999760422568544,0.010488960470653518,0.0007546660901409161
2.649055614684693,0.9999948440586218,0.004911352564563334,0.000227402850074273
2.6545469540515714,0.9999978665087456,0.00316585420336489,0.00017957677767786625
2.659331289930675,0.9999954462470935,0.004633541189491073,0.0002665560389944753
2.637493052965484,0.9999047448127267,0.021019435131926292,0.0006638642454638045
2.6262805268172698,0.9999735340780592,0.011031831459979118,0.0003567288470059099
2.648067840583555,0.9999851549993327,0.008330641080636043,0.0008650501103456217
2.669147659467288,0.9999952943635592,0.004727566955483914,0.00023908431517910184
2.6708313360695684,0.9999934496523116,0.005581297128685125,0.0006304374897050603
2.6690383914087548,0.999980637410463,0.009589527691272488,0.0002544793348494228
2.619272691020084,0.9999810627511927,0.009306785324093993,0.0004367643045986369
2.6782557244030847,0.9999969206114389,0.0038374228869325197,0.001153486410246185
2.6566493571202177,0.9999815164998465,0.009325813707521922,0.0010914949779489973
2.6521262748626566,0.9999879116406343,0.0075289807588091815,0.00022168675111471862
2.578677732637117,0.9997904197280907,0.030485611674259488,0.0009145343534831971
2.624918038547415,0.9999519312037444,0.014859951726802094,0.0013047804288671768
2.6238358323571545,0.9999422701985061,0.01627833064790537,0.0020473278832500138
2.692529404906976,0.9999891792370408,0.007231814732077427,7.797064088583331e-05
2.643677933175232,0.9999563522811526,0.014261260384760714,0.00034564439501225504
2.6372310553609353,0.9999871503684147,0.00771884064759241,0.00043087768426166277
2.662112730587338,0.9999923063244203,0.00602906898974813,0.0002150850014698933
2.6600525531775308,0.9999885863043441,0.007337725296852242,0.001231406315819368
2.6551794285698116,0.9999719610097262,0.011479912110482273,0.000794629496846778
2.6793206129339935,0.9999989431271751,0.002249006784546087,9.79991881572839e-05
2.6799847403853883,0.9999292801553776,0.01840265042835555,0.00044198799223473705
2.657626889348852,0.9999963363240003,0.004153441546466497,0.0004173809904963549
2.685091534158711,0.9999821959609648,0.009250783857185512,0.00010323689999810557
2.6637600791544744,0.9999968519526221,0.0038589675960173965,0.0004554857830881539
2.694487889750348,0.9999833558101594,0.008975679947389242,0.0009909162628288517
2.6500440383991974,0.9999733735662111,0.011165357573966342,0.00021467189712536037
2.661124122590503,0.9999968050982989,0.003883732355537012,0.00016459026903876622
2.6503421212410774,0.9999939767164655,0.00531098316482992,0.00039100345708321753
2.642007015322845,0.9999894801371574,0.006996757182131866,0.0010468555055608594
2.645670189154175,0.9999617919240057,0.01335303859239694,0.0002483564870481375
2.6664812507052225,0.9999799751912678,0.009742796145659835,0.00017590112865567006
2.6373182180793444,0.9999227259019372,0.01893036765000804,0.0009876819120161792
2.681046932583073,0.9999788059054293,0.010077971465438118,0.0003754791273316953
2.6341485525467196,0.9999784975988186,0.009973443182217696,0.0005120107752140461
2.6222273980905304,0.999892669874321,0.02218301138173171,0.0012262065674619354
2.6293234814155273,0.9999686018560417,0.012029860903647882,0.0006347384462345028
2.6190479738766324,0.9999657839344838,0.012509040643268144,0.0008934747842967967
2.6315132661510843,0.9999971015605508,0.0036579940466001104,0.0002377873106168525
2.6514107320497713,0.9999862463493124,0.008028693063954033,0.00046706067160239034
2.6425647355172175,0.9999845362584624,0.008484814141849008,0.000211215010913946
2.661964839531127,0.9999956956060368,0.004509351548120001,0.0005551399853763245
2.6467316649060035,0.9999903247425401,0.006722002975473635,0.0005084411539785364
2.619475251243774,0.9999787170851854,0.009867136946188584,0.0008345065622575951
2.623712380027141,0.9999676699478424,0.0121810388518648,0.0006084100392106072
2.634712704686938,0.9999872763719676,0.00767356652671279,0.0004269003169561325
2.6498137171089162,0.9999745648196282,0.010911775198471934,0.0006300747126105593
2.6509011861113927,0.9999938430946909,0.005370703197886317,0.00042216482523846143
2.617518392374829,0.999878406912372,0.023568837605565603,0.001070546731469098
2.6506236156067313,0.999983724657398,0.008731177241444175,0.0005521440597697953
2.62823883967954,0.9999882744314614,0.007348352369263874,0.0011859163618468235
2.65996506242444,0.9999871689962222,0.007779734905152205,0.00018993944453750294
2.6382260503981922,0.99997393791373,0.01099713237850984,0.0027676977886850343
2.662703357160994,0.9999875176481505,0.0076812063489042235,0.0008113891142881588
2.6577830955040453,0.9999978522097144,0.0031803179596307605,0.00013050252944528368
2.6684321748725317,0.99998202680959,0.009236958256778068,0.00026107206587776575
2.663388957836235,0.9999977190006147,0.003284371632538792,0.0009345459208273306
2.6597555294712656,0.9999972158659401,0.0036236151723890633,0.0003063487206774743
2.6468954079330667,0.9999930622773405,0.005692484779078069,0.00032198289269910464
2.6398900621520562,0.9999842676993503,0.00854951452807861,0.0002282050817915015
2.674265519192637,0.9999540923130488,0.014795053995001884,0.003531483803929428
2.6498834053421274,0.9999915135400422,0.006302998203442079,0.00018262032590079383
2.6437653797848464,0.9999375074902176,0.017065209370509517,0.0003953231337695744
2.6436314923800945,0.9999783245213818,0.010049551855224775,0.0004043865045955957
2.659461772157215,0.9999496051536506,0.01541549945898871,0.00015015436497993454
2.660267234990211,0.9999998776715283,0.0007597023166772017,0.00023628480493901864
2.67983671800677,0.9999964590069539,0.004117431608192949,9.941009136508672e-05
2.6453602241325,0.9999932490599376,0.005612075624523299,0.00024987246660230345
2.6419109677108534,0.9999952530097908,0.0046998420484460415,0.00026391153655364285
2.6462307546428603,0.9999443558330603,0.016117958398512527,0.00031951474151669794
2.6205607088690788,0.9999370067223229,0.01698307070704325,0.0011503098188277833
2.641794020144794,0.9999887714876666,0.007227999116916684,0.0003679116429966991
2.6372170664847525,0.999985838708335,0.008103195081212244,0.0017899681217970443
2.673223639041867,0.9999750947792493,0.010892886372676994,0.0001079895544925552
2.663800516858873,0.999983580614313,0.008813326710310097,0.00022557691291618284
