slope,corelation,std_error,fit_error
2.1641605411421225,0.9997722493373318,0.009239287588545001,0.0002781998548085913
2.1421949545306336,0.9997334866039331,0.00989350846586986,0.00032439140932168445
2.1426595930447316,0.9997852179177935,0.008883153465654124,0.00026142573559853133
2.192893650377886,0.9997866950084996,0.009060090989335435,0.00026174761481224116
2.176517967590396,0.999712163716093,0.010446571709198844,0.00035232869732912744
2.1635642430198803,0.9996703653994498,0.011113185770564414,0.00040267466962842124
2.145117783252315,0.9996966468895745,0.010569858875652474,0.00036943192432651884
2.1959532143004186,0.9997948156613843,0.008898299551931306,0.00025190040929570263
2.210635234201908,0.999540787581114,0.013403508949672249,0.0005652655166340635
2.1466072970020202,0.9997614113965477,0.009379942291792258,0.0002906036294680757
2.1651943222296453,0.9997426469003027,0.009826308903925716,0.0003144263238180309
2.208618545657311,0.9996715240601122,0.011324642528715154,0.000404131275035582
2.159166113147793,0.9995772899633624,0.012560011827287478,0.0005160753265821543
2.139796597978993,0.999802709880682,0.008502260807263002,0.00024001383569713467
2.2105603139912655,0.9996584611110394,0.011557894117802187,0.00042033672431243007
2.217519289613333,0.9995960031032418,0.01261052117277451,0.0004977811882128399
2.169057262964962,0.9995624871021026,0.01283671753068839,0.0005350194418970743
2.1208550212013324,0.9997258164367362,0.009934957301178568,0.0003325277955246542
2.2032954048263775,0.9997688248217332,0.009476841814302295,0.00028414459391553335
2.164074859008481,0.9997703039591507,0.009278309487601428,0.00028057306476319334
2.1523348456321925,0.999704960100813,0.010459027936401431,0.0003597333383754152
2.1513615241283714,0.9997634684724086,0.009360088670329782,0.0002883241825918451
2.2092947750870766,0.9996473853967415,0.01173717780423058,0.00043389050647942826
2.147195735049237,0.9996786888588379,0.0108889047534236,0.0003914474540435243
2.183822910676309,0.9997829061319851,0.009102420838584273,0.00026601725375725876
2.1926688603327134,0.9996634445720343,0.011380359637957839,0.00041305064030449637
2.184628092549318,0.9997807054290282,0.009151828761765195,0.0002687491179962089
2.1626832705149788,0.9997407801022482,0.009850460363974134,0.00031657869014520344
2.180347735134718,0.999723065458651,0.0102647774589742,0.0003391862784371084
2.2137565561330894,0.9997767320858565,0.009357519566452827,0.00027486494509125687
2.184943221800882,0.9996953257544694,0.010789523813746909,0.00037344981561410895
2.1128673322207976,0.9997620317506623,0.009220495318763925,0.0002881933703295686
2.1615262817416205,0.9995403401650846,0.013112139265070094,0.0005614338864179442
2.182059168581876,0.9997640108540383,0.009482752326520653,0.0002890978500729296
2.1945344057796112,0.9997277079325656,0.010244566539427359,0.00033424653292485617
2.1645740459261353,0.9997445383729708,0.009787313483138252,0.0003120830439931407
2.1990329815479295,0.9997363197472272,0.01010186217916692,0.00032389871678546825
2.173375967336819,0.9997939712895724,0.008824921317771454,0.0002520333101738016
2.24827121417124,0.9995759537519461,0.013099009613073776,0.0005249106016721946
2.2534464325809846,0.9996681204230988,0.011614235213167314,0.0004110756810065315
2.158756667869723,0.9997564110205555,0.009531403532453733,0.0002972913971215216
2.1359619992275998,0.9997225405627433,0.010065344757942839,0.00033736731694778793
2.160523635411677,0.9996405902113109,0.011588202015533672,0.0004388494443880328
2.181132871703078,0.9996585479814242,0.011402581865676055,0.0004182993687462296
2.1609687156906263,0.9997727870251826,0.009214760560868685,0.0002773985539901256
2.1726904573581596,0.9997425221813524,0.009862718539050783,0.0003149601869314299
2.150303725349222,0.9997921202542798,0.008770383988946313,0.00025334340978028805
2.125276711550192,0.9997802284693168,0.008912874403360947,0.0002667171741405402
2.1590327666695086,0.9996800398656884,0.010925879321343104,0.0003905619831981077
2.2023197368992857,0.9994661038449326,0.014398846977507797,0.0006564271661738298
2.174877226995128,0.9997559186600334,0.009612282863832092,0.0002986718580403481
2.1277568106435196,0.9998007283391487,0.008496785751063182,0.00024193303786671928
2.176222029710125,0.9997669559282621,0.009398166683170693,0.00028522280407611126
2.1356235060629314,0.9997239139378465,0.010038801537428638,0.0003356775849036045
2.2203417191920134,0.9997394255893469,0.01013947764889638,0.0003211332380714895
2.1236500174671566,0.999794511938032,0.008611685816574151,0.000249307995583676
2.2297480192968013,0.9994596224001348,0.014666467259363394,0.0006671910973914534
2.152057772319227,0.9996940199537435,0.01064989078762114,0.0003730614015026575
2.074116853986906,0.9997647956917932,0.008998652306153316,0.00028289232918504297
2.1370575872273228,0.999756858210556,0.00942692888040254,0.0002956792131891995
2.170630932082212,0.9997309973073589,0.01007156426324712,0.0003289545269563972
2.1718146539416625,0.9997557542653452,0.009601980375082773,0.0002987259610925607
2.1221088131698735,0.9997837273533065,0.008828438447616988,0.0002623274379258869
2.1017808205820394,0.9996751473281908,0.010717203346199779,0.00039270655434358096
2.1219989010591584,0.9997192390659745,0.010058887526079729,0.0003405749084282755
2.1839161736198545,0.9996293973115348,0.011894768114085474,0.0004542315334814347
2.1557299722232033,0.9997237937742927,0.010135520719800466,0.0003369487677045528
2.1106970130002614,0.9997550631995805,0.00934496548469997,0.00029652413550932446
2.1657751923734043,0.9997819178076508,0.009047727530876518,0.0002664557284462723
2.169486947271886,0.9997462767163339,0.00977608236512816,0.0003102054357909472
2.174716630328664,0.9997657235204296,0.009416474462251098,0.00028666246486185867
2.219301673536468,0.9996402544568778,0.011909026083320074,0.0004433481386822598
2.191877702461562,0.9996576740036057,0.011473416983500054,0.00042008420601736954
2.2113523293727275,0.999622934086566,0.012148828994173593,0.00046414154480960113
2.1800198020070867,0.9997249153052568,0.010228884175862213,0.0003369020553387361
2.1240270231409104,0.9996567045842869,0.011133991211606289,0.00041661547368747494
2.180759576087382,0.9997811634878032,0.009126073509152956,0.0002680227012253172
2.24139632443573,0.9995327825369961,0.013708041366120685,0.0005778017574434657
2.173090353196625,0.9997635707585405,0.00945258066946763,0.0002892219506037565
2.213594183901027,0.999729810240207,0.010293556708957895,0.00033264553902119564
2.1491924550796515,0.9997526958201912,0.00956129224612246,0.00030135243680209044
2.1273803211961315,0.9997530709422994,0.009457071492412034,0.00029979547924830543
2.101133909375889,0.9996636744113829,0.010901549985658232,0.0004065366704923401
2.1578095614428556,0.999689464483476,0.010757588115794511,0.0003789764702178326
2.161572859488831,0.999731660060085,0.010017167803168718,0.00032766193840524346
2.184929126441569,0.9998273348957283,0.008121586637517773,0.00020013871817992104
2.124572070232108,0.999779259310157,0.008929549893958753,0.00026786153372835057
2.164005560551593,0.999731825052159,0.0100253566645653,0.0003275901622341464
2.2044401652422727,0.9995396552237555,0.013382427606113603,0.0005661190871781785
2.1894122727042977,0.9997151985498276,0.010452890983834664,0.0003493273654805424
2.1624348513433755,0.9995725649477302,0.012649179394568404,0.000522126248180432
2.1128947197239785,0.9996738971664453,0.010794595582589795,0.0003949835753573244
2.173025291571079,0.9994286693230128,0.014697372546663211,0.0006992481604158274
2.1952608306640324,0.999649388755175,0.011629425666650612,0.0004304851901737101
2.1496438471629107,0.9997062543367732,0.01042300467953995,0.000357995390846834
2.1712122516695485,0.9997963412589883,0.008765266916062997,0.00024904649152851445
2.1853701328659576,0.9997177960986602,0.010385883299627125,0.00034591887521067294
2.1941621745932745,0.9997196493858177,0.01039335602558547,0.00034412272055769905
2.1268368652094853,0.99968577042927,0.010666085702471819,0.0003815079747692762
2.2118872245370444,0.9997096750424378,0.010662148825548506,0.0003573523729700706
