slope,corelation,std_error,fit_error
2.528454950961847,0.9998356105095157,0.009170452985655875,0.00021069714228390632
2.53216676749366,0.9998390269283495,0.009087958832761624,0.00020639906646326145
2.516573188239919,0.999842597454156,0.008931238953498991,0.00020148194732485999
2.5368178679726356,0.9998442333261351,0.008956169324467881,0.00019982064953455423
2.5088804924412123,0.9998352123390369,0.00911047441413646,0.000210761025518945
2.532037220730166,0.9998721509881165,0.008098515413171909,0.0001639171125926476
2.4927214475060153,0.9998194736570104,0.009474315514465842,0.0002304850386423136
2.540995236626243,0.999851968976893,0.008745274296944274,0.0001899789362102838
2.535442497633606,0.9997932194278402,0.010313854161295625,0.000265243903860324
2.5099065444866793,0.9998505699395428,0.008679010370082474,0.0001911358931132781
2.5467970734529595,0.9997899422939553,0.010441840941629855,0.0002697720092961196
2.5093612984772005,0.9998550570933542,0.00854582287578417,0.000185384091842925
2.5205977698058066,0.9998256868447625,0.009413917899390847,0.00022323103953908203
2.5006004527654,0.9998135395583111,0.009659249719032639,0.00023827127437375844
2.4816736539722006,0.9998057598814016,0.009784134318767073,0.00024769265798764987
2.528090899265343,0.999842552920745,0.008973384383277988,0.00020178912714329222
2.492708764235076,0.9998429464860136,0.008836728733830465,0.00020050901617699884
2.514818787769089,0.9998370265062638,0.009081618759489922,0.0002085750422918788
2.5072936696103674,0.9998404522255466,0.00895875264750548,0.00020402226868901902
2.50214238159939,0.9998337414864351,0.009126476049025098,0.000212485594099478
2.4822371957496143,0.9997966491041836,0.010013307682172136,0.0002593306027644905
2.5225824354377706,0.9998469214996936,0.008828711505462803,0.00019607295153750462
2.502771626768863,0.9998115751163421,0.009718443740661427,0.00024083986283201278
2.509545864485397,0.9998311188018204,0.009225412521459081,0.00021601362777019762
2.533007164127774,0.9998320140522277,0.009286939375027427,0.0002154124979015426
2.5141568293568333,0.9998359797806555,0.00910834521485332,0.00020989988859041844
2.5435207884095257,0.9998576999015444,0.008582804875725504,0.00018267108040695423
2.5190455036691635,0.9998331610683412,0.00920415777078287,0.00021362109858726102
2.523227757972077,0.9998212090802902,0.009544043682094324,0.00022903184160246983
2.5167719162119457,0.9998400693164254,0.009003406256088966,0.00020472325617405611
2.5074008018698435,0.9997628788775089,0.010922728052417506,0.0003032583051655401
2.5186970619850424,0.9998441868169206,0.008893522029841816,0.00019949288018106704
2.516543013565962,0.9998521824740322,0.008654868374372437,0.00018920937494055375
2.5617630558960642,0.9998285616166103,0.009488418460008445,0.00022050454389195624
2.538204119481861,0.9998252817965634,0.009490684382809,0.00022417135200494795
2.527313046526732,0.9998255598220294,0.009442437478855098,0.00022355509562431121
2.4677485281645963,0.9997586521474507,0.010845416564826682,0.00030729980108663087
2.512003146419033,0.9998075537143588,0.009857859635133123,0.00024623008959077095
2.5099113216970204,0.999753349125983,0.011151288488685985,0.00031553715945839696
2.551739409684685,0.9998748384649294,0.008075278807224893,0.0001608045741754468
2.526039007345882,0.9997915629292248,0.010316691104540258,0.000267101208196752
2.495522286843012,0.9998264902808232,0.009298756411947159,0.00022159322372538836
2.535338752985206,0.9997881510142559,0.010439103294470684,0.0002717443890428581
2.5477538228723904,0.9998367458126742,0.009208476846276929,0.00020966969619754937
2.5643858791709806,0.9997948396857377,0.010390630018565744,0.00026396250107612554
2.5473871458075843,0.9998431115009695,0.009025818729337044,0.00020148448331263458
2.538580302148426,0.9998492177550874,0.008817797460050153,0.0001934611915538145
2.5460423838792834,0.9997762077070396,0.010774722377997776,0.00028739416616603314
2.5394280037183625,0.9998620415102639,0.008437233206864363,0.0001770201373072426
2.561388140597915,0.9998335946848175,0.00934669759897055,0.0002140210956600445
2.5750126426297215,0.9998602208851544,0.008611742486662135,0.0001800200952605665
2.522297517399734,0.9998617561153695,0.008388982780081874,0.00017706243225701864
2.5161780523174753,0.9998121645687148,0.00975520297549985,0.0002404380134665595
2.539492864380223,0.9998175980013313,0.00970211024522241,0.00023406461879898024
2.5284291566999126,0.9998424718650631,0.008976895379743435,0.00020190034351644752
2.5254257925018555,0.9998419226443653,0.008981852734629538,0.00020253923377169336
2.516852455037329,0.999872444392516,0.008040704068421839,0.00016327422767560911
2.5160869569749487,0.9998087518319574,0.009843092859939607,0.0002448053093497406
2.5729396634059083,0.9998353014679784,0.009340564214189412,0.00021207668625750355
2.5289346802812886,0.9998200145992764,0.009597538798048047,0.00023070357385216616
2.5114392925831845,0.9998078503487745,0.009848046093115627,0.00024583534184919497
2.5010203198996463,0.9998247549607203,0.009365741505371622,0.00022394610199324028
2.5009363321707805,0.9998164535837931,0.009584740853438977,0.00023455520351309131
2.505925393057456,0.9998183620377515,0.009553788230869668,0.00023224305493924565
2.4987801856034406,0.9998513982220711,0.008616550876386582,0.00018984407890996013
2.5049942919039054,0.9998169101358019,0.009588342258819034,0.00023407606457625033
2.5584317660454747,0.9997756669502326,0.010840231127562496,0.0002884613206015189
2.5044958652929425,0.9998515024024399,0.008633231750598755,0.0001898304295417074
2.4946091004349213,0.9998001746274183,0.009975574270826664,0.0002551857676349387
2.4896426881307483,0.9998177894223325,0.009506664423696244,0.00023255617191947288
2.4915145138114405,0.9998285142368327,0.009229502934992634,0.00021891019935851486
2.4992747797907846,0.999828267291317,0.009264915287206195,0.00021941426997939875
2.52251942013713,0.9998769547873293,0.007915018855833969,0.00015759618276123857
2.5100345363280057,0.9998507285361188,0.008674844759389523,0.00019093565442591682
2.549038408127588,0.999803620265581,0.01010493860770832,0.0002522597790572135
2.5146039776133913,0.9998404358701173,0.008985333562232186,0.00020420589755197442
2.503550725316189,0.9998233910333785,0.009411639733861226,0.00022575239868738748
2.5274958035749004,0.9997314286973553,0.011717979462043747,0.00034424488531757024
2.515888373984789,0.9998167247787564,0.009634916181880506,0.00023459176005179592
2.5194508629839674,0.9998705121559676,0.008109751864802088,0.00016579461913426147
2.5189724620269383,0.99984937345875,0.008745169503290075,0.0001928564887799824
2.4898696878038264,0.999811646452449,0.00966651370763963,0.00024040477670366996
2.5217993287911504,0.9998756778232881,0.00795372036816414,0.0001592196709681257
2.534377343339646,0.9998358659807046,0.009184785963428387,0.00021050254236883222
2.5101861644049195,0.9998110236464701,0.009761492336173615,0.00024174125042433837
2.5644299332946843,0.9996453058909838,0.013664016380044636,0.0004564595191927201
2.526486515376801,0.9998633791074618,0.00835343391211358,0.00017506206986476846
2.5341477561383265,0.9998337264626757,0.009243632244318232,0.00021324196197225739
2.50760030245787,0.999840558079327,0.008956874809341807,0.00020389371843514506
2.5325202938296525,0.9998667181692383,0.008270405783195987,0.00017089279891350224
2.543327462540544,0.9998378754103808,0.00916061289877021,0.0002081217955254845
2.5362376907538717,0.9998486909562695,0.008825039905870571,0.00019408906922155543
2.492777714245031,0.9998137504942175,0.009623582711982201,0.00023779555425233027
2.4936089516260016,0.9998210828839051,0.009435340328367221,0.0002284524632669335
2.521233814050477,0.9997330972724823,0.011652566012265568,0.0003418751685954551
2.502705526625015,0.9998389876493688,0.008983318368372671,0.00020579190442754816
2.4942423658425708,0.9998290778862704,0.009224406880443096,0.00021825668659674672
2.539934552732999,0.9998415089632561,0.009045269300146272,0.00020338343614850063
2.534136333824712,0.9998414765589637,0.009025543295701332,0.0002033000321286796
2.494797285066307,0.9997967239218497,0.01006212277061403,0.0002595992358263597
