slope,corelation,std_error,fit_error
2.6238977289658805,0.9998496951561935,0.009099705709260362,0.00019452014409961324
2.6336210370754873,0.9998742851624857,0.008352807953379454,0.00016284269059230292
2.664510991766681,0.9998364763573514,0.00963842459881334,0.00021244683316858475
2.645386299367442,0.9998713371330078,0.00848794617852453,0.00016684870479991408
2.6366176393635725,0.9998481532659322,0.009190610024415725,0.00019675625743405703
2.6351909108304508,0.9998591998194182,0.008845136687022932,0.00018241475325855201
2.685917752967072,0.9998138939924903,0.010365220006909046,0.00024226849057320014
2.6333778483512718,0.9998891262726837,0.007843476715149442,0.00014361195736689377
2.6342871280179074,0.9998655203017208,0.008641323673345299,0.0001742095022972232
2.6242496210546853,0.9998747523382917,0.008307603272330858,0.0001620912895910389
2.639404528809675,0.9998561346840392,0.008955211903433893,0.00018646155067211814
2.6511484302108195,0.9998664738669567,0.00866574027389403,0.00017325066057501993
2.6019793842362104,0.9998339882033093,0.009483581885069437,0.00021439266761982898
2.6383061595079416,0.9998645169666411,0.008686739016698886,0.00017557684451005684
2.620708352754975,0.9998492010200964,0.009103575763647042,0.0001950995231527384
2.608089554879671,0.9998255777564408,0.009743730116551962,0.00022539277050547535
2.6351364162332893,0.9998779310399561,0.008235509676851507,0.00015814210950457867
2.631251978387216,0.9998484645438791,0.009162498701549851,0.0001962520663828017
2.6313496709188775,0.9998555957832613,0.008944591978648535,0.0001870162206978776
2.6413812849213754,0.9998347872753048,0.009603989025981304,0.0002141766710724267
2.629751486982841,0.9998698379486396,0.008486806391975538,0.00016854189575395446
2.619976878185422,0.999866377065205,0.0085669549333268,0.0001728609100557235
2.6263647659603677,0.9998585039060365,0.008837274693767189,0.0001831613172254542
2.642486685069785,0.9998571139333025,0.008935097310385953,0.00018524630211569067
2.617234188876548,0.9998745162965085,0.008293199597196701,0.00016228636288262254
2.6298699085239035,0.9998587880924482,0.00884017614478487,0.00018285504634926795
2.6220445532051495,0.9998754606579476,0.008277113525673525,0.00016114005516318914
2.6256276376333454,0.9998357181755998,0.009519768828295217,0.00021264872899657487
2.6090247529177866,0.9998449916627414,0.009188639557824157,0.00020031820562854062
2.6434018103529406,0.9998456621750874,0.009289549214248077,0.00020011385884369478
2.6570850885963653,0.9998708002551807,0.008543255008059582,0.00016772931795563204
2.630375497852974,0.9998583625360805,0.008855191405710967,0.00018341512168807696
2.637230969060669,0.9998880895902029,0.007891596244989517,0.0001450083346668924
2.6316971433283047,0.9998202835508853,0.009980064788128731,0.00023276876940114892
2.6635539287333425,0.99977047132293,0.011415626130347162,0.0002982023988654692
2.639087658614911,0.9998777681343546,0.008253361083090755,0.00015841286242000927
2.6214490060544082,0.999874482408952,0.008307676790106723,0.00016239666814548396
2.6206300876604436,0.9998515816811211,0.009031145049276204,0.00019201734665712632
2.6058267453070476,0.999845604911713,0.009159200478066733,0.00019946276763245277
2.6441053453092236,0.9998533744215444,0.00905683342018946,0.00019012465356091
2.6604247405277066,0.9998667371211808,0.008687483179144657,0.000173059074357941
2.6173767051339345,0.9998463047498268,0.009178918540380268,0.00019878314221357564
2.6459229051535798,0.9998753784454723,0.008355248216069146,0.00016161518709039774
2.643234754428213,0.999846764551874,0.009255721262337561,0.00019868104833115405
2.610460238166581,0.9998368267796687,0.00943277927957163,0.0002109020183407854
2.6465003140049626,0.9998496060858905,0.009180811387302328,0.0001950561926846382
2.631110729418119,0.9998275396642005,0.00977428307080037,0.00022335565568633097
2.63733043649568,0.9998639620809476,0.008701294027172657,0.00017627969759860827
2.6209103413045103,0.9998611485231171,0.008736100874639491,0.00017964247539705762
2.6424358716061747,0.9998443469678385,0.009325646447726581,0.00020180107587888582
2.6539230405710414,0.9998693121280844,0.00858209924394526,0.00016961143423053904
2.6223137180863922,0.9998305531788297,0.00965609547320309,0.00021926582492209207
2.6294820448996976,0.9998684585676378,0.008530791656334129,0.0001703239462769435
2.6279017090052332,0.999838969292605,0.009433240723925715,0.00020848511004483173
2.65752073650701,0.9998395012783439,0.009523788166116102,0.00020838044463314113
2.6236636104134665,0.9998652054061014,0.008616547598944197,0.00017443922346708072
2.6060629456553706,0.9998637678715528,0.008604270255756422,0.0001759973681677397
2.6323387432711955,0.9998373244587793,0.00949731606583043,0.00021070495420380368
2.6095098950014397,0.9998535115841927,0.008934151261026011,0.00018931445588530634
2.639284488063272,0.999859780913987,0.008840573531722653,0.00018173266066766434
2.661267989216053,0.9997848269455891,0.011043268745954373,0.0002794862894265873
2.621645480435933,0.9998421472608104,0.009317436422437386,0.0002042461968180188
2.6540447195747836,0.9998461529576301,0.00931210622141935,0.00019967745478170982
2.638385489011001,0.9998537579189217,0.009025412510768457,0.0001895243331550096
2.6254967035780474,0.9998723103013578,0.008392203301969882,0.00016527219952571602
2.633537080425994,0.9998572066799224,0.00890194468858133,0.00018496828107162215
2.6279252283592816,0.9998622009392097,0.008726217109535996,0.00017840147738558515
2.6395269778446084,0.9998685212508152,0.008561339300192265,0.00017040633619809086
2.651829767860571,0.999847173712762,0.009273409741609314,0.00019831111608872466
2.627147017992818,0.9998339643859533,0.009575998808873908,0.0002149509118699522
2.6353230521549693,0.9998505430716766,0.009113507726244578,0.00019363502821346103
2.6717440438312887,0.999806694518458,0.01050811697931335,0.00025131783333003137
2.6305613438041706,0.9998766188822975,0.008265287565661517,0.00015977232339929
2.6319804303529355,0.9998672948033698,0.008576593813665528,0.00017187233435988304
2.646963984745529,0.9998375672458139,0.009542952070144134,0.00021068321699585922
2.6052743053209095,0.9998520231535603,0.008964860519035441,0.0001911588029765953
2.637343555764909,0.9998789335177963,0.008208486704425885,0.00015687618843267815
2.6177278201646565,0.9998550984181207,0.008913602169358112,0.00018741370288230004
2.6641684091273254,0.9998700695001147,0.00859022514724324,0.00016878938860342903
2.617634042201176,0.9998597877107034,0.008767840432917971,0.00018134570614032017
2.6403261470596373,0.9998474557202071,0.009224656956220103,0.00019773011645414024
2.636455512498177,0.9998719408968679,0.008439415779568292,0.0001659248132017506
2.643210038148875,0.9998480061636645,0.009218052320556837,0.0001970703786094878
2.654036694160518,0.9998273958086022,0.00986356274920984,0.0002240284186159068
2.6624930025743723,0.9998366013529205,0.009627442292837478,0.0002122446642862877
2.6443483933369714,0.9998437861185449,0.009349198160357206,0.00020256506970815004
2.635245421506107,0.9998280120310699,0.009776223474357134,0.00022283191798974346
2.6185679173507412,0.999872450476694,0.008365459570720024,0.0001649799744395202
2.628338077305971,0.9998628284843907,0.008707688248767522,0.00017759591556004597
2.6451101791530207,0.9998522128505958,0.0090961002460965,0.000191649376535246
2.639528872077133,0.9998609231839546,0.008805298517557566,0.00018025608883139846
2.6022099373341776,0.9998332032937741,0.009506822691477035,0.00021541148939129996
2.628479386947878,0.9998467152389465,0.00920553412245981,0.0001984652249627368
2.656471999945786,0.9998550263794788,0.00904777836568403,0.00018820090799381262
2.6566020835231763,0.9998478921632271,0.009268230935051653,0.00019746687193124816
2.6486832363062325,0.9998542845568879,0.009044306541702121,0.00018902594723594455
2.627697949616968,0.9998589456344913,0.008827945628641767,0.00018261285184944422
2.6413518349443965,0.9998420929341223,0.009389089263851274,0.0002047030248114286
2.6178571298767683,0.9998700836199154,0.008440442388751059,0.00016803038638216644
2.644142509232829,0.9998367760041421,0.009555975443600668,0.00021165330054721335
